"resources"
{
"maps\cs_siege_pcs_oc_v3.bsp" "file"
"maps\cs_siege_pcs_oc_v3.res" "file"
"maps\cfg\cs_siege_pcs_oc_v3_briefing.txt" "file"
"maps\cfg\cs_siege_pcs_oc_v3_cfg.txt" "file"
"maps\cfg\cs_siege_pcs_oc_v3_modify.txt" "file"
"maps\cfg\cs_siege_pcs_oc_v3_soundscripts.txt" "file"
"materials\cs_siege_pcs\armorysign.vmt" "file"
"materials\cs_siege_pcs\armorysign.vtf" "file"
"materials\cs_siege_pcs\BLEND_DIRT_CONCRETE.vmt" "file"
"materials\cs_siege_pcs\BLEND_DIRT_ROCKWALL.vmt" "file"
"materials\cs_siege_pcs\BLEND_DIRT_ROCKWALL_NG.vmt" "file"
"materials\cs_siege_pcs\BLEND_ROCKWALL_ROCKWALL.vmt" "file"
"materials\cs_siege_pcs\BRICKWALL056A_N.vmt" "file"
"materials\cs_siege_pcs\brickwall056a_normal.vtf" "file"
"materials\cs_siege_pcs\Brief.vmt" "file"
"materials\cs_siege_pcs\Brief.vtf" "file"
"materials\cs_siege_pcs\CITADEL_METALWALL076A.vmt" "file"
"materials\cs_siege_pcs\compactonly_decal.vmt" "file"
"materials\cs_siege_pcs\compactonly_decal.vtf" "file"
"materials\cs_siege_pcs\credits.vmt" "file"
"materials\cs_siege_pcs\credits.vtf" "file"
"materials\cs_siege_pcs\cs_siege_pcs.vmt" "file"
"materials\cs_siege_pcs\cs_siege_pcs.vtf" "file"
"materials\cs_siege_pcs\FLOW.vmt" "file"
"materials\cs_siege_pcs\hl2sp.vmt" "file"
"materials\cs_siege_pcs\hl2sp.vtf" "file"
"materials\cs_siege_pcs\INFBASEB.vmt" "file"
"materials\cs_siege_pcs\key.vmt" "file"
"materials\cs_siege_pcs\key.vtf" "file"
"materials\cs_siege_pcs\metaldoor030a_-384_480_-444.vmt" "file"
"materials\cs_siege_pcs\MILFLR001.vmt" "file"
"materials\cs_siege_pcs\noparking_decal.vmt" "file"
"materials\cs_siege_pcs\noparking_decal.vtf" "file"
"materials\cs_siege_pcs\oc.vmt" "file"
"materials\cs_siege_pcs\oc.vtf" "file"
"materials\cs_siege_pcs\PRODVENTA.vmt" "file"
"materials\cs_siege_pcs\SIEGEMAP.vmt" "file"
"materials\cs_siege_pcs\siegemap.vtf" "file"
"materials\cs_siege_pcs\THEMOONINITES.vmt" "file"
"materials\cs_siege_pcs\themooninites.vtf" "file"
"materials\cs_siege_pcs\VehicleTv.vmt" "file"
"materials\cs_siege_pcs\VehicleTv.vtf" "file"
"materials\cs_siege_pcs\Waitr.vmt" "file"
"materials\cs_siege_pcs\Waitr.vtf" "file"
"materials\cs_siege_pcs\Xeno.vmt" "file"
"materials\cs_siege_pcs\Xeno.vtf" "file"
"materials\models\APC\APCBase.vmt" "file"
"materials\models\APC\APCBase.vtf" "file"
"materials\models\APC\APCglassT.vmt" "file"
"materials\models\APC\APCglassT.vtf" "file"
"materials\models\APC\APCInT.vmt" "file"
"materials\models\APC\APCInT.vtf" "file"
"materials\models\APC\APCseatT.vmt" "file"
"materials\models\APC\APCseatT.vtf" "file"
"materials\models\APC\APCseatT_normal.vtf" "file"
"materials\models\APC\APCT.vmt" "file"
"materials\models\APC\APCT.vtf" "file"
"materials\models\APC\APCTurret.vmt" "file"
"materials\models\APC\APCTurret.vtf" "file"
"materials\models\APC\APCvT.vmt" "file"
"materials\models\APC\APCvT.vtf" "file"
"materials\models\APC\APCvT_normal.vtf" "file"
"materials\models\APC\wheel.vmt" "file"
"materials\models\APC\wheel.vtf" "file"
"materials\models\APC\wheel_normal.vtf" "file"
"materials\models\BlackOps\boot_chrome1.vmt" "file"
"materials\models\BlackOps\boot_chrome1.vtf" "file"
"materials\models\BlackOps\nvg_glow.vmt" "file"
"materials\models\BlackOps\nvg_glow.vtf" "file"
"materials\models\BlackOps\PC_Massn_body.vmt" "file"
"materials\models\BlackOps\PC_Massn_body.vtf" "file"
"materials\models\BlackOps\PC_Massn_body_normal.vtf" "file"
"materials\models\BlackOps\PC_Massn_hand_wht.vmt" "file"
"materials\models\BlackOps\PC_Massn_hand_wht.vtf" "file"
"materials\models\BlackOps\PC_Massn_mask_nvg.vmt" "file"
"materials\models\BlackOps\PC_Massn_mask_nvg.vtf" "file"
"materials\models\BlackOps\PC_Massn_mask_nvg_normal.vtf" "file"
"materials\models\BlackOps\PC_Massn_misc.vmt" "file"
"materials\models\BlackOps\PC_Massn_misc.vtf" "file"
"materials\models\BlackOps\PC_Massn_misc_normal.vtf" "file"
"materials\models\cs_siege_pcs\conduit_32.vmt" "file"
"materials\models\cs_siege_pcs\conduit_32.vtf" "file"
"materials\models\cs_siege_pcs\conduit_192.vmt" "file"
"materials\models\cs_siege_pcs\conduit_192.vtf" "file"
"materials\models\HLBattery\batteryE.vmt" "file"
"materials\models\HLBattery\batteryE.vtf" "file"
"materials\models\HLBattery\batteryE_m.vtf" "file"
"materials\models\HLBattery\BatteryT.vmt" "file"
"materials\models\HLBattery\BatteryT.vtf" "file"
"materials\models\HLBattery\BatteryT_m.vtf" "file"
"materials\models\HLBattery\BatteryT_normal.vtf" "file"
"materials\models\HLMedkit\medkitP.vmt" "file"
"materials\models\HLMedkit\medkitP.vtf" "file"
"materials\models\HLMedkit\medkitT.vmt" "file"
"materials\models\HLMedkit\medkitT.vtf" "file"
"materials\models\HLMedkit\medkitT_m.vtf" "file"
"materials\models\weapons\bluberetta_92fs\frame.vmt" "file"
"materials\models\weapons\bluberetta_92fs\frame.vtf" "file"
"materials\models\weapons\bluberetta_92fs\frame_normal.vtf" "file"
"materials\models\weapons\bluberetta_92fs\slide.vmt" "file"
"materials\models\weapons\bluberetta_92fs\slide.vtf" "file"
"materials\models\weapons\bluberetta_92fs\slide_normal.vtf" "file"
"materials\models\weapons\bluberetta_92fs\v_hand_sheet.vmt" "file"
"materials\models\weapons\bluberetta_92fs\v_hand_sheet.vtf" "file"
"materials\models\weapons\KimM3\LENS.vmt" "file"
"materials\models\weapons\KimM3\LENS.vtf" "file"
"materials\models\weapons\KimM3\M3.vmt" "file"
"materials\models\weapons\KimM3\M3.vtf" "file"
"materials\models\weapons\KimM3\M3_NORM.vtf" "file"
"materials\models\weapons\KimM3\REDDOT.vmt" "file"
"materials\models\weapons\KimM3\REDDOT.vtf" "file"
"materials\models\weapons\KimM3\REDDOT_NORM.vtf" "file"
"materials\models\weapons\KimM3\TORCH.vmt" "file"
"materials\models\weapons\KimM3\TORCH.vtf" "file"
"materials\models\weapons\KimM3\TORCH_NORM.vtf" "file"
"materials\models\weapons\KimM3\v_hand_sheet.vmt" "file"
"materials\models\weapons\KimM3\v_hand_sheet.vtf" "file"
"materials\models\weapons\twinke.mp5k\buttk.vmt" "file"
"materials\models\weapons\twinke.mp5k\buttk.vtf" "file"
"materials\models\weapons\twinke.mp5k\buttk_ref.vtf" "file"
"materials\models\weapons\twinke.mp5k\forek.vmt" "file"
"materials\models\weapons\twinke.mp5k\forek.vtf" "file"
"materials\models\weapons\twinke.mp5k\forek_ref.vtf" "file"
"materials\models\weapons\twinke.mp5k\mag.vmt" "file"
"materials\models\weapons\twinke.mp5k\mag.vtf" "file"
"materials\models\weapons\twinke.mp5k\mag_ref.vtf" "file"
"materials\models\weapons\twinke.mp5k\rec.vmt" "file"
"materials\models\weapons\twinke.mp5k\rec.vtf" "file"
"materials\models\weapons\twinke.mp5k\rec_ref.vtf" "file"
"materials\models\weapons\twinke.mp5k\sef.vmt" "file"
"materials\models\weapons\twinke.mp5k\sef.vtf" "file"
"materials\models\weapons\twinke.mp5k\sef_ref.vtf" "file"
"materials\models\weapons\twinke.mp5k\v_hand_sheet.vmt" "file"
"materials\models\weapons\twinke.mp5k\v_hand_sheet.vtf" "file"
"materials\models\weapons\v_models\kimono.python\1.vmt" "file"
"materials\models\weapons\v_models\kimono.python\1.vtf" "file"
"materials\models\weapons\v_models\kimono.python\1_ref.vtf" "file"
"materials\models\weapons\v_models\kimono.python\bullet.vmt" "file"
"materials\models\weapons\v_models\kimono.python\bullet.vtf" "file"
"materials\models\weapons\v_models\kimono.python\bullet_back1.vmt" "file"
"materials\models\weapons\v_models\kimono.python\bullet_back1.vtf" "file"
"materials\models\weapons\v_models\kimono.python\bullet_back1_ref.vtf" "file"
"materials\models\weapons\v_models\kimono.python\bullet_back2.vmt" "file"
"materials\models\weapons\v_models\kimono.python\bullet_back2.vtf" "file"
"materials\models\weapons\v_models\kimono.python\bullet_back2_ref.vtf" "file"
"materials\models\weapons\v_models\kimono.python\bullet_ref.vtf" "file"
"materials\models\weapons\v_models\kimono.python\v_hand_sheet.vmt" "file"
"materials\models\weapons\v_models\kimono.python\v_hand_sheet.vtf" "file"
"materials\models\weapons\v_models\tsusas\black.vmt" "file"
"materials\models\weapons\v_models\tsusas\black.vtf" "file"
"materials\models\weapons\v_models\tsusas\Eotech557.vmt" "file"
"materials\models\weapons\v_models\tsusas\Eotech557.vtf" "file"
"materials\models\weapons\v_models\tsusas\Eotech557Main.vmt" "file"
"materials\models\weapons\v_models\tsusas\Eotech557Main.vtf" "file"
"materials\models\weapons\v_models\tsusas\Eotech557Main_nor.vtf" "file"
"materials\models\weapons\v_models\tsusas\Rail.vmt" "file"
"materials\models\weapons\v_models\tsusas\Rail.vtf" "file"
"materials\models\weapons\v_models\tsusas\usas-1.vmt" "file"
"materials\models\weapons\v_models\tsusas\USAS-1.vtf" "file"
"materials\models\weapons\v_models\tsusas\USAS-1_ref.vtf" "file"
"materials\models\weapons\v_models\tsusas\usas-2.vmt" "file"
"materials\models\weapons\v_models\tsusas\USAS-2.vtf" "file"
"materials\models\weapons\v_models\tsusas\USAS-2_ref.vtf" "file"
"materials\models\weapons\v_models\tsusas\usas-3.vmt" "file"
"materials\models\weapons\v_models\tsusas\USAS-3.vtf" "file"
"materials\models\weapons\v_models\tsusas\USAS-3_ref.vtf" "file"
"materials\models\weapons\v_models\tsusas\v_hand_sheet.vmt" "file"
"materials\models\weapons\v_models\tsusas\v_hand_sheet.vtf" "file"
"materials\models\weapons\w_models\kimono.python\1.vmt" "file"
"materials\models\weapons\w_models\kimono.python\1.vtf" "file"
"materials\models\weapons\w_models\kimono.python\bullet.vmt" "file"
"materials\models\weapons\w_models\kimono.python\bullet.vtf" "file"
"materials\VGUI\maps\menu_thumb_cs_siege_pcs_oc_v3.vmt" "file"
"materials\VGUI\maps\menu_thumb_cs_siege_pcs_oc_v3.vtf" "file"
"models\APC\apc.mdl" "file"
"models\APC\APC.phy" "file"
"models\APC\apc.vvd" "file"
"models\APC\APC.dx80.vtx" "file"
"models\APC\APC.dx90.vtx" "file"
"models\APC\APC.sw.vtx" "file"
"models\APC\apcbase.mdl" "file"
"models\APC\APCBase.phy" "file"
"models\APC\apcbase.vvd" "file"
"models\APC\APCBase.dx80.vtx" "file"
"models\APC\APCBase.dx90.vtx" "file"
"models\APC\APCBase.sw.vtx" "file"
"models\APC\apcgun.mdl" "file"
"models\APC\APCGun.phy" "file"
"models\APC\apcgun.vvd" "file"
"models\APC\APCGun.dx80.vtx" "file"
"models\APC\APCGun.dx90.vtx" "file"
"models\APC\APCGun.sw.vtx" "file"
"models\BlackOps\blackops.mdl" "file"
"models\BlackOps\BlackOps.phy" "file"
"models\BlackOps\blackops.vvd" "file"
"models\BlackOps\BlackOps.dx80.vtx" "file"
"models\BlackOps\BlackOps.dx90.vtx" "file"
"models\BlackOps\BlackOps.sw.vtx" "file"
"models\cs_siege_pcs\conduit_32.mdl" "file"
"models\cs_siege_pcs\conduit_32.phy" "file"
"models\cs_siege_pcs\conduit_32.vvd" "file"
"models\cs_siege_pcs\conduit_32.dx80.vtx" "file"
"models\cs_siege_pcs\conduit_32.dx90.vtx" "file"
"models\cs_siege_pcs\conduit_32.sw.vtx" "file"
"models\cs_siege_pcs\conduit_192.mdl" "file"
"models\cs_siege_pcs\conduit_192.phy" "file"
"models\cs_siege_pcs\conduit_192.vvd" "file"
"models\cs_siege_pcs\conduit_192.dx80.vtx" "file"
"models\cs_siege_pcs\conduit_192.dx90.vtx" "file"
"models\cs_siege_pcs\conduit_192.sw.vtx" "file"
"models\HLBattery\bat.mdl" "file"
"models\HLBattery\bat.phy" "file"
"models\HLBattery\bat.vvd" "file"
"models\HLBattery\bat.dx80.vtx" "file"
"models\HLBattery\bat.dx90.vtx" "file"
"models\HLBattery\bat.sw.vtx" "file"
"models\HLMedkit\med.mdl" "file"
"models\HLMedkit\med.phy" "file"
"models\HLMedkit\med.vvd" "file"
"models\HLMedkit\med.dx80.vtx" "file"
"models\HLMedkit\med.dx90.vtx" "file"
"models\HLMedkit\med.sw.vtx" "file"
"models\weapons\v_blubem3.mdl" "file"
"models\weapons\v_blubem3.vvd" "file"
"models\weapons\v_blubem3.dx80.vtx" "file"
"models\weapons\v_blubem3.dx90.vtx" "file"
"models\weapons\v_blubem3.sw.vtx" "file"
"models\weapons\v_bluberetta.mdl" "file"
"models\weapons\v_bluberetta.vvd" "file"
"models\weapons\v_bluBeretta.dx80.vtx" "file"
"models\weapons\v_bluBeretta.dx90.vtx" "file"
"models\weapons\v_bluBeretta.sw.vtx" "file"
"models\weapons\v_bluepython.mdl" "file"
"models\weapons\v_bluepython.vvd" "file"
"models\weapons\v_bluepython.dx80.vtx" "file"
"models\weapons\v_bluepython.dx90.vtx" "file"
"models\weapons\v_bluepython.sw.vtx" "file"
"models\weapons\v_blump5k.mdl" "file"
"models\weapons\v_blump5k.vvd" "file"
"models\weapons\v_blump5k.dx80.vtx" "file"
"models\weapons\v_blump5k.dx90.vtx" "file"
"models\weapons\v_blump5k.sw.vtx" "file"
"models\weapons\v_usas12.mdl" "file"
"models\weapons\v_usas12.vvd" "file"
"models\weapons\v_usas12.dx80.vtx" "file"
"models\weapons\v_usas12.dx90.vtx" "file"
"models\weapons\v_usas12.sw.vtx" "file"
"models\weapons\w_blubem3.mdl" "file"
"models\weapons\w_blubem3.phy" "file"
"models\weapons\w_blubem3.vvd" "file"
"models\weapons\w_blubem3.dx80.vtx" "file"
"models\weapons\w_blubem3.dx90.vtx" "file"
"models\weapons\w_blubem3.sw.vtx" "file"
"models\weapons\w_bluberetta.mdl" "file"
"models\weapons\W_bluberetta.phy" "file"
"models\weapons\w_bluberetta.vvd" "file"
"models\weapons\W_bluberetta.dx80.vtx" "file"
"models\weapons\W_bluberetta.dx90.vtx" "file"
"models\weapons\W_bluberetta.sw.vtx" "file"
"models\weapons\w_blupython.mdl" "file"
"models\weapons\W_blupython.phy" "file"
"models\weapons\w_blupython.vvd" "file"
"models\weapons\W_blupython.dx80.vtx" "file"
"models\weapons\W_blupython.dx90.vtx" "file"
"models\weapons\W_blupython.sw.vtx" "file"
"models\weapons\w_mp5k.mdl" "file"
"models\weapons\w_mp5k.phy" "file"
"models\weapons\w_mp5k.vvd" "file"
"models\weapons\w_mp5k.dx80.vtx" "file"
"models\weapons\w_mp5k.dx90.vtx" "file"
"models\weapons\w_mp5k.sw.vtx" "file"
"models\weapons\w_mp5k.xbox.vtx" "file"
"models\weapons\w_usas.mdl" "file"
"models\weapons\w_usas.phy" "file"
"models\weapons\w_usas.vvd" "file"
"models\weapons\w_usas.dx80.vtx" "file"
"models\weapons\w_usas.dx90.vtx" "file"
"models\weapons\w_usas.sw.vtx" "file"
"scripts\customweapons\custom_aa12.txt" "file"
"scripts\customweapons\custom_bluBeretta.txt" "file"
"scripts\customweapons\custom_blum3.txt" "file"
"scripts\customweapons\custom_blump5k.txt" "file"
"scripts\customweapons\custom_python.txt" "file"
"scripts\vehicles\apc_test.txt" "file"
"sound\maps\cs_siege_pcs_oc\Computer1.mp3" "file"
"sound\maps\cs_siege_pcs_oc\Computer2.mp3" "file"
"Sound\maps\cs_siege_pcs_oc\Part1.mp3" "file"
"sound\maps\cs_siege_pcs_oc\Part2.mp3" "file"
"sound\maps\cs_siege_pcs_oc\Part3 (1).mp3" "file"
"sound\maps\cs_siege_pcs_oc\Scientist (2).mp3" "file"
"sound\weapons\bem3\m3_insertshell.wav" "file"
"sound\weapons\bem3\m3_pump.wav" "file"
"sound\weapons\bem3\m3-1.wav" "file"
"sound\weapons\Beretta\pistol_fire2.wav" "file"
"sound\weapons\Beretta\pistol_reload1.wav" "file"
"sound\weapons\mp5k\mp5k_fire1.wav" "file"
"sound\weapons\mp5k\mp5k_fireburst1.wav" "file"
"sound\weapons\usas-12\xm1014-1.wav" "file"
}
