"resources"
{
"maps\dod_kalt.res" "file"
"maps\cfg\dod_kalt_cfg.txt" "file"
"maps\cfg\dod_kalt_briefing.txt" "file"
"maps\cfg\dod_kalt_modify.txt" "file"
"scripts\game_sounds_dod_weapons.txt" "file"
"scripts\merchants\merchant_dod_colmar.txt" "file"
"scripts\merchants\merchant_dod_kalt.txt" "file"
"scripts\soundscripts\Base_DODS.txt" "file"
"scripts\customweapons\custom_30cal.txt" "file"
"scripts\customweapons\custom_30cal_npc.txt" "file"
"scripts\customweapons\custom_bar.txt" "file"
"scripts\customweapons\custom_bar_npc.txt" "file"
"scripts\customweapons\custom_c96.txt" "file"
"scripts\customweapons\custom_colt.txt" "file"
"scripts\customweapons\custom_k98.txt" "file"
"scripts\customweapons\custom_m1carbine.txt" "file"
"scripts\customweapons\custom_m1garand.txt" "file"
"scripts\customweapons\custom_mg42.txt" "file"
"scripts\customweapons\custom_mg42_npc.txt" "file"
"scripts\customweapons\custom_mp40.txt" "file"
"scripts\customweapons\custom_mp44.txt" "file"
"scripts\customweapons\custom_mp44_npc.txt" "file"
"scripts\customweapons\custom_p38.txt" "file"
"scripts\customweapons\custom_thompson.txt" "file"
"materials\effects\filmgrain_fug.vmt" "file"
"materials\effects\overlay_clipboard.vmt" "file"
"materials\effects\overlay_kalt.vmt" "file"
"materials\effects\overlay_news.vmt" "file"
"materials\effects\overlay_painting.vmt" "file"
"materials\effects\filmgrain_fug.vtf" "file"
"materials\effects\overlay_clipboard.vtf" "file"
"materials\effects\overlay_kalt.vtf" "file"
"materials\effects\overlay_news.vtf" "file"
"materials\effects\overlay_painting.vtf" "file"
"materials\sprites\hud\clips_bullets.vmt" "file"
"materials\sprites\hud\dod_weapons01.vmt" "file"
"materials\sprites\attention_levelchange.vmt" "file"
"materials\sprites\attention_levelchange.vtf" "file"
"materials\models\fug\clipboard_sheet.vmt" "file"
"materials\models\fug\garbage003a_01.vmt" "file"
"materials\models\fug\paper02.vmt" "file"
"materials\models\fug\pictures.vmt" "file"
"materials\models\fug\clipboard_sheet.vtf" "file"
"materials\models\fug\garbage003a_01.vtf" "file"
"materials\models\fug\paper02.vtf" "file"
"materials\models\fug\pictures.vtf" "file"
"materials\models\american_assault_zombie\american_body.vmt" "file"
"materials\models\american_assault_zombie\american_gear.vmt" "file"
"materials\models\american_assault_zombie\american_body.vtf" "file"
"materials\models\american_assault_zombie\american_gear.vtf" "file"
"materials\models\american_assault_zombie\american_gear_exp.vtf" "file"
"materials\models\american_assault_zombie\american_gear_normal.vtf" "file"
"materials\models\american_assault_zombie\american_body_exp.vtf" "file"
"materials\models\american_assault_zombie\american_body_normal.vtf" "file"
"materials\models\american_assault_zombie\american_normal.vtf" "file"
"materials\models\german_assault_zombie\german_body.vmt" "file"
"materials\models\german_assault_zombie\german_gear.vmt" "file"
"materials\models\german_assault_zombie\german_body.vtf" "file"
"materials\models\german_assault_zombie\german_gear.vtf" "file"
"materials\models\german_assault_zombie\german_gear_exp.vtf" "file"
"materials\models\german_assault_zombie\german_gear_normal.vtf" "file"
"materials\models\german_assault_zombie\german_body_exp.vtf" "file"
"materials\models\german_assault_zombie\german_body_normal.vtf" "file"
"materials\models\american_assault_npc\american_body.vmt" "file"
"materials\models\american_assault_npc\american_gear.vmt" "file"
"materials\models\american_assault_npc\american_body.vtf" "file"
"materials\models\american_assault_npc\american_gear.vtf" "file"
"materials\models\american_assault_npc\american_gear_exp.vtf" "file"
"materials\models\american_assault_npc\american_gear_normal.vtf" "file"
"materials\models\american_assault_npc\american_body_exp.vtf" "file"
"materials\models\american_assault_npc\american_body_normal.vtf" "file"
"materials\models\american_assault_npc\american_normal.vtf" "file"
"materials\models\german_assault_npc\german_body.vmt" "file"
"materials\models\german_assault_npc\german_gear.vmt" "file"
"materials\models\german_assault_npc\german_body.vtf" "file"
"materials\models\german_assault_npc\german_gear.vtf" "file"
"materials\models\german_assault_npc\german_gear_exp.vtf" "file"
"materials\models\german_assault_npc\german_gear_normal.vtf" "file"
"materials\models\german_assault_npc\german_body_exp.vtf" "file"
"materials\models\german_assault_npc\german_body_normal.vtf" "file"
"models\american_assault2_npc.mdl" "file"
"models\american_assault2_npc.phy" "file"
"models\american_assault2_npc.dx80.vtx" "file"
"models\american_assault2_npc.dx90.vtx" "file"
"models\american_assault2_npc.sw.vtx" "file"
"models\american_assault2_npc.vvd" "file"
"models\american_assault_npc.mdl" "file"
"models\american_assault_npc.phy" "file"
"models\american_assault_npc.dx80.vtx" "file"
"models\american_assault_npc.dx90.vtx" "file"
"models\american_assault_npc.sw.vtx" "file"
"models\american_assault_npc.vvd" "file"
"models\american_zombie2.mdl" "file"
"models\american_zombie2.phy" "file"
"models\american_zombie2.dx80.vtx" "file"
"models\american_zombie2.dx90.vtx" "file"
"models\american_zombie2.sw.vtx" "file"
"models\american_zombie2.vvd" "file"
"models\american_zombie.mdl" "file"
"models\american_zombie.phy" "file"
"models\american_zombie.dx80.vtx" "file"
"models\american_zombie.dx90.vtx" "file"
"models\american_zombie.sw.vtx" "file"
"models\american_zombie.vvd" "file"
"models\german_assault2_npc.mdl" "file"
"models\german_assault2_npc.phy" "file"
"models\german_assault2_npc.dx80.vtx" "file"
"models\german_assault2_npc.dx90.vtx" "file"
"models\german_assault2_npc.sw.vtx" "file"
"models\german_assault2_npc.vvd" "file"
"models\german_assault_npc.mdl" "file"
"models\german_assault_npc.phy" "file"
"models\german_assault_npc.dx80.vtx" "file"
"models\german_assault_npc.dx90.vtx" "file"
"models\german_assault_npc.sw.vtx" "file"
"models\german_assault_npc.vvd" "file"
"models\german_zombie2.mdl" "file"
"models\german_zombie2.phy" "file"
"models\german_zombie2.dx80.vtx" "file"
"models\german_zombie2.dx90.vtx" "file"
"models\german_zombie2.sw.vtx" "file"
"models\german_zombie2.vvd" "file"
"models\german_zombie.mdl" "file"
"models\german_zombie.phy" "file"
"models\german_zombie.dx80.vtx" "file"
"models\german_zombie.dx90.vtx" "file"
"models\german_zombie.sw.vtx" "file"
"models\german_zombie.vvd" "file"
"models\fug\paper02.mdl" "file"
"models\fug\paper02.phy" "file"
"models\fug\paper02.dx80.vtx" "file"
"models\fug\paper02.dx90.vtx" "file"
"models\fug\paper02.sw.vtx" "file"
"models\fug\paper02.vvd" "file"
"models\fug\clipboard.mdl" "file"
"models\fug\clipboard.phy" "file"
"models\fug\clipboard.dx80.vtx" "file"
"models\fug\clipboard.dx90.vtx" "file"
"models\fug\clipboard.sw.vtx" "file"
"models\fug\clipboard.vvd" "file"
"models\fug\garbage_newspaper001a.mdl" "file"
"models\fug\garbage_newspaper001a.phy" "file"
"models\fug\garbage_newspaper001a.dx80.vtx" "file"
"models\fug\garbage_newspaper001a.dx90.vtx" "file"
"models\fug\garbage_newspaper001a.sw.vtx" "file"
"models\fug\garbage_newspaper001a.vvd" "file"
"models\fug\picture_frame9.mdl" "file"
"models\fug\picture_frame9.phy" "file"
"models\fug\picture_frame9.dx80.vtx" "file"
"models\fug\picture_frame9.dx90.vtx" "file"
"models\fug\picture_frame9.sw.vtx" "file"
"models\fug\picture_frame9.vvd" "file"
"models\Zombie\Classia.mdl" "file"
"models\Zombie\Classia.phy" "file"
"models\Zombie\Classia.dx80.vtx" "file"
"models\Zombie\Classia.dx90.vtx" "file"
"models\Zombie\Classia.sw.vtx" "file"
"models\Zombie\Classia.vvd" "file"
"models\weapons\w_30cal.mdl" "file"
"models\weapons\w_30cal.phy" "file"
"models\weapons\w_30cal.dx80.vtx" "file"
"models\weapons\w_30cal.dx90.vtx" "file"
"models\weapons\w_30cal.sw.vtx" "file"
"models\weapons\w_30cal.vvd" "file"
"models\weapons\w_30cal_npc.mdl" "file"
"models\weapons\w_30cal_npc.phy" "file"
"models\weapons\w_30cal_npc.dx80.vtx" "file"
"models\weapons\w_30cal_npc.dx90.vtx" "file"
"models\weapons\w_30cal_npc.sw.vtx" "file"
"models\weapons\w_30cal_npc.vvd" "file"
"models\weapons\w_bar.mdl" "file"
"models\weapons\w_bar.phy" "file"
"models\weapons\w_bar.dx80.vtx" "file"
"models\weapons\w_bar.dx90.vtx" "file"
"models\weapons\w_bar.sw.vtx" "file"
"models\weapons\w_bar.vvd" "file"
"models\weapons\w_bar_npc.mdl" "file"
"models\weapons\w_bar_npc.phy" "file"
"models\weapons\w_bar_npc.dx80.vtx" "file"
"models\weapons\w_bar_npc.dx90.vtx" "file"
"models\weapons\w_bar_npc.sw.vtx" "file"
"models\weapons\w_bar_npc.vvd" "file"
"models\weapons\w_c96.mdl" "file"
"models\weapons\w_c96.phy" "file"
"models\weapons\w_c96.dx80.vtx" "file"
"models\weapons\w_c96.dx90.vtx" "file"
"models\weapons\w_c96.sw.vtx" "file"
"models\weapons\w_c96.vvd" "file"
"models\weapons\w_colt.mdl" "file"
"models\weapons\w_colt.phy" "file"
"models\weapons\w_colt.dx80.vtx" "file"
"models\weapons\w_colt.dx90.vtx" "file"
"models\weapons\w_colt.sw.vtx" "file"
"models\weapons\w_colt.vvd" "file"
"models\weapons\w_garand.mdl" "file"
"models\weapons\w_garand.phy" "file"
"models\weapons\w_garand.dx80.vtx" "file"
"models\weapons\w_garand.dx90.vtx" "file"
"models\weapons\w_garand.sw.vtx" "file"
"models\weapons\w_garand.vvd" "file"
"models\weapons\w_k98.mdl" "file"
"models\weapons\w_k98.phy" "file"
"models\weapons\w_k98.dx80.vtx" "file"
"models\weapons\w_k98.dx90.vtx" "file"
"models\weapons\w_k98.sw.vtx" "file"
"models\weapons\w_k98.vvd" "file"
"models\weapons\w_m1carb.mdl" "file"
"models\weapons\w_m1carb.phy" "file"
"models\weapons\w_m1carb.dx80.vtx" "file"
"models\weapons\w_m1carb.dx90.vtx" "file"
"models\weapons\w_m1carb.sw.vtx" "file"
"models\weapons\w_m1carb.vvd" "file"
"models\weapons\w_mg42bu.mdl" "file"
"models\weapons\w_mg42bu.phy" "file"
"models\weapons\w_mg42bu.dx80.vtx" "file"
"models\weapons\w_mg42bu.dx90.vtx" "file"
"models\weapons\w_mg42bu.sw.vtx" "file"
"models\weapons\w_mg42bu.vvd" "file"
"models\weapons\w_mg42bu_npc.mdl" "file"
"models\weapons\w_mg42bu_npc.phy" "file"
"models\weapons\w_mg42bu_npc.dx80.vtx" "file"
"models\weapons\w_mg42bu_npc.dx90.vtx" "file"
"models\weapons\w_mg42bu_npc.sw.vtx" "file"
"models\weapons\w_mg42bu_npc.vvd" "file"
"models\weapons\w_mp40.mdl" "file"
"models\weapons\w_mp40.phy" "file"
"models\weapons\w_mp40.dx80.vtx" "file"
"models\weapons\w_mp40.dx90.vtx" "file"
"models\weapons\w_mp40.sw.vtx" "file"
"models\weapons\w_mp40.vvd" "file"
"models\weapons\w_mp44.mdl" "file"
"models\weapons\w_mp44.phy" "file"
"models\weapons\w_mp44.dx80.vtx" "file"
"models\weapons\w_mp44.dx90.vtx" "file"
"models\weapons\w_mp44.sw.vtx" "file"
"models\weapons\w_mp44.vvd" "file"
"models\weapons\w_mp44_npc.mdl" "file"
"models\weapons\w_mp44_npc.phy" "file"
"models\weapons\w_mp44_npc.dx80.vtx" "file"
"models\weapons\w_mp44_npc.dx90.vtx" "file"
"models\weapons\w_mp44_npc.sw.vtx" "file"
"models\weapons\w_mp44_npc.vvd" "file"
"models\weapons\w_p38..mdl" "file"
"models\weapons\w_p38..phy" "file"
"models\weapons\w_p38..dx80.vtx" "file"
"models\weapons\w_p38..dx90.vtx" "file"
"models\weapons\w_p38..sw.vtx" "file"
"models\weapons\w_p38.vvd" "file"
"models\weapons\w_thompson.mdl" "file"
"models\weapons\w_thompson.phy" "file"
"models\weapons\w_thompson.dx80.vtx" "file"
"models\weapons\w_thompson.dx90.vtx" "file"
"models\weapons\w_thompson.sw.vtx" "file"
"models\weapons\w_thompson.vvd" "file"
"models\weapons\v_30cal.mdl" "file"
"models\weapons\v_30cal.dx80.vtx" "file"
"models\weapons\v_30cal.dx90.vtx" "file"
"models\weapons\v_30cal.sw.vtx" "file"
"models\weapons\v_30cal.vvd" "file"
"models\weapons\v_bar.mdl" "file"
"models\weapons\v_bar.dx80.vtx" "file"
"models\weapons\v_bar.dx90.vtx" "file"
"models\weapons\v_bar.sw.vtx" "file"
"models\weapons\v_bar.vvd" "file"
"models\weapons\v_c96.mdl" "file"
"models\weapons\v_c96.dx80.vtx" "file"
"models\weapons\v_c96.dx90.vtx" "file"
"models\weapons\v_c96.sw.vtx" "file"
"models\weapons\v_c96.vvd" "file"
"models\weapons\v_colt.mdl" "file"
"models\weapons\v_colt.dx80.vtx" "file"
"models\weapons\v_colt.dx90.vtx" "file"
"models\weapons\v_colt.sw.vtx" "file"
"models\weapons\v_colt.vvd" "file"
"models\weapons\v_garand.mdl" "file"
"models\weapons\v_garand.dx80.vtx" "file"
"models\weapons\v_garand.dx90.vtx" "file"
"models\weapons\v_garand.sw.vtx" "file"
"models\weapons\v_garand.vvd" "file"
"models\weapons\v_k98.mdl" "file"
"models\weapons\v_k98.dx80.vtx" "file"
"models\weapons\v_k98.dx90.vtx" "file"
"models\weapons\v_k98.sw.vtx" "file"
"models\weapons\v_k98.vvd" "file"
"models\weapons\v_m1carb.mdl" "file"
"models\weapons\v_m1carb.dx80.vtx" "file"
"models\weapons\v_m1carb.dx90.vtx" "file"
"models\weapons\v_m1carb.sw.vtx" "file"
"models\weapons\v_m1carb.vvd" "file"
"models\weapons\v_mg42.mdl" "file"
"models\weapons\v_mg42.dx80.vtx" "file"
"models\weapons\v_mg42.dx90.vtx" "file"
"models\weapons\v_mg42.sw.vtx" "file"
"models\weapons\v_mg42.vvd" "file"
"models\weapons\v_mp40.mdl" "file"
"models\weapons\v_mp40.dx80.vtx" "file"
"models\weapons\v_mp40.dx90.vtx" "file"
"models\weapons\v_mp40.sw.vtx" "file"
"models\weapons\v_mp40.vvd" "file"
"models\weapons\v_mp44.mdl" "file"
"models\weapons\v_mp44.dx80.vtx" "file"
"models\weapons\v_mp44.dx90.vtx" "file"
"models\weapons\v_mp44.sw.vtx" "file"
"models\weapons\v_mp44.vvd" "file"
"models\weapons\v_p38..mdl" "file"
"models\weapons\v_p38..dx80.vtx" "file"
"models\weapons\v_p38..dx90.vtx" "file"
"models\weapons\v_p38..sw.vtx" "file"
"models\weapons\v_p38.vvd" "file"
"models\weapons\v_thompson.mdl" "file"
"models\weapons\v_thompson.dx80.vtx" "file"
"models\weapons\v_thompson.dx90.vtx" "file"
"models\weapons\v_thompson.sw.vtx" "file"
"models\weapons\v_thompson.vvd" "file"
}
