"resources"
{
"maps/ep2_oc_outhouse_1r2.res" "file"
"maps/cfg/ep2_oc_outhouse_1r2_cfg.txt" "file"
"maps/cfg/ep2_oc_outhouse_1r2_modify.txt" "file"
"maps/cfg/ep2_oc_outhouse_1r2_briefing.txt" "file"
"materials/outhouse/MovingWater_normal.vmt" "file"
"materials/outhouse/MovingWater_normal.vtf" "file"
"sound/outhouse/allyourbase.mp3" "file"
}
