"resources"
{
"maps\neuromancer_v_6_pak3.res" "file"
"maps\neuromancer_v_6_pak3.bsp" "file"
"maps\cfg\neuromancer_v_6_pak3_briefing.txt" "file"
"maps\cfg\neuromancer_v_6_pak3_mounts.txt" "file"
"maps\cfg\neuromancer_v_6_pak3_modify.txt" "file"
"materials\maps\oc_lobby\neuromancer_v_6_pak3.vmt" "file"
"materials\maps\oc_lobby\neuromancer_v_6_pak3.vtf" "file"
}
