"resources"
{
"maps/oc_atfor_cityfight_v3.bsp" "file"
"maps/oc_atfor_cityfight_v3.res" "file"

"scripts/customweapons/custom_mac10_pistol.txt" "file"
"scripts/customweapons/custom_m249_rifle.txt" "file"
"scripts/customweapons/custom_neagle.txt" "file"

"maps/cfg/oc_atfor_cityfight_v3_briefing.txt" "file"
"maps/cfg/oc_atfor_cityfight_v3_cfg.txt" "file"
"maps/cfg/oc_atfor_cityfight_v3_modify.txt" "file"

}
