"resources"
{

"scripts/merchants/merchant_oc_island_rp.txt" "file"
"materials/cs_italy/wallpaper02.vtf" "file"
"materials/cs_italy/wallpaper02_normal.vtf" "file"
"materials/de_nuke/nuke_metalgrate_01.vmt" "file"
"materials/de_nuke/nuke_metalgrate_01.vtf" "file"
"materials/de_piranesi/woodfloor03.vmt" "file"
"materials/de_piranesi/woodfloor03.vtf" "file"
"materials/de_piranesi/woodfloor03_spec.vtf" "file"
"materials/de_train/train_metalceiling_01.vmt" "file"
"materials/de_train/train_metalceiling_01.vtf" "file"
"materials/de_train/train_metalceiling_02.vmt" "file"
"materials/de_train/train_metalceiling_02.vtf" "file"
"materials/de_train/train_metalceiling_moving.vmt" "file"
"materials/skybox/tidesBK.vmt" "file"
"materials/skybox/tidesBK.vtf" "file"
"materials/skybox/tidesDN.vmt" "file"
"materials/skybox/tidesDN.vtf" "file"
"materials/skybox/tidesFT.vmt" "file"
"materials/skybox/tidesFT.vtf" "file"
"materials/skybox/tideslf.vmt" "file"
"materials/skybox/tidesLF.vtf" "file"
"materials/skybox/tidesrt.vmt" "file"
"materials/skybox/tidesRT.vtf" "file"
"materials/skybox/tidesup.vmt" "file"
"materials/skybox/tidesUP.vtf" "file"
"materials/Tysn/Tysn_BirdMeat_1.vmt" "file"
"materials/Tysn/Tysn_BirdMeat_1.vtf" "file"
"materials/Tysn/Tysn_Mushroom_1_Med.vmt" "file"
"materials/Tysn/Tysn_Mushroom_1_Med.vtf" "file"
"materials/Tysn/Tysn_Mushroom_1_Rare.vmt" "file"
"materials/Tysn/Tysn_Mushroom_1_Rare.vtf" "file"
"materials/Tysn/Tysn_Mushroom_1_Reg.vmt" "file"
"materials/Tysn/Tysn_Mushroom_1_Reg.vtf" "file"
"materials/Tysn/Tysn_Tree_1.vmt" "file"
"materials/Tysn/Tysn_Tree_1.vtf" "file"
"materials/Tysn/Tysn_Tree_1_mask.vtf" "file"
"materials/Tysn/Tysn_Tree_2_Bark.vmt" "file"
"materials/Tysn/Tysn_Tree_2_Bark.vtf" "file"
"materials/Tysn/Tysn_Tree_2_Branch.vmt" "file"
"materials/Tysn/Tysn_Tree_2_Branch.vtf" "file"
"materials/Tysn/Tysn_Tree_2_Shadow.vmt" "file"
"materials/Tysn/Tysn_Tree_2_Shadow.vtf" "file"
"materials/wood/milwall010.vmt" "file"
"materials/wood/milwall010.vtf" "file"
"materials/wood/offparticleboard.vmt" "file"
"materials/wood/offparticleboard.vtf" "file"
"models/macncheese01/macncheese01.dx80.vtx" "file"
"models/macncheese01/macncheese01.dx90.vtx" "file"
"models/macncheese01/macncheese01.mdl" "file"
"models/macncheese01/macncheese01.phy" "file"
"models/macncheese01/macncheese01.sw.vtx" "file"
"models/macncheese01/macncheese01.vvd" "file"
"models/macncheese01/macncheese01.xbox.vtx" "file"
"models/paysan/banana_tree01a.dx80.vtx" "file"
"models/paysan/banana_tree01a.dx90.vtx" "file"
"models/paysan/banana_tree01a.mdl" "file"
"models/paysan/banana_tree01a.sw.vtx" "file"
"models/paysan/banana_tree01a.vvd" "file"
"models/paysan/paysan_log01a.dx80.vtx" "file"
"models/paysan/paysan_log01a.dx90.vtx" "file"
"models/paysan/paysan_log01a.mdl" "file"
"models/paysan/paysan_log01a.phy" "file"
"models/paysan/paysan_log01a.sw.vtx" "file"
"models/paysan/paysan_log01a.vvd" "file"
"models/paysan/paysan_log01b.dx80.vtx" "file"
"models/paysan/paysan_log01b.dx90.vtx" "file"
"models/paysan/paysan_log01b.mdl" "file"
"models/paysan/paysan_log01b.phy" "file"
"models/paysan/paysan_log01b.sw.vtx" "file"
"models/paysan/paysan_log01b.vvd" "file"
"models/trees/bigtree.dx80.vtx" "file"
"models/trees/bigtree.dx90.vtx" "file"
"models/trees/bigtree.mdl" "file"
"models/trees/bigtree.phy" "file"
"models/trees/bigtree.sw.vtx" "file"
"models/trees/bigtree.vvd" "file"
"models/trees/fern.dx80.vtx" "file"
"models/trees/fern.dx90.vtx" "file"
"models/trees/fern.mdl" "file"
"models/trees/fern.phy" "file"
"models/trees/fern.sw.vtx" "file"
"models/trees/fern.vvd" "file"
"models/trees/pino.dx80.vtx" "file"
"models/trees/pino.dx90.vtx" "file"
"models/trees/pino.mdl" "file"
"models/trees/pino.phy" "file"
"models/trees/pino.sw.vtx" "file"
"models/trees/pino.vvd" "file"
"models/trees/pi_fern.dx80.vtx" "file"
"models/trees/pi_fern.dx90.vtx" "file"
"models/trees/pi_fern.mdl" "file"
"models/trees/pi_fern.phy" "file"
"models/trees/pi_fern.sw.vtx" "file"
"models/trees/pi_fern.vvd" "file"
"models/trees/pi_fern_small.dx80.vtx" "file"
"models/trees/pi_fern_small.dx90.vtx" "file"
"models/trees/pi_tree.mdl" "file"
"models/trees/pi_tree.phy" "file"
"models/trees/pi_tree.sw.vtx" "file"
"models/trees/pi_tree.vvd" "file"
"models/trees/pi_tree1.dx80.vtx" "file"
"models/trees/pi_tree1.dx90.vtx" "file"
"models/trees/pi_tree1.mdl" "file"
"models/trees/pi_tree1.phy" "file"
"models/trees/pi_tree1.sw.vtx" "file"
"models/trees/pi_tree1.vvd" "file"
"models/trees/pi_tree2.dx80.vtx" "file"
"models/trees/pi_tree2.dx90.vtx" "file"
"models/trees/pi_tree2.mdl" "file"
"models/trees/pi_tree2.phy" "file"
"models/trees/pi_tree2.sw.vtx" "file"
"models/trees/pi_tree2.vvd" "file"
"models/trees/pi_tree3.dx80.vtx" "file"
"models/trees/pi_tree3.dx90.vtx" "file"
"models/trees/pi_tree3.mdl" "file"
"models/trees/pi_tree3.phy" "file"
"models/trees/pi_tree3.sw.vtx" "file"
"models/trees/pi_tree3.vvd" "file"
"models/trees/pi_tree4.dx80.vtx" "file"
"models/trees/pi_tree4.dx90.vtx" "file"
"models/trees/pi_tree4.mdl" "file"
"models/trees/pi_tree4.phy" "file"
"models/trees/pi_tree4.sw.vtx" "file"
"models/trees/pi_tree4.vvd" "file"
"models/trees/pi_tree5.dx80.vtx" "file"
"models/trees/pi_tree5.dx90.vtx" "file"
"models/trees/pi_tree5.mdl" "file"
"models/trees/pi_tree5.phy" "file"
"models/trees/pi_tree5.sw.vtx" "file"
"models/trees/pi_tree5.vvd" "file"
"models/trees/pi_treeb.dx80.vtx" "file"
"models/trees/pi_treeb.dx90.vtx" "file"
"models/trees/pi_treeb.mdl" "file"
"models/trees/pi_treeb.phy" "file"
"models/trees/pi_treeb.sw.vtx" "file"
"models/trees/pi_treeb.vvd" "file"
"models/Tysn/Tysn_BirdMeat_1.dx80.vtx" "file"
"models/Tysn/Tysn_BirdMeat_1.dx90.vtx" "file"
"models/Tysn/tysn_birdmeat_1.mdl" "file"
"models/Tysn/Tysn_BirdMeat_1.phy" "file"
"models/Tysn/Tysn_BirdMeat_1.sw.vtx" "file"
"models/Tysn/tysn_birdmeat_1.vvd" "file"
"models/Tysn/Tysn_Mushroom_1.dx80.vtx" "file"
"models/Tysn/Tysn_Mushroom_1.dx90.vtx" "file"
"models/Tysn/tysn_mushroom_1.mdl" "file"
"models/Tysn/Tysn_Mushroom_1.phy" "file"
"models/Tysn/Tysn_Mushroom_1.sw.vtx" "file"
"models/Tysn/tysn_mushroom_1.vvd" "file"
"models/Tysn/Tysn_Tree_2.dx80.vtx" "file"
"models/Tysn/Tysn_Tree_2.dx90.vtx" "file"
"models/Tysn/tysn_tree_2.mdl" "file"
"models/Tysn/Tysn_Tree_2.phy" "file"
"models/Tysn/Tysn_Tree_2.sw.vtx" "file"
"models/Tysn/tysn_tree_2.vvd" "file"
"sound/Tysn/hyrule_goodmorning.mp3" "file"
"materials/maniasfood/apple/apple.vmt" "file"
"materials/maniasfood/apple/apple.vtf" "file"
"materials/models/macncheese01/bowlbase01.vmt" "file"
"materials/models/macncheese01/bowlbase01.vtf" "file"
"materials/models/macncheese01/macncheesemain01.vmt" "file"
"materials/models/macncheese01/macncheesemain01.vtf" "file"
"materials/models/paysan/banana_tree_leaf01a.vmt" "file"
"materials/models/paysan/banana_tree_leaf01a.vtf" "file"
"materials/models/paysan/banana_tree_leaf01a_bump.vtf" "file"
"materials/models/paysan/banana_tree_trunk01a.vmt" "file"
"materials/models/paysan/banana_tree_trunk01a.vtf" "file"
"materials/models/paysan/banana_tree_trunk01a_bump.vtf" "file"
"materials/models/paysan/log01a.vmt" "file"
"materials/models/paysan/log01a.vtf" "file"
"materials/models/trees/bigtree.vmt" "file"
"materials/models/trees/bigtree.vtf" "file"
"materials/models/trees/bigtree_billboard.vmt" "file"
"materials/models/trees/bigtree_billboard.vtf" "file"
"materials/models/trees/fern.vmt" "file"
"materials/models/trees/fern.vtf" "file"
"materials/models/trees/g_branch01.vmt" "file"
"materials/models/trees/g_branch01.vtf" "file"
"materials/models/trees/g_branch02.vmt" "file"
"materials/models/trees/g_branch02.vtf" "file"
"materials/models/trees/g_branch03.vmt" "file"
"materials/models/trees/g_branch03.vtf" "file"
"materials/models/trees/g_branch05.vmt" "file"
"materials/models/trees/g_branch05.vtf" "file"
"materials/models/trees/japanese_tree_bark_02.vmt" "file"
"materials/models/trees/japanese_tree_bark_02.vtf" "file"
"materials/models/trees/japanese_tree_round_02.vmt" "file"
"materials/models/trees/japanese_tree_round_02.vtf" "file"
"materials/models/trees/japanese_tree_round_03.vmt" "file"
"materials/models/trees/japanese_tree_round_03.vtf" "file"
"materials/models/trees/japanese_tree_round_04.vmt" "file"
"materials/models/trees/japanese_tree_round_04.vtf" "file"
"materials/models/trees/japanese_tree_round_05.vmt" "file"
"materials/models/trees/japanese_tree_round_05.vtf" "file"
"materials/models/trees/pi tree4_billboard.vmt" "file"
"materials/models/trees/pi tree4_billboard.vtf" "file"
"materials/models/trees/pinebark.vmt" "file"
"materials/models/trees/pinebark.vtf" "file"
"materials/models/trees/pinef1.vmt" "file"
"materials/models/trees/pinef1.vtf" "file"
"materials/models/trees/pinef2.vmt" "file"
"materials/models/trees/pinef2.vtf" "file"
"materials/models/trees/pi_tree.vmt" "file"
"materials/models/trees/pi_tree.vtf" "file"
"materials/models/trees/pi_tree3_billboard.vmt" "file"
"materials/models/trees/pi_tree3_billboard.vtf" "file"
"materials/models/trees/pi_treeb.vmt" "file"
"materials/models/trees/pi_treeb.vtf" "file"
"materials/models/trees/pi_treeb_billboard.vmt" "file"
"materials/models/trees/pi_treeb_billboard.vtf" "file"
"materials/models/trees/pi_tree_billboard.vmt" "file"
"materials/models/trees/pi_tree_billboard.vtf" "file"
"materials/models/trees/plant_fern.vmt" "file"
"materials/models/trees/plant_fern.vtf" "file"
"materials/models/trees/trunk35.vmt" "file"
"materials/models/trees/trunk35.vtf" "file"
"materials/models/trees/trunkhshadow.vmt" "file"
"materials/models/trees/trunkhshadow.vtf" "file"
"materials/models/trees/trunk_noshadow.vmt" "file"
"materials/models/trees/trunk_noshadow.vtf" "file"
"materials/models/trees/trunk_shadow.vmt" "file"
"materials/models/trees/trunk_shadow.vtf" "file"
"materials/models/trees/{pi_treeb.vmt" "file"
"materials/models/trees/{pi_treeb.vtf" "file"
"materials/models/trees/{pi_treeb_billboard.vmt" "file"
"materials/models/trees/{pi_treeb_billboard.vtf" "file"
"materials/Tysn/propper/stonewall004a.vmt" "file"
"materials/Tysn/propper/stonewall013a.vmt" "file"
"models/fish/perch/perch.dx80.vtx" "file"
"models/fish/perch/perch.dx90.vtx" "file"
"models/fish/perch/perch.mdl" "file"
"models/fish/perch/perch.phy" "file"
"models/fish/perch/perch.sw.vtx" "file"
"models/fish/perch/perch.vvd" "file"
"models/fish/perch/perch.xbox.vtx" "file"
"models/maniasfood/apple/apple.dx80.vtx" "file"
"models/maniasfood/apple/apple.dx90.vtx" "file"
"models/maniasfood/apple/apple.mdl" "file"
"models/maniasfood/apple/apple.phy" "file"
"models/maniasfood/apple/apple.sw.vtx" "file"
"models/maniasfood/apple/apple.vvd" "file"
"models/maniasfood/apple/apple.xbox.vtx" "file"
"models/props/cs_assault/Dollar.dx80.vtx" "file"
"models/props/cs_assault/Dollar.dx90.vtx" "file"
"models/props/cs_assault/Dollar.mdl" "file"
"models/props/cs_assault/Dollar.phy" "file"
"models/props/cs_assault/Dollar.sw.vtx" "file"
"models/props/cs_assault/Dollar.vvd" "file"
"models/props/cs_assault/Money.dx80.vtx" "file"
"models/props/cs_assault/Money.dx90.vtx" "file"
"models/props/cs_assault/Money.mdl" "file"
"models/props/cs_assault/Money.phy" "file"
"models/props/cs_assault/Money.sw.vtx" "file"
"models/props/cs_assault/Money.vvd" "file"
"models/props/CS_militia/fern01lg.dx80.vtx" "file"
"models/props/CS_militia/fern01lg.dx90.vtx" "file"
"models/props/CS_militia/fern01lg.mdl" "file"
"models/props/CS_militia/fern01lg.sw.vtx" "file"
"models/props/CS_militia/fern01lg.vvd" "file"
"models/props/CS_militia/FishRiver01.dx80.vtx" "file"
"models/props/CS_militia/FishRiver01.dx90.vtx" "file"
"models/props/CS_militia/fishriver01.mdl" "file"
"models/props/CS_militia/FishRiver01.phy" "file"
"models/props/CS_militia/FishRiver01.sw.vtx" "file"
"models/props/CS_militia/fishriver01.vvd" "file"
"models/props/de_inferno/crate_fruit_break_p2.dx80.vtx" "file"
"models/props/de_inferno/crate_fruit_break_p2.dx90.vtx" "file"
"models/props/de_inferno/crate_fruit_break_p2.mdl" "file"
"models/props/de_inferno/crate_fruit_break_p2.phy" "file"
"models/props/de_inferno/crate_fruit_break_p2.sw.vtx" "file"
"models/props/de_inferno/crate_fruit_break_p2.vvd" "file"
"materials/models/fish/perch/perch.vmt" "file"
"materials/models/fish/perch/perch.vtf" "file"
"materials/models/fish/perch/perch_flappers.vmt" "file"
"materials/models/fish/perch/perch_flappers.vtf" "file"
"materials/models/props/CS_militia/fern01.vmt" "file"
"materials/models/props/CS_militia/fern01.vtf" "file"
"materials/models/props/CS_militia/fern01_mip0.vtf" "file"
"materials/models/props/CS_militia/MountedFish01.vmt" "file"
"materials/models/props/CS_militia/MountedFish01.vtf" "file"
"materials/models/props/CS_militia/MountedFish01a.vmt" "file"
"materials/models/props/CS_militia/MountedFish01a.vtf" "file"
"materials/models/props/CS_militia/MountedFish01_REF.vtf" "file"
"materials/models/props/de_inferno/orange_crate.vmt" "file"
"materials/models/props/de_inferno/orange_crate.vtf" "file"
}
