"resources"
{
"maps/oc_l4d_trainstation_02_v5.bsp" "file"
"maps/oc_l4d_trainstation_02_v5.res" "file"
"maps/cfg/oc_l4d_trainstation_02_v5_briefing.txt" "file"
"maps/cfg/oc_l4d_trainstation_02_v5_cfg.txt" "file"
"maps/cfg/oc_l4d_trainstation_02_v5_modify.txt" "file"
"maps/cfg/oc_l4d_trainstation_02_v5_mounts.txt" "file"
"maps/cfg/oc_l4d_trainstation_02_v5_soundscripts.txt" "file"
"scripts/customweapons/custom_elite_l4d.txt" "file"
"scripts/customweapons/custom_m3_l4d.txt" "file"
"scripts/customweapons/custom_mac10_l4d.txt" "file"
"scripts/customweapons/custom_scout_l4d.txt" "file"
"sound/Left 4 Dead/CheckpointBarRemove.mp3" "file"
"sound/Left 4 Dead/Death.mp3" "file"
"sound/Left 4 Dead/GatesOfHell.mp3" "file"
"sound/Left 4 Dead/Horde_01.wav" "file"
"sound/Left 4 Dead/L4D_Quarantine_02.mp3" "file"
"sound/Left 4 Dead/LeftForDeathHit.mp3" "file"
"sound/Left 4 Dead/MobRules.wav" "file"
"sound/Left 4 Dead/NotSurvive.mp3" "file"
"sound/Left 4 Dead/Tank.wav" "file"
"sound/Left 4 Dead/TheMonstersWithout.mp3" "file"
}