"resources"
{
"maps\oc_minefield_runner_af3.bsp" "file"
"maps\cfg\oc_minefield_runner_af3_modify.txt" "file"
"maps\cfg\oc_minefield_runner_af3_briefing.txt" "file"
"maps\cfg\oc_minefield_runner_af3_cfg.txt" "file"
}
