"resources"
{
"expressions\emotions_alyx.vfe" "file"
"expressions\phonemes.vfe" "file"
"expressions\phonemes_strong.vfe" "file"
"expressions\phonemes_weak.vfe" "file"
"expressions\random.vfe" "file"
"expressions\randomalert.vfe" "file"
"expressions\xenoaisam_custom_v5.vfe" "file"
"maps\oc_moegladosfactory_v2.bsp" "file"
"maps\oc_moegladosfactory_v2.res" "file"
"maps\cfg\oc_moegladosfactory_v2_briefing.txt" "file"
"maps\cfg\oc_moegladosfactory_v2_cfg.txt" "file"
"resource\closecaption_oc_moegladosfactory_v2_english.dat" "file"
"resource\closecaption_oc_moegladosfactory_v2_english.txt" "file"
"resource\overviews\oc_moegladosfactory_v2.txt" "file"
"scenes\moegladosfactory\mikudied.vcd" "file"
"scenes\moegladosfactory\spidereaster_benci.vcd" "file"
"scenes\moegladosfactory\task1.vcd" "file"
"scenes\moegladosfactory\task2.vcd" "file"
"scenes\moegladosfactory\task3.vcd" "file"
"scenes\moegladosfactory\task4.vcd" "file"
"scenes\moegladosfactory\task4b.vcd" "file"
"scenes\moegladosfactory\task5.vcd" "file"
"scenes\moegladosfactory\task5b.vcd" "file"
"scenes\moegladosfactory\task6.vcd" "file"
"scenes\moegladosfactory\task7.vcd" "file"
"scenes\moegladosfactory\task8.vcd" "file"
"scenes\moegladosfactory\task8b.vcd" "file"
"scenes\moegladosfactory\task8c.vcd" "file"
"scenes\moegladosfactory\task8d.vcd" "file"
"scenes\moegladosfactory\task8e.vcd" "file"
"scenes\moegladosfactory\task9.vcd" "file"
"scenes\moegladosfactory\task10.vcd" "file"
"scenes\moegladosfactory\task10b.vcd" "file"
"scenes\moegladosfactory\task10c.vcd" "file"
"sound\fanloop01.wav" "file"
"sound\raintinroof01.wav" "file"
"sound\ventilator01.wav" "file"
"sound\oc_moegladosfactory\button5.wav" "file"
"sound\oc_moegladosfactory\dinasoar_spider.wav" "file"
"sound\oc_moegladosfactory\dinosoar_custom.wav" "file"
"sound\oc_moegladosfactory\dinosoar_custom2.wav" "file"
"sound\oc_moegladosfactory\dinosoar_spider.wav" "file"
"sound\oc_moegladosfactory\gasmask_breath.wav" "file"
"sound\oc_moegladosfactory\gasmask_wearing.wav" "file"
"sound\oc_moegladosfactory\pink_noise_stereo_loop.wav" "file"
"sound\oc_moegladosfactory\radio.wav" "file"
"sound\oc_moegladosfactory\music\afterneurotoxinoff.mp3" "file"
"sound\oc_moegladosfactory\music\chat.mp3" "file"
"sound\oc_moegladosfactory\music\destroyshieldpart.wav" "file"
"sound\oc_moegladosfactory\music\firstpart.wav" "file"
"sound\oc_moegladosfactory\music\getouttoxin.mp3" "file"
"sound\oc_moegladosfactory\music\killglados.wav" "file"
"sound\oc_moegladosfactory\music\neutotoxinpart.wav" "file"
"sound\oc_moegladosfactory\music\planc4part.wav" "file"
"sound\oc_moegladosfactory\music\savemiku.mp3" "file"
"sound\oc_moegladosfactory\voice\failedmission.wav" "file"
"sound\oc_moegladosfactory\voice\failedmission_dummy.wav" "file"
"sound\oc_moegladosfactory\voice\spider_benci.wav" "file"
"sound\oc_moegladosfactory\voice\spider_benci_dummy.wav" "file"
"sound\oc_moegladosfactory\voice\spider_easteregg.wav" "file"
"sound\oc_moegladosfactory\voice\spider_easteregg_dummy.wav" "file"
"sound\oc_moegladosfactory\voice\task1-1.wav" "file"
"sound\oc_moegladosfactory\voice\task1-1_dummy.wav" "file"
"sound\oc_moegladosfactory\voice\task1-2.wav" "file"
"sound\oc_moegladosfactory\voice\task1-2_dummy.wav" "file"
"sound\oc_moegladosfactory\voice\task1-3.wav" "file"
"sound\oc_moegladosfactory\voice\task1-3_dummy.wav" "file"
"sound\oc_moegladosfactory\voice\task1-4.wav" "file"
"sound\oc_moegladosfactory\voice\task1-4_dummy.wav" "file"
"sound\oc_moegladosfactory\voice\task1-5.wav" "file"
"sound\oc_moegladosfactory\voice\task1-5_dummy.wav" "file"
"sound\oc_moegladosfactory\voice\task1-6.wav" "file"
"sound\oc_moegladosfactory\voice\task1-6_dummy.wav" "file"
"sound\oc_moegladosfactory\voice\task1-7.wav" "file"
"sound\oc_moegladosfactory\voice\task1-7_dummy.wav" "file"
"sound\oc_moegladosfactory\voice\task2-1.wav" "file"
"sound\oc_moegladosfactory\voice\task2-1_dummy.wav" "file"
"sound\oc_moegladosfactory\voice\task2-2.wav" "file"
"sound\oc_moegladosfactory\voice\task2-2_dummy.wav" "file"
"sound\oc_moegladosfactory\voice\task2-3.wav" "file"
"sound\oc_moegladosfactory\voice\task2-3_dummy.wav" "file"
"sound\oc_moegladosfactory\voice\task2-4.wav" "file"
"sound\oc_moegladosfactory\voice\task2-4_dummy.wav" "file"
"sound\oc_moegladosfactory\voice\task2-5.wav" "file"
"sound\oc_moegladosfactory\voice\task2-5_dummy.wav" "file"
"sound\oc_moegladosfactory\voice\task2-6.wav" "file"
"sound\oc_moegladosfactory\voice\task2-6_dummy.wav" "file"
"sound\oc_moegladosfactory\voice\task3-1.wav" "file"
"sound\oc_moegladosfactory\voice\task3-1_dummy.wav" "file"
"sound\oc_moegladosfactory\voice\task3-2.wav" "file"
"sound\oc_moegladosfactory\voice\task3-2_dummy.wav" "file"
"sound\oc_moegladosfactory\voice\task3-3.wav" "file"
"sound\oc_moegladosfactory\voice\task3-3_dummy.wav" "file"
"sound\oc_moegladosfactory\voice\task4-1.wav" "file"
"sound\oc_moegladosfactory\voice\task4-1_dummy.wav" "file"
"sound\oc_moegladosfactory\voice\task4-2.wav" "file"
"sound\oc_moegladosfactory\voice\task4-2_dummy.wav" "file"
"sound\oc_moegladosfactory\voice\task4-3.wav" "file"
"sound\oc_moegladosfactory\voice\task4-3_dummy.wav" "file"
"sound\oc_moegladosfactory\voice\task4-4.wav" "file"
"sound\oc_moegladosfactory\voice\task4-4_dummy.wav" "file"
"sound\oc_moegladosfactory\voice\task4-5.wav" "file"
"sound\oc_moegladosfactory\voice\task4-5_dummy.wav" "file"
"sound\oc_moegladosfactory\voice\task4-6.wav" "file"
"sound\oc_moegladosfactory\voice\task4-6_dummy.wav" "file"
"sound\oc_moegladosfactory\voice\task4-7.wav" "file"
"sound\oc_moegladosfactory\voice\task4-7_dummy.wav" "file"
"sound\oc_moegladosfactory\voice\task4-8.wav" "file"
"sound\oc_moegladosfactory\voice\task4-8_dummy.wav" "file"
"sound\oc_moegladosfactory\voice\task4-9.wav" "file"
"sound\oc_moegladosfactory\voice\task4-9_dummy.wav" "file"
"sound\oc_moegladosfactory\voice\task4-10.wav" "file"
"sound\oc_moegladosfactory\voice\task4-10_dummy.wav" "file"
"sound\oc_moegladosfactory\voice\task4-11.wav" "file"
"sound\oc_moegladosfactory\voice\task4-11_dummy.wav" "file"
"sound\oc_moegladosfactory\voice\task4-12.wav" "file"
"sound\oc_moegladosfactory\voice\task4-12_dummy.wav" "file"
"sound\oc_moegladosfactory\voice\task4-13.wav" "file"
"sound\oc_moegladosfactory\voice\task4-13_dummy.wav" "file"
"sound\oc_moegladosfactory\voice\task5-1.wav" "file"
"sound\oc_moegladosfactory\voice\task5-1_dummy.wav" "file"
"sound\oc_moegladosfactory\voice\task5-2.wav" "file"
"sound\oc_moegladosfactory\voice\task5-2_dummy.wav" "file"
"sound\oc_moegladosfactory\voice\task5-3.wav" "file"
"sound\oc_moegladosfactory\voice\task5-3_dummy.wav" "file"
"sound\oc_moegladosfactory\voice\task5-4.wav" "file"
"sound\oc_moegladosfactory\voice\task5-4_dummy.wav" "file"
"sound\oc_moegladosfactory\voice\task5-5.wav" "file"
"sound\oc_moegladosfactory\voice\task5-5_dummy.wav" "file"
"sound\oc_moegladosfactory\voice\task5-6.wav" "file"
"sound\oc_moegladosfactory\voice\task5-6_dummy.wav" "file"
"sound\oc_moegladosfactory\voice\task5-7.wav" "file"
"sound\oc_moegladosfactory\voice\task5-7_dummy.wav" "file"
"sound\oc_moegladosfactory\voice\task6-1.wav" "file"
"sound\oc_moegladosfactory\voice\task6-1_dummy.wav" "file"
"sound\oc_moegladosfactory\voice\task6-2.wav" "file"
"sound\oc_moegladosfactory\voice\task6-2_dummy.wav" "file"
"sound\oc_moegladosfactory\voice\task6-3.wav" "file"
"sound\oc_moegladosfactory\voice\task6-3_dummy.wav" "file"
"sound\oc_moegladosfactory\voice\task6-4.wav" "file"
"sound\oc_moegladosfactory\voice\task6-4_dummy.wav" "file"
"sound\oc_moegladosfactory\voice\task6-5.wav" "file"
"sound\oc_moegladosfactory\voice\task6-5_dummy.wav" "file"
"sound\oc_moegladosfactory\voice\task6-6.wav" "file"
"sound\oc_moegladosfactory\voice\task6-6_dummy.wav" "file"
"sound\oc_moegladosfactory\voice\task6-7.wav" "file"
"sound\oc_moegladosfactory\voice\task6-7_dummy.wav" "file"
"sound\oc_moegladosfactory\voice\task6-8.wav" "file"
"sound\oc_moegladosfactory\voice\task6-8_dummy.wav" "file"
"sound\oc_moegladosfactory\voice\task6-9.wav" "file"
"sound\oc_moegladosfactory\voice\task6-9_dummy.wav" "file"
"sound\oc_moegladosfactory\voice\task6-10.wav" "file"
"sound\oc_moegladosfactory\voice\task6-10_dummy.wav" "file"
"sound\oc_moegladosfactory\voice\task7-1.wav" "file"
"sound\oc_moegladosfactory\voice\task7-1_dummy.wav" "file"
"sound\oc_moegladosfactory\voice\task7-2.wav" "file"
"sound\oc_moegladosfactory\voice\task7-2_dummy.wav" "file"
"sound\oc_moegladosfactory\voice\task7-3.wav" "file"
"sound\oc_moegladosfactory\voice\task7-3_dummy.wav" "file"
"sound\oc_moegladosfactory\voice\task7-4.wav" "file"
"sound\oc_moegladosfactory\voice\task7-4_dummy.wav" "file"
"sound\oc_moegladosfactory\voice\task7-5.wav" "file"
"sound\oc_moegladosfactory\voice\task7-5_dummy.wav" "file"
"sound\oc_moegladosfactory\voice\task7-6.wav" "file"
"sound\oc_moegladosfactory\voice\task7-6_dummy.wav" "file"
"sound\oc_moegladosfactory\voice\task7-7.wav" "file"
"sound\oc_moegladosfactory\voice\task7-7_dummy.wav" "file"
"sound\oc_moegladosfactory\voice\task7-8.wav" "file"
"sound\oc_moegladosfactory\voice\task7-8_dummy.wav" "file"
"sound\oc_moegladosfactory\voice\task7-9.wav" "file"
"sound\oc_moegladosfactory\voice\task7-9_dummy.wav" "file"
"sound\oc_moegladosfactory\voice\task7-10.wav" "file"
"sound\oc_moegladosfactory\voice\task7-10_dummy.wav" "file"
"sound\oc_moegladosfactory\voice\task7-11.wav" "file"
"sound\oc_moegladosfactory\voice\task7-11_dummy.wav" "file"
"sound\oc_moegladosfactory\voice\task7-12.wav" "file"
"sound\oc_moegladosfactory\voice\task7-12_dummy.wav" "file"
"sound\oc_moegladosfactory\voice\task7-13.wav" "file"
"sound\oc_moegladosfactory\voice\task7-13_dummy.wav" "file"
"sound\oc_moegladosfactory\voice\task8-1.wav" "file"
"sound\oc_moegladosfactory\voice\task8-1_dummy.wav" "file"
"sound\oc_moegladosfactory\voice\task8-2.wav" "file"
"sound\oc_moegladosfactory\voice\task8-2_dummy.wav" "file"
"sound\oc_moegladosfactory\voice\task8-3.wav" "file"
"sound\oc_moegladosfactory\voice\task8-3_dummy.wav" "file"
"sound\oc_moegladosfactory\voice\task8-4.wav" "file"
"sound\oc_moegladosfactory\voice\task8-4_dummy.wav" "file"
"sound\oc_moegladosfactory\voice\task8-5.wav" "file"
"sound\oc_moegladosfactory\voice\task8-5_dummy.wav" "file"
"sound\oc_moegladosfactory\voice\task8-6.wav" "file"
"sound\oc_moegladosfactory\voice\task8-6_dummy.wav" "file"
"sound\oc_moegladosfactory\voice\task8-7.wav" "file"
"sound\oc_moegladosfactory\voice\task8-7_dummy.wav" "file"
"sound\oc_moegladosfactory\voice\task8-8.wav" "file"
"sound\oc_moegladosfactory\voice\task8-8_dummy.wav" "file"
"sound\oc_moegladosfactory\voice\task8-9.wav" "file"
"sound\oc_moegladosfactory\voice\task8-9_dummy.wav" "file"
"sound\oc_moegladosfactory\voice\task8-10.wav" "file"
"sound\oc_moegladosfactory\voice\task8-10_dummy.wav" "file"
"sound\oc_moegladosfactory\voice\task9-1.wav" "file"
"sound\oc_moegladosfactory\voice\task9-1_dummy.wav" "file"
"sound\oc_moegladosfactory\voice\task9-2.wav" "file"
"sound\oc_moegladosfactory\voice\task9-2_dummy.wav" "file"
"sound\oc_moegladosfactory\voice\task9-3.wav" "file"
"sound\oc_moegladosfactory\voice\task9-3_dummy.wav" "file"
"sound\oc_moegladosfactory\voice\task9-4.wav" "file"
"sound\oc_moegladosfactory\voice\task9-4_dummy.wav" "file"
"sound\oc_moegladosfactory\voice\task9-5.wav" "file"
"sound\oc_moegladosfactory\voice\task9-5_dummy.wav" "file"
"sound\oc_moegladosfactory\voice\task9-6.wav" "file"
"sound\oc_moegladosfactory\voice\task9-6_dummy.wav" "file"
"sound\oc_moegladosfactory\voice\task9-7.wav" "file"
"sound\oc_moegladosfactory\voice\task9-7_dummy.wav" "file"
"sound\oc_moegladosfactory\voice\task9-8.wav" "file"
"sound\oc_moegladosfactory\voice\task9-8_dummy.wav" "file"
"sound\oc_moegladosfactory\voice\task9-9.wav" "file"
"sound\oc_moegladosfactory\voice\task9-9_dummy.wav" "file"
"sound\oc_moegladosfactory\voice\task9-10.wav" "file"
"sound\oc_moegladosfactory\voice\task9-10_dummy.wav" "file"
"sound\oc_moegladosfactory\voice\task9-11.wav" "file"
"sound\oc_moegladosfactory\voice\task9-11_dummy.wav" "file"
"sound\oc_moegladosfactory\voice\task10-1.wav" "file"
"sound\oc_moegladosfactory\voice\task10-1_dummy.wav" "file"
"sound\oc_moegladosfactory\voice\task10-2.wav" "file"
"sound\oc_moegladosfactory\voice\task10-2_dummy.wav" "file"
"sound\oc_moegladosfactory\voice\task10-3.wav" "file"
"sound\oc_moegladosfactory\voice\task10-3_dummy.wav" "file"
"sound\oc_moegladosfactory\voice\task10-4.wav" "file"
"sound\oc_moegladosfactory\voice\task10-4_dummy.wav" "file"
"sound\oc_moegladosfactory\voice\task10-5.wav" "file"
"sound\oc_moegladosfactory\voice\task10-5_dummy.wav" "file"
"sound\oc_moegladosfactory\voice\task10-6.wav" "file"
"sound\oc_moegladosfactory\voice\task10-6_dummy.wav" "file"
"sound\oc_moegladosfactory\voice\task10-6_dummy_work.wav" "file"
}