"resources"
{
"maps\oc_neolobby.bsp" "file"
"maps\oc_neolobby.res" "file"
"maps\cfg\oc_neolobby_briefing.txt" "file"
"maps\cfg\oc_neolobby_modify.txt" "file"
"materials\maps\oc_neolobby\ButtonCatalogue.vmt" "file"
"materials\maps\oc_neolobby\ButtonCatalogue.vtf" "file"
"materials\maps\oc_neolobby\chapter11.vmt" "file"
"materials\maps\oc_neolobby\chapter11.vtf" "file"
"materials\maps\oc_neolobby\Number0.vmt" "file"
"materials\maps\oc_neolobby\Number0.vtf" "file"
"materials\maps\oc_neolobby\Number1.vmt" "file"
"materials\maps\oc_neolobby\Number1.vtf" "file"
"materials\maps\oc_neolobby\Number2.vmt" "file"
"materials\maps\oc_neolobby\Number2.vtf" "file"
"materials\maps\oc_neolobby\Number3.vmt" "file"
"materials\maps\oc_neolobby\Number3.vtf" "file"
"materials\maps\oc_neolobby\Number4.vmt" "file"
"materials\maps\oc_neolobby\Number4.vtf" "file"
"materials\maps\oc_neolobby\Number5.vmt" "file"
"materials\maps\oc_neolobby\Number5.vtf" "file"
"materials\maps\oc_neolobby\Number6.vmt" "file"
"materials\maps\oc_neolobby\Number6.vtf" "file"
"materials\maps\oc_neolobby\Number7.vmt" "file"
"materials\maps\oc_neolobby\Number7.vtf" "file"
"materials\maps\oc_neolobby\Number8.vmt" "file"
"materials\maps\oc_neolobby\Number8.vtf" "file"
"materials\maps\oc_neolobby\Number9.vmt" "file"
"materials\maps\oc_neolobby\Number9.vtf" "file"
"materials\maps\oc_neolobby\Testkeypad.vmt" "file"
"materials\maps\oc_neolobby\Testkeypad.vtf" "file"
"materials\VGUI\maps\menu_thumb_oc_neolobby.vmt" "file"
"materials\VGUI\maps\menu_thumb_oc_neolobby.vtf" "file"
"materials\maps\oc_neolobby\map_thumb\blank.vmt" "file"
"materials\maps\oc_neolobby\map_thumb\blank.vtf" "file"
"materials\maps\oc_neolobby\map_thumb\lobby_coop_zelda01_b.vmt" "file"
"materials\maps\oc_neolobby\map_thumb\lobby_cs_militia.vmt" "file"
"materials\maps\oc_neolobby\map_thumb\lobby_de_chateau.vmt" "file"
"materials\maps\oc_neolobby\map_thumb\lobby_de_dust.vmt" "file"
"materials\maps\oc_neolobby\map_thumb\lobby_de_nuke.vmt" "file"
"materials\maps\oc_neolobby\map_thumb\lobby_de_port.vmt" "file"
"materials\maps\oc_neolobby\map_thumb\lobby_de_prodigy.vmt" "file"
"materials\maps\oc_neolobby\map_thumb\lobby_ep2_oc_broken_escape_02a.vmt" "file"
"materials\maps\oc_neolobby\map_thumb\lobby_ocf_deadland.vmt" "file"
"materials\maps\oc_neolobby\map_thumb\lobby_oc_antlion_attack.vmt" "file"
"materials\maps\oc_neolobby\map_thumb\lobby_oc_breakout.vmt" "file"
"materials\maps\oc_neolobby\map_thumb\lobby_oc_broken_escape.vmt" "file"
"materials\maps\oc_neolobby\map_thumb\lobby_oc_bunker.vmt" "file"
"materials\maps\oc_neolobby\map_thumb\lobby_oc_cannon.vmt" "file"
"materials\maps\oc_neolobby\map_thumb\lobby_oc_cardwar.vmt" "file"
"materials\maps\oc_neolobby\map_thumb\lobby_oc_castledefense.vmt" "file"
"materials\maps\oc_neolobby\map_thumb\lobby_oc_courier.vmt" "file"
"materials\maps\oc_neolobby\map_thumb\lobby_oc_danmaku.vmt" "file"
"materials\maps\oc_neolobby\map_thumb\lobby_oc_docks.vmt" "file"
"materials\maps\oc_neolobby\map_thumb\lobby_oc_evildead.vmt" "file"
"materials\maps\oc_neolobby\map_thumb\lobby_oc_fireteam.vmt" "file"
"materials\maps\oc_neolobby\map_thumb\lobby_oc_freezingpoint.vmt" "file"
"materials\maps\oc_neolobby\map_thumb\lobby_oc_harvest.vmt" "file"
"materials\maps\oc_neolobby\map_thumb\lobby_oc_kake.vmt" "file"
"materials\maps\oc_neolobby\map_thumb\lobby_oc_manor.vmt" "file"
"materials\maps\oc_neolobby\map_thumb\lobby_oc_newgappi_g.vmt" "file"
"materials\maps\oc_neolobby\map_thumb\lobby_oc_return_c17.vmt" "file"
"materials\maps\oc_neolobby\map_thumb\lobby_oc_seamus.vmt" "file"
"materials\maps\oc_neolobby\map_thumb\lobby_oc_sewers.vmt" "file"
"materials\maps\oc_neolobby\map_thumb\lobby_oc_stadium.vmt" "file"
"materials\maps\oc_neolobby\map_thumb\lobby_oc_starlight.vmt" "file"
"materials\maps\oc_neolobby\map_thumb\lobby_oc_starship_troopers.vmt" "file"
"materials\maps\oc_neolobby\map_thumb\lobby_oc_stitches.vmt" "file"
"materials\maps\oc_neolobby\map_thumb\lobby_oc_umizuri.vmt" "file"
"materials\maps\oc_neolobby\map_thumb\lobby_oc_waking_dead.vmt" "file"
"materials\maps\oc_neolobby\map_thumb\lobby_oc_wgh.vmt" "file"
"materials\maps\oc_neolobby\map_thumb\lobby_oc_wildfire.vmt" "file"
"materials\maps\oc_neolobby\map_thumb\lobby_oc_zelda02_g.vmt" "file"
"materials\maps\oc_neolobby\map_thumb\lobby_z_harrier2_c.vmt" "file"
}