"resources"
{
"maps\oc_nacht_der_untoten.res" "file"
"maps\oc_nacht_der_untoten.bsp" "file"
"maps\cfg\oc_nacht_der_untoten_briefing.txt" "file"
"maps\cfg\oc_nacht_der_untoten_cfg.txt" "file"
"maps\cfg\oc_nacht_der_untoten_modify.txt" "file"
"materials\maps\oc_lobby\lobby_nacht.vmt" "file"
"materials\maps\oc_lobby\lobby_nacht.vtf" "file"
"materials\maps\oc_nacht_der_untoten\aim.vmt" "file"
"materials\maps\oc_nacht_der_untoten\aim.vtf" "file"
"materials\maps\oc_nacht_der_untoten\ascend.vmt" "file"
"materials\maps\oc_nacht_der_untoten\ascend.vtf" "file"
"materials\maps\oc_nacht_der_untoten\bar.vmt" "file"
"materials\maps\oc_nacht_der_untoten\bar.vtf" "file"
"materials\maps\oc_nacht_der_untoten\build.vmt" "file"
"materials\maps\oc_nacht_der_untoten\build.vtf" "file"
"materials\maps\oc_nacht_der_untoten\bunker_nz.vmt" "file"
"materials\maps\oc_nacht_der_untoten\bunker_nz.vtf" "file"
"materials\maps\oc_nacht_der_untoten\bunker_nz_ao.vtf" "file"
"materials\maps\oc_nacht_der_untoten\bunker_nz_ssbump.vtf" "file"
"materials\maps\oc_nacht_der_untoten\c96.vmt" "file"
"materials\maps\oc_nacht_der_untoten\c96.vtf" "file"
"materials\maps\oc_nacht_der_untoten\floor_tile_nz.vmt" "file"
"materials\maps\oc_nacht_der_untoten\floor_tile_nz.vtf" "file"
"materials\maps\oc_nacht_der_untoten\floor_tile_nz_AO.vtf" "file"
"materials\maps\oc_nacht_der_untoten\floor_tile_nz_ssbump.vtf" "file"
"materials\maps\oc_nacht_der_untoten\grenade.vmt" "file"
"materials\maps\oc_nacht_der_untoten\grenade.vtf" "file"
"materials\maps\oc_nacht_der_untoten\head_nz.vmt" "file"
"materials\maps\oc_nacht_der_untoten\head_nz.vtf" "file"
"materials\maps\oc_nacht_der_untoten\head_nz_ssbump.vtf" "file"
"materials\maps\oc_nacht_der_untoten\help.vmt" "file"
"materials\maps\oc_nacht_der_untoten\help.vtf" "file"
"materials\maps\oc_nacht_der_untoten\help_door.vmt" "file"
"materials\maps\oc_nacht_der_untoten\help_door.vtf" "file"
"materials\maps\oc_nacht_der_untoten\k98k.vmt" "file"
"materials\maps\oc_nacht_der_untoten\k98k.vtf" "file"
"materials\maps\oc_nacht_der_untoten\m1carbine.vmt" "file"
"materials\maps\oc_nacht_der_untoten\m1carbine.vtf" "file"
"materials\maps\oc_nacht_der_untoten\moon.vmt" "file"
"materials\maps\oc_nacht_der_untoten\moon.vtf" "file"
"materials\maps\oc_nacht_der_untoten\moon.vtf" "file"
"materials\maps\oc_nacht_der_untoten\mp40.vmt" "file"
"materials\maps\oc_nacht_der_untoten\mp40.vtf" "file"
"materials\maps\oc_nacht_der_untoten\mp44.vmt" "file"
"materials\maps\oc_nacht_der_untoten\mp44.vtf" "file"
"materials\maps\oc_nacht_der_untoten\mystery_box_back.vmt" "file"
"materials\maps\oc_nacht_der_untoten\mystery_box_back.vtf" "file"
"materials\maps\oc_nacht_der_untoten\mystery_box_front.vmt" "file"
"materials\maps\oc_nacht_der_untoten\mystery_box_front.vtf" "file"
"materials\maps\oc_nacht_der_untoten\mystery_box_up.vmt" "file"
"materials\maps\oc_nacht_der_untoten\mystery_box_up.vtf" "file"
"materials\maps\oc_nacht_der_untoten\ndu_rock_blend_dirt.vmt" "file"
"materials\maps\oc_nacht_der_untoten\ndu_rock_blend_dirt.vtf" "file"
"materials\maps\oc_nacht_der_untoten\ndu_rock_blend_dirt_mort.vtf" "file"
"materials\maps\oc_nacht_der_untoten\ndu_rock_blend_dirt_mud.vtf" "file"
"materials\maps\oc_nacht_der_untoten\ndu_rock_blend_mud.vmt" "file"
"materials\maps\oc_nacht_der_untoten\night_1.raw" "file"
"materials\maps\oc_nacht_der_untoten\pinewall.vmt" "file"
"materials\maps\oc_nacht_der_untoten\pinewall.vtf" "file"
"materials\maps\oc_nacht_der_untoten\salvation.vmt" "file"
"materials\maps\oc_nacht_der_untoten\salvation.vtf" "file"
"materials\maps\oc_nacht_der_untoten\SANDBAGS.vmt" "file"
"materials\maps\oc_nacht_der_untoten\sandbags.vtf" "file"
"materials\maps\oc_nacht_der_untoten\sandbags_ao.vtf" "file"
"materials\maps\oc_nacht_der_untoten\sandbags_ssbump.vtf" "file"
"materials\maps\oc_nacht_der_untoten\tom.vmt" "file"
"materials\maps\oc_nacht_der_untoten\tom.vtf" "file"
"materials\maps\oc_nacht_der_untoten\wall_main_nz.vmt" "file"
"materials\maps\oc_nacht_der_untoten\wall_main_nz.vtf" "file"
"materials\maps\oc_nacht_der_untoten\wall_main_nz_SSBump.vtf" "file"
"materials\models\maps\oc_nacht\nazizombie\german_body.vmt" "file"
"materials\models\maps\oc_nacht\nazizombie\german_body.vtf" "file"
"materials\models\maps\oc_nacht\nazizombie\german_body_exp.vtf" "file"
"materials\models\maps\oc_nacht\nazizombie\german_body_normal.vtf" "file"
"materials\models\maps\oc_nacht\nazizombie\german_gear.vmt" "file"
"materials\models\maps\oc_nacht\nazizombie\german_gear.vtf" "file"
"materials\models\maps\oc_nacht\nazizombie\german_gear_exp.vtf" "file"
"materials\models\maps\oc_nacht\nazizombie\german_gear_normal.vtf" "file"
"materials\models\maps\oc_nacht\nazizombie\glow.vmt" "file"
"materials\models\maps\oc_nacht\nazizombie\glow.vtf" "file"
"materials\Sprites\hud\clips_bullets.vmt" "file"
"materials\Sprites\hud\dod_weapons01.vmt" "file"
"materials\VGUI\maps\menu_thumb_oc_nacht_der_untoten.vmt" "file"
"materials\VGUI\maps\menu_thumb_oc_nacht_der_untoten.vtf" "file"
"models\maps\oc_nacht\b17.mdl" "file"
"models\maps\oc_nacht\b17.vvd" "file"
"models\maps\oc_nacht\b17.dx80.vtx" "file"
"models\maps\oc_nacht\b17.dx90.vtx" "file"
"models\maps\oc_nacht\b17.sw.vtx" "file"
"models\maps\oc_nacht\nazizombie.mdl" "file"
"models\maps\oc_nacht\nazizombie.phy" "file"
"models\maps\oc_nacht\nazizombie.vvd" "file"
"models\maps\oc_nacht\nazizombie.dx80.vtx" "file"
"models\maps\oc_nacht\nazizombie.dx90.vtx" "file"
"models\maps\oc_nacht\nazizombie.sw.vtx" "file"
"models\maps\oc_nacht\nazizombie2.mdl" "file"
"models\maps\oc_nacht\nazizombie2.phy" "file"
"models\maps\oc_nacht\nazizombie2.vvd" "file"
"models\maps\oc_nacht\nazizombie2.dx80.vtx" "file"
"models\maps\oc_nacht\nazizombie2.dx90.vtx" "file"
"models\maps\oc_nacht\nazizombie2.sw.vtx" "file"
"models\weapons\oc_nacht\v_30cal.mdl" "file"
"models\weapons\oc_nacht\v_30cal.vvd" "file"
"models\weapons\oc_nacht\v_30cal.dx80.vtx" "file"
"models\weapons\oc_nacht\v_30cal.dx90.vtx" "file"
"models\weapons\oc_nacht\v_30cal.sw.vtx" "file"
"models\weapons\oc_nacht\v_bar.mdl" "file"
"models\weapons\oc_nacht\v_bar.vvd" "file"
"models\weapons\oc_nacht\v_bar.dx80.vtx" "file"
"models\weapons\oc_nacht\v_bar.dx90.vtx" "file"
"models\weapons\oc_nacht\v_bar.sw.vtx" "file"
"models\weapons\oc_nacht\v_c96.mdl" "file"
"models\weapons\oc_nacht\v_c96.vvd" "file"
"models\weapons\oc_nacht\v_c96.dx80.vtx" "file"
"models\weapons\oc_nacht\v_c96.dx90.vtx" "file"
"models\weapons\oc_nacht\v_c96.sw.vtx" "file"
"models\weapons\oc_nacht\v_colt.mdl" "file"
"models\weapons\oc_nacht\v_colt.vvd" "file"
"models\weapons\oc_nacht\v_colt.dx80.vtx" "file"
"models\weapons\oc_nacht\v_colt.dx90.vtx" "file"
"models\weapons\oc_nacht\v_colt.sw.vtx" "file"
"models\weapons\oc_nacht\v_garand.mdl" "file"
"models\weapons\oc_nacht\v_garand.vvd" "file"
"models\weapons\oc_nacht\v_garand.dx80.vtx" "file"
"models\weapons\oc_nacht\v_garand.dx90.vtx" "file"
"models\weapons\oc_nacht\v_garand.sw.vtx" "file"
"models\weapons\oc_nacht\v_k98.mdl" "file"
"models\weapons\oc_nacht\v_k98.vvd" "file"
"models\weapons\oc_nacht\v_k98.dx80.vtx" "file"
"models\weapons\oc_nacht\v_k98.dx90.vtx" "file"
"models\weapons\oc_nacht\v_k98.sw.vtx" "file"
"models\weapons\oc_nacht\v_m1carbine.mdl" "file"
"models\weapons\oc_nacht\v_m1carbine.vvd" "file"
"models\weapons\oc_nacht\v_m1carbine.dx80.vtx" "file"
"models\weapons\oc_nacht\v_m1carbine.dx90.vtx" "file"
"models\weapons\oc_nacht\v_m1carbine.sw.vtx" "file"
"models\weapons\oc_nacht\v_mg42.mdl" "file"
"models\weapons\oc_nacht\v_mg42.vvd" "file"
"models\weapons\oc_nacht\v_mg42.dx80.vtx" "file"
"models\weapons\oc_nacht\v_mg42.dx90.vtx" "file"
"models\weapons\oc_nacht\v_mg42.sw.vtx" "file"
"models\weapons\oc_nacht\v_mp40.mdl" "file"
"models\weapons\oc_nacht\v_mp40.vvd" "file"
"models\weapons\oc_nacht\v_mp40.dx80.vtx" "file"
"models\weapons\oc_nacht\v_mp40.dx90.vtx" "file"
"models\weapons\oc_nacht\v_mp40.sw.vtx" "file"
"models\weapons\oc_nacht\v_mp44.mdl" "file"
"models\weapons\oc_nacht\v_mp44.vvd" "file"
"models\weapons\oc_nacht\v_mp44.dx80.vtx" "file"
"models\weapons\oc_nacht\v_mp44.dx90.vtx" "file"
"models\weapons\oc_nacht\v_mp44.sw.vtx" "file"
"models\weapons\oc_nacht\v_panzerschreck.mdl" "file"
"models\weapons\oc_nacht\v_panzerschreck.vvd" "file"
"models\weapons\oc_nacht\v_panzerschreck.dx80.vtx" "file"
"models\weapons\oc_nacht\v_panzerschreck.dx90.vtx" "file"
"models\weapons\oc_nacht\v_panzerschreck.sw.vtx" "file"
"models\weapons\oc_nacht\v_stick.mdl" "file"
"models\weapons\oc_nacht\v_stick.vvd" "file"
"models\weapons\oc_nacht\v_stick.dx80.vtx" "file"
"models\weapons\oc_nacht\v_stick.dx90.vtx" "file"
"models\weapons\oc_nacht\v_stick.sw.vtx" "file"
"models\weapons\oc_nacht\v_thompson.mdl" "file"
"models\weapons\oc_nacht\v_thompson.vvd" "file"
"models\weapons\oc_nacht\v_thompson.dx80.vtx" "file"
"models\weapons\oc_nacht\v_thompson.dx90.vtx" "file"
"models\weapons\oc_nacht\v_thompson.sw.vtx" "file"
"models\weapons\oc_nacht\w_30cal.mdl" "file"
"models\weapons\oc_nacht\w_30cal.phy" "file"
"models\weapons\oc_nacht\w_30cal.vvd" "file"
"models\weapons\oc_nacht\w_30cal.dx80.vtx" "file"
"models\weapons\oc_nacht\w_30cal.dx90.vtx" "file"
"models\weapons\oc_nacht\w_30cal.sw.vtx" "file"
"models\weapons\oc_nacht\w_bar.mdl" "file"
"models\weapons\oc_nacht\w_bar.phy" "file"
"models\weapons\oc_nacht\w_bar.vvd" "file"
"models\weapons\oc_nacht\w_bar.dx80.vtx" "file"
"models\weapons\oc_nacht\w_bar.dx90.vtx" "file"
"models\weapons\oc_nacht\w_bar.sw.vtx" "file"
"models\weapons\oc_nacht\w_c96.mdl" "file"
"models\weapons\oc_nacht\w_c96.phy" "file"
"models\weapons\oc_nacht\w_c96.vvd" "file"
"models\weapons\oc_nacht\w_c96.dx80.vtx" "file"
"models\weapons\oc_nacht\w_c96.dx90.vtx" "file"
"models\weapons\oc_nacht\w_c96.sw.vtx" "file"
"models\weapons\oc_nacht\w_colt.mdl" "file"
"models\weapons\oc_nacht\w_colt.phy" "file"
"models\weapons\oc_nacht\w_colt.vvd" "file"
"models\weapons\oc_nacht\w_colt.dx80.vtx" "file"
"models\weapons\oc_nacht\w_colt.dx90.vtx" "file"
"models\weapons\oc_nacht\w_colt.sw.vtx" "file"
"models\weapons\oc_nacht\w_garand.mdl" "file"
"models\weapons\oc_nacht\w_garand.phy" "file"
"models\weapons\oc_nacht\w_garand.vvd" "file"
"models\weapons\oc_nacht\w_garand.dx80.vtx" "file"
"models\weapons\oc_nacht\w_garand.dx90.vtx" "file"
"models\weapons\oc_nacht\w_garand.sw.vtx" "file"
"models\weapons\oc_nacht\w_k98.mdl" "file"
"models\weapons\oc_nacht\w_k98.phy" "file"
"models\weapons\oc_nacht\w_k98.vvd" "file"
"models\weapons\oc_nacht\w_k98.dx80.vtx" "file"
"models\weapons\oc_nacht\w_k98.dx90.vtx" "file"
"models\weapons\oc_nacht\w_k98.sw.vtx" "file"
"models\weapons\oc_nacht\w_m1carb.mdl" "file"
"models\weapons\oc_nacht\w_m1carb.phy" "file"
"models\weapons\oc_nacht\w_m1carb.vvd" "file"
"models\weapons\oc_nacht\w_m1carb.dx80.vtx" "file"
"models\weapons\oc_nacht\w_m1carb.dx90.vtx" "file"
"models\weapons\oc_nacht\w_m1carb.sw.vtx" "file"
"models\weapons\oc_nacht\w_mg42bu.mdl" "file"
"models\weapons\oc_nacht\w_mg42bu.phy" "file"
"models\weapons\oc_nacht\w_mg42bu.vvd" "file"
"models\weapons\oc_nacht\w_mg42bu.dx80.vtx" "file"
"models\weapons\oc_nacht\w_mg42bu.dx90.vtx" "file"
"models\weapons\oc_nacht\w_mg42bu.sw.vtx" "file"
"models\weapons\oc_nacht\w_mp40.mdl" "file"
"models\weapons\oc_nacht\w_mp40.phy" "file"
"models\weapons\oc_nacht\w_mp40.vvd" "file"
"models\weapons\oc_nacht\w_mp40.dx80.vtx" "file"
"models\weapons\oc_nacht\w_mp40.dx90.vtx" "file"
"models\weapons\oc_nacht\w_mp40.sw.vtx" "file"
"models\weapons\oc_nacht\w_mp44.mdl" "file"
"models\weapons\oc_nacht\w_mp44.phy" "file"
"models\weapons\oc_nacht\w_mp44.vvd" "file"
"models\weapons\oc_nacht\w_mp44.dx80.vtx" "file"
"models\weapons\oc_nacht\w_mp44.dx90.vtx" "file"
"models\weapons\oc_nacht\w_mp44.sw.vtx" "file"
"models\weapons\oc_nacht\w_pschreck.mdl" "file"
"models\weapons\oc_nacht\w_pschreck.phy" "file"
"models\weapons\oc_nacht\w_pschreck.vvd" "file"
"models\weapons\oc_nacht\w_pschreck.dx80.vtx" "file"
"models\weapons\oc_nacht\w_pschreck.dx90.vtx" "file"
"models\weapons\oc_nacht\w_pschreck.sw.vtx" "file"
"models\weapons\oc_nacht\w_spring.vvd" "file"
"models\weapons\oc_nacht\w_stick.mdl" "file"
"models\weapons\oc_nacht\w_stick.phy" "file"
"models\weapons\oc_nacht\w_stick.vvd" "file"
"models\weapons\oc_nacht\w_stick.dx80.vtx" "file"
"models\weapons\oc_nacht\w_stick.dx90.vtx" "file"
"models\weapons\oc_nacht\w_stick.sw.vtx" "file"
"models\weapons\oc_nacht\w_thompson.mdl" "file"
"models\weapons\oc_nacht\w_thompson.phy" "file"
"models\weapons\oc_nacht\w_thompson.vvd" "file"
"models\weapons\oc_nacht\w_thompson.dx80.vtx" "file"
"models\weapons\oc_nacht\w_thompson.dx90.vtx" "file"
"models\weapons\oc_nacht\w_thompson.sw.vtx" "file"
"scripts\game_sounds_dod_weapons.txt" "file"
"scripts\customweapons\oc_nacht\custom_ndu_bar.txt" "file"
"scripts\customweapons\oc_nacht\custom_ndu_c96.txt" "file"
"scripts\customweapons\oc_nacht\custom_ndu_cal.txt" "file"
"scripts\customweapons\oc_nacht\custom_ndu_colt.txt" "file"
"scripts\customweapons\oc_nacht\custom_ndu_k98.txt" "file"
"scripts\customweapons\oc_nacht\custom_ndu_m1carbine.txt" "file"
"scripts\customweapons\oc_nacht\custom_ndu_m1garand.txt" "file"
"scripts\customweapons\oc_nacht\custom_ndu_mg42.txt" "file"
"scripts\customweapons\oc_nacht\custom_ndu_mp40.txt" "file"
"scripts\customweapons\oc_nacht\custom_ndu_mp44.txt" "file"
"scripts\customweapons\oc_nacht\custom_ndu_panzerschreck.txt" "file"
"scripts\customweapons\oc_nacht\custom_ndu_stick.txt" "file"
"scripts\customweapons\oc_nacht\custom_ndu_thompson.txt" "file"

}
