"resources"
{
"maps\oc_nerv.bsp" "file"
"maps\oc_nerv.res" "file"
"maps\cfg\oc_nerv_briefing.txt" "file"
"maps\cfg\oc_nerv_cfg.txt" "file"
"maps\cfg\oc_nerv_modify.txt" "file"
"maps\cfg\oc_nerv_soundscripts.txt" "file"
"materials\maps\oc_lobby\oc_nerv.vmt" "file"
"materials\maps\oc_lobby\oc_nerv.vtf" "file"
"materials\maps\oc_nerv\BRIDGE\SE1_METAL_FLAT_STEEL_01.vmt" "file"
"materials\maps\oc_nerv\BRIDGE\SE1_metal_flat_steel_01.vtf" "file"
"materials\maps\oc_nerv\fjc\fun_wood2.vmt" "file"
"materials\maps\oc_nerv\fjc\fun_wood2.vtf" "file"
"materials\maps\oc_nerv\FUN_\fun_bath.vmt" "file"
"materials\maps\oc_nerv\FUN_\fun_bath.vtf" "file"
"materials\maps\oc_nerv\FUN_\fun_bath_NRM.vtf" "file"
"materials\maps\oc_nerv\FUN_\fun_blknoise.vmt" "file"
"materials\maps\oc_nerv\FUN_\fun_blknoise.vtf" "file"
"materials\maps\oc_nerv\FUN_\fun_blknoise_Norm.vtf" "file"
"materials\maps\oc_nerv\FUN_\fun_brushmetal_NRM.vtf" "file"
"materials\maps\oc_nerv\FUN_\fun_FlMrbl-Bsm.vmt" "file"
"materials\maps\oc_nerv\FUN_\fun_FlMrbl-Bsm.vtf" "file"
"materials\maps\oc_nerv\FUN_\fun_lobfl_NRM.vtf" "file"
"materials\maps\oc_nerv\FUN_\FUN_LOBFLM1.vmt" "file"
"materials\maps\oc_nerv\FUN_\fun_lobflM1.vtf" "file"
"materials\maps\oc_nerv\FUN_\FUN_LOBFLM2.vmt" "file"
"materials\maps\oc_nerv\FUN_\fun_lobflM2.vtf" "file"
"materials\maps\oc_nerv\FUN_\FUN_LOBWL_1.vmt" "file"
"materials\maps\oc_nerv\FUN_\fun_lobwl_1.vtf" "file"
"materials\maps\oc_nerv\FUN_\Fun_metpan4.vtf" "file"
"materials\maps\oc_nerv\FUN_\Fun_metpan4_normal.vtf" "file"
"materials\maps\oc_nerv\FUN_\FUN_METPANN4.vmt" "file"
"materials\maps\oc_nerv\FUN_\FUN_METPANN4_green.vmt" "file"
"materials\maps\oc_nerv\FUN_\FUN_METPANN4_green.vtf" "file"
"materials\maps\oc_nerv\FUN_\FUN_METPANN4_grey.vmt" "file"
"materials\maps\oc_nerv\FUN_\FUN_METPANN4_grey.vtf" "file"
"materials\maps\oc_nerv\FUN_\fun_papinstnerv.vmt" "file"
"materials\maps\oc_nerv\FUN_\fun_papinstnerv.vtf" "file"
"materials\maps\oc_nerv\FUN_\fun_rcurtains.vmt" "file"
"materials\maps\oc_nerv\FUN_\fun_rcurtains.vtf" "file"
"materials\maps\oc_nerv\FUN_\fun_rcurtains_norm.vtf" "file"
"materials\maps\oc_nerv\FUN_\fun_wall13.vmt" "file"
"materials\maps\oc_nerv\FUN_\fun_wall13.vtf" "file"
"materials\maps\oc_nerv\FUN_\fun_wall13_NRM.vtf" "file"
"materials\maps\oc_nerv\FUN_\FUN_WALL17.vmt" "file"
"materials\maps\oc_nerv\FUN_\fun_wall17.vtf" "file"
"materials\maps\oc_nerv\FUN_\FUN_WOODGRAIN4.vmt" "file"
"materials\maps\oc_nerv\FUN_\fun_woodgrain4.vtf" "file"
"materials\maps\oc_nerv\labs\SE1_glass_break_02.vmt" "file"
"materials\maps\oc_nerv\labs\SE1_glass_break_02.vtf" "file"
"materials\maps\oc_nerv\labs\SE1_GLASS_WINDOW_02.vmt" "file"
"materials\maps\oc_nerv\labs\SE1_glass_window_02.vtf" "file"
"materials\maps\oc_nerv\labs\SE1_METAL_LAB_TRIM_03_G.vmt" "file"
"materials\maps\oc_nerv\labs\SE1_metal_lab_trim_03_g.vtf" "file"
"materials\maps\oc_nerv\labs\SE1_metal_lab_trim_03_g_Normal.vtf" "file"
"materials\maps\oc_nerv\labs\SE1_METAL_LAB_TRIM_04.vmt" "file"
"materials\maps\oc_nerv\labs\SE1_metal_lab_trim_04.vtf" "file"
"materials\maps\oc_nerv\labs\SE1_metal_lab_trim_04_Normal.vtf" "file"
"materials\maps\oc_nerv\LOBBY\+AELEV_LOBBY.vmt" "file"
"materials\maps\oc_nerv\LOBBY\+Aelev_lobby.vtf" "file"
"materials\maps\oc_nerv\LOBBY\LIGHT3.vmt" "file"
"materials\maps\oc_nerv\LOBBY\light3.vtf" "file"
"materials\maps\oc_nerv\LOBBY\LOBBY19.vmt" "file"
"materials\maps\oc_nerv\LOBBY\lobby19.vtf" "file"
"materials\maps\oc_nerv\LOBBY\LOBBY21.vmt" "file"
"materials\maps\oc_nerv\LOBBY\lobby21.vtf" "file"
"materials\maps\oc_nerv\meck\fun_nerv.vmt" "file"
"materials\maps\oc_nerv\meck\fun_nerv.vtf" "file"
"materials\maps\oc_nerv\meck\gp_hospitalsig2.vmt" "file"
"materials\maps\oc_nerv\meck\gp_hospitalsig2.vtf" "file"
"materials\maps\oc_nerv\overlays\combineburn001a.vmt" "file"
"materials\maps\oc_nerv\overlays\combineburn001a.vtf" "file"
"materials\maps\oc_nerv\tokyo3\elevdoor.vmt" "file"
"materials\maps\oc_nerv\tokyo3\elevdoor.vtf" "file"
"materials\maps\oc_nerv\tokyo3\fun_9boxX.vmt" "file"
"materials\maps\oc_nerv\tokyo3\fun_9boxX.vtf" "file"
"materials\maps\oc_nerv\tokyo3\fun_9boxXY.vmt" "file"
"materials\maps\oc_nerv\tokyo3\fun_9boxXY.vtf" "file"
"materials\maps\oc_nerv\tokyo3\fun_9boxY.vmt" "file"
"materials\maps\oc_nerv\tokyo3\fun_9boxY.vtf" "file"
"materials\maps\oc_nerv\tokyo3\fun_45boxX.vmt" "file"
"materials\maps\oc_nerv\tokyo3\fun_45boxX.vtf" "file"
"materials\maps\oc_nerv\tokyo3\fun_45boxXY.vmt" "file"
"materials\maps\oc_nerv\tokyo3\fun_45boxXY.vtf" "file"
"materials\maps\oc_nerv\tokyo3\fun_45boxY.vmt" "file"
"materials\maps\oc_nerv\tokyo3\fun_45boxY.vtf" "file"
"materials\maps\oc_nerv\tokyo3\fun_46boxX.vmt" "file"
"materials\maps\oc_nerv\tokyo3\fun_46boxX.vtf" "file"
"materials\maps\oc_nerv\tokyo3\fun_46boxXY.vmt" "file"
"materials\maps\oc_nerv\tokyo3\fun_46boxXY.vtf" "file"
"materials\maps\oc_nerv\tokyo3\fun_46boxY.vmt" "file"
"materials\maps\oc_nerv\tokyo3\fun_46boxY.vtf" "file"
"materials\maps\oc_nerv\tokyo3\fun_556boxX.vmt" "file"
"materials\maps\oc_nerv\tokyo3\fun_556boxX.vtf" "file"
"materials\maps\oc_nerv\tokyo3\fun_556boxXY.vmt" "file"
"materials\maps\oc_nerv\tokyo3\fun_556boxXY.vtf" "file"
"materials\maps\oc_nerv\tokyo3\fun_556boxY.vmt" "file"
"materials\maps\oc_nerv\tokyo3\fun_556boxY.vtf" "file"
"materials\maps\oc_nerv\tokyo3\fun_556boxyx.vmt" "file"
"materials\maps\oc_nerv\tokyo3\fun_556boxyx.vtf" "file"
"materials\maps\oc_nerv\tokyo3\FUN_BGREEN1.vmt" "file"
"materials\maps\oc_nerv\tokyo3\fun_bgreen1.vtf" "file"
"materials\maps\oc_nerv\tokyo3\FUN_BRED1.vmt" "file"
"materials\maps\oc_nerv\tokyo3\fun_bred1.vtf" "file"
"materials\maps\oc_nerv\tokyo3\fun_brushmetal_NRM.vtf" "file"
"materials\maps\oc_nerv\tokyo3\FUN_BRUSHMETAL01.vmt" "file"
"materials\maps\oc_nerv\tokyo3\fun_brushmetal01.vtf" "file"
"materials\maps\oc_nerv\tokyo3\FUN_BRUSHMETAL05.vmt" "file"
"materials\maps\oc_nerv\tokyo3\fun_brushmetal05.vtf" "file"
"materials\maps\oc_nerv\tokyo3\FUN_BRUSHMETAL07.vmt" "file"
"materials\maps\oc_nerv\tokyo3\fun_brushmetal07.vtf" "file"
"materials\maps\oc_nerv\tokyo3\FUN_CMDPANNEL2.vmt" "file"
"materials\maps\oc_nerv\tokyo3\fun_cmdpannel2.vtf" "file"
"materials\maps\oc_nerv\tokyo3\fun_cmdpannel2_n.vtf" "file"
"materials\maps\oc_nerv\tokyo3\FUN_CMDPANNEL3.vmt" "file"
"materials\maps\oc_nerv\tokyo3\fun_cmdpannel3.vtf" "file"
"materials\maps\oc_nerv\tokyo3\fun_cmdpannel3_ssbump.vtf" "file"
"materials\maps\oc_nerv\tokyo3\FUN_CMDPANNEL4.vmt" "file"
"materials\maps\oc_nerv\tokyo3\FUN_COLCON01.vmt" "file"
"materials\maps\oc_nerv\tokyo3\fun_colcon01.vtf" "file"
"materials\maps\oc_nerv\tokyo3\FUN_COLCON02.vmt" "file"
"materials\maps\oc_nerv\tokyo3\fun_colcon02.vtf" "file"
"materials\maps\oc_nerv\tokyo3\FUN_COLCON03.vmt" "file"
"materials\maps\oc_nerv\tokyo3\fun_colcon03.vtf" "file"
"materials\maps\oc_nerv\tokyo3\FUN_COLCON05.vmt" "file"
"materials\maps\oc_nerv\tokyo3\fun_colcon05.vtf" "file"
"materials\maps\oc_nerv\tokyo3\FUN_COLCON06.vmt" "file"
"materials\maps\oc_nerv\tokyo3\fun_colcon06.vtf" "file"
"materials\maps\oc_nerv\tokyo3\FUN_COLCON07.vmt" "file"
"materials\maps\oc_nerv\tokyo3\fun_colcon07.vtf" "file"
"materials\maps\oc_nerv\tokyo3\fun_credits.vmt" "file"
"materials\maps\oc_nerv\tokyo3\fun_credits.vtf" "file"
"materials\maps\oc_nerv\tokyo3\FUN_DECAL11.vmt" "file"
"materials\maps\oc_nerv\tokyo3\fun_decal11.vtf" "file"
"materials\maps\oc_nerv\tokyo3\fun_endgmBAR.vmt" "file"
"materials\maps\oc_nerv\tokyo3\fun_endgmBAR.vtf" "file"
"materials\maps\oc_nerv\tokyo3\fun_endgmBOX.vmt" "file"
"materials\maps\oc_nerv\tokyo3\fun_endgmBOX.vtf" "file"
"materials\maps\oc_nerv\tokyo3\fun_endgmGUI.vmt" "file"
"materials\maps\oc_nerv\tokyo3\fun_endgmGUI.vtf" "file"
"materials\maps\oc_nerv\tokyo3\fun_font_e2.vmt" "file"
"materials\maps\oc_nerv\tokyo3\fun_font_e2.vtf" "file"
"materials\maps\oc_nerv\tokyo3\fun_font_e3.vmt" "file"
"materials\maps\oc_nerv\tokyo3\fun_font_e3.vtf" "file"
"materials\maps\oc_nerv\tokyo3\fun_font_e5.vmt" "file"
"materials\maps\oc_nerv\tokyo3\fun_font_e5.vtf" "file"
"materials\maps\oc_nerv\tokyo3\fun_font_e6.vmt" "file"
"materials\maps\oc_nerv\tokyo3\fun_font_e6.vtf" "file"
"materials\maps\oc_nerv\tokyo3\fun_font_e7.vmt" "file"
"materials\maps\oc_nerv\tokyo3\fun_font_e7.vtf" "file"
"materials\maps\oc_nerv\tokyo3\fun_font_h2.vmt" "file"
"materials\maps\oc_nerv\tokyo3\fun_font_H2.vtf" "file"
"materials\maps\oc_nerv\tokyo3\fun_font_Lv10.vmt" "file"
"materials\maps\oc_nerv\tokyo3\fun_font_Lv10.vtf" "file"
"materials\maps\oc_nerv\tokyo3\fun_font_Lv20.vmt" "file"
"materials\maps\oc_nerv\tokyo3\fun_font_Lv20.vtf" "file"
"materials\maps\oc_nerv\tokyo3\fun_font_Lv30.vmt" "file"
"materials\maps\oc_nerv\tokyo3\fun_font_Lv30.vtf" "file"
"materials\maps\oc_nerv\tokyo3\fun_font_Lv40.vmt" "file"
"materials\maps\oc_nerv\tokyo3\fun_font_Lv40.vtf" "file"
"materials\maps\oc_nerv\tokyo3\FUN_GENDOU_FLOOR.vmt" "file"
"materials\maps\oc_nerv\tokyo3\fun_gendou_floor.vtf" "file"
"materials\maps\oc_nerv\tokyo3\fun_hyugamonitor.vmt" "file"
"materials\maps\oc_nerv\tokyo3\fun_hyugamonitor.vtf" "file"
"materials\maps\oc_nerv\tokyo3\FUN_HZRED_02.vmt" "file"
"materials\maps\oc_nerv\tokyo3\fun_hzred_02.vtf" "file"
"materials\maps\oc_nerv\tokyo3\FUN_JANITORCARD.vmt" "file"
"materials\maps\oc_nerv\tokyo3\fun_janitorcard.vtf" "file"
"materials\maps\oc_nerv\tokyo3\FUN_LCLCOLOR.vmt" "file"
"materials\maps\oc_nerv\tokyo3\fun_LCLcolor.vtf" "file"
"materials\maps\oc_nerv\tokyo3\fun_lclcolorflbrt.vmt" "file"
"materials\maps\oc_nerv\tokyo3\fun_LCLwater.vmt" "file"
"materials\maps\oc_nerv\tokyo3\fun_LCLwaterbeneath.vmt" "file"
"materials\maps\oc_nerv\tokyo3\FUN_LIGHT3OFF.vmt" "file"
"materials\maps\oc_nerv\tokyo3\fun_light3off.vtf" "file"
"materials\maps\oc_nerv\tokyo3\FUN_MAGI1.vmt" "file"
"materials\maps\oc_nerv\tokyo3\fun_magi1.vtf" "file"
"materials\maps\oc_nerv\tokyo3\FUN_MAGI2.vmt" "file"
"materials\maps\oc_nerv\tokyo3\fun_magi2.vtf" "file"
"materials\maps\oc_nerv\tokyo3\fun_magi3.vmt" "file"
"materials\maps\oc_nerv\tokyo3\fun_magi3.vtf" "file"
"materials\maps\oc_nerv\tokyo3\FUN_MAINSC1.vmt" "file"
"materials\maps\oc_nerv\tokyo3\Fun_mainsc1.vtf" "file"
"materials\maps\oc_nerv\tokyo3\FUN_MAINSC2.vmt" "file"
"materials\maps\oc_nerv\tokyo3\FUN_NERVCARD1.vmt" "file"
"materials\maps\oc_nerv\tokyo3\fun_nervcard1.vtf" "file"
"materials\maps\oc_nerv\tokyo3\FUN_NERVCARD2.vmt" "file"
"materials\maps\oc_nerv\tokyo3\fun_nervcard2.vtf" "file"
"materials\maps\oc_nerv\tokyo3\FUN_NERVLOGO2.vmt" "file"
"materials\maps\oc_nerv\tokyo3\fun_nervlogo2.vtf" "file"
"materials\maps\oc_nerv\tokyo3\FUN_NERVMONITOR.vmt" "file"
"materials\maps\oc_nerv\tokyo3\fun_nervmonitor.vtf" "file"
"materials\maps\oc_nerv\tokyo3\fun_opmanual_back.vmt" "file"
"materials\maps\oc_nerv\tokyo3\fun_opmanual_back.vtf" "file"
"materials\maps\oc_nerv\tokyo3\fun_opmanual_front.vmt" "file"
"materials\maps\oc_nerv\tokyo3\fun_opmanual_front.vtf" "file"
"materials\maps\oc_nerv\tokyo3\fun_opmanual_pages.vmt" "file"
"materials\maps\oc_nerv\tokyo3\fun_opmanual_pages.vtf" "file"
"materials\maps\oc_nerv\tokyo3\fun_opmanual_side.vmt" "file"
"materials\maps\oc_nerv\tokyo3\fun_opmanual_side.vtf" "file"
"materials\maps\oc_nerv\tokyo3\FUN_PLUG01.vmt" "file"
"materials\maps\oc_nerv\tokyo3\fun_plug01.vtf" "file"
"materials\maps\oc_nerv\tokyo3\FUN_PLUG02.vmt" "file"
"materials\maps\oc_nerv\tokyo3\fun_plug02.vtf" "file"
"materials\maps\oc_nerv\tokyo3\FUN_PLUG03.vmt" "file"
"materials\maps\oc_nerv\tokyo3\fun_plug03.vtf" "file"
"materials\maps\oc_nerv\tokyo3\FUN_PLUG04.vmt" "file"
"materials\maps\oc_nerv\tokyo3\fun_plug04.vtf" "file"
"materials\maps\oc_nerv\tokyo3\FUN_PLUG05.vmt" "file"
"materials\maps\oc_nerv\tokyo3\fun_plug05.vtf" "file"
"materials\maps\oc_nerv\tokyo3\FUN_PLUG06.vmt" "file"
"materials\maps\oc_nerv\tokyo3\fun_plug06.vtf" "file"
"materials\maps\oc_nerv\tokyo3\FUN_RED.vmt" "file"
"materials\maps\oc_nerv\tokyo3\fun_red.vtf" "file"
"materials\maps\oc_nerv\tokyo3\FUN_SE01.vmt" "file"
"materials\maps\oc_nerv\tokyo3\FUN_SIGN1.vmt" "file"
"materials\maps\oc_nerv\tokyo3\FUN_SIGN5.vmt" "file"
"materials\maps\oc_nerv\tokyo3\fun_sign5.vtf" "file"
"materials\maps\oc_nerv\tokyo3\FUN_SIGN6.vmt" "file"
"materials\maps\oc_nerv\tokyo3\fun_sign6.vtf" "file"
"materials\maps\oc_nerv\tokyo3\FUN_SIGN7.vmt" "file"
"materials\maps\oc_nerv\tokyo3\fun_sign7.vtf" "file"
"materials\maps\oc_nerv\tokyo3\FUN_SIGN8.vmt" "file"
"materials\maps\oc_nerv\tokyo3\fun_sign8.vtf" "file"
"materials\maps\oc_nerv\tokyo3\fun_sign9.vmt" "file"
"materials\maps\oc_nerv\tokyo3\fun_sign9.vtf" "file"
"materials\maps\oc_nerv\tokyo3\fun_sign10.vmt" "file"
"materials\maps\oc_nerv\tokyo3\fun_sign10.vtf" "file"
"materials\maps\oc_nerv\tokyo3\fun_sign11.vmt" "file"
"materials\maps\oc_nerv\tokyo3\FUN_SIGN12.vmt" "file"
"materials\maps\oc_nerv\tokyo3\fun_sign12.vtf" "file"
"materials\maps\oc_nerv\tokyo3\FUN_SIGN20.vmt" "file"
"materials\maps\oc_nerv\tokyo3\fun_sign20.vtf" "file"
"materials\maps\oc_nerv\tokyo3\FUN_SIGN21.vmt" "file"
"materials\maps\oc_nerv\tokyo3\fun_sign21.vtf" "file"
"materials\maps\oc_nerv\tokyo3\FUN_SIGN22.vmt" "file"
"materials\maps\oc_nerv\tokyo3\fun_sign22.vtf" "file"
"materials\maps\oc_nerv\tokyo3\FUN_SIGN30.vmt" "file"
"materials\maps\oc_nerv\tokyo3\fun_sign30.vtf" "file"
"materials\maps\oc_nerv\tokyo3\FUN_SIGN31.vmt" "file"
"materials\maps\oc_nerv\tokyo3\FUN_SIGN31.vtf" "file"
"materials\maps\oc_nerv\tokyo3\FUN_SIGND.vmt" "file"
"materials\maps\oc_nerv\tokyo3\fun_signd.vtf" "file"
"materials\maps\oc_nerv\tokyo3\FUN_SIGNst.vmt" "file"
"materials\maps\oc_nerv\tokyo3\fun_signst.vtf" "file"
"materials\maps\oc_nerv\tokyo3\FUN_TACTLIGHT.vmt" "file"
"materials\maps\oc_nerv\tokyo3\fun_tactlight.vtf" "file"
"materials\maps\oc_nerv\tokyo3\FUN_TACTSCRL.vmt" "file"
"materials\maps\oc_nerv\tokyo3\FUN_TACTSCRM.vmt" "file"
"materials\maps\oc_nerv\tokyo3\FUN_TACTSCRU.vmt" "file"
"materials\maps\oc_nerv\tokyo3\Fun_tactscru.vtf" "file"
"materials\maps\oc_nerv\tokyo3\Fun_tacttxt" "file".vmt" "file"
"materials\maps\oc_nerv\tokyo3\FUN_TERMSIGN01.vmt" "file"
"materials\maps\oc_nerv\tokyo3\fun_termsign01.vtf" "file"
"materials\maps\oc_nerv\tokyo3\FUN_TERMSIGN02.vmt" "file"
"materials\maps\oc_nerv\tokyo3\fun_termsign02.vtf" "file"
"materials\maps\oc_nerv\tokyo3\FUN_TERMSIGN03.vmt" "file"
"materials\maps\oc_nerv\tokyo3\fun_termsign03.vtf" "file"
"materials\maps\oc_nerv\tokyo3\FUN_WARNLV4.vmt" "file"
"materials\maps\oc_nerv\tokyo3\fun_warnlv4.vtf" "file"
"materials\maps\oc_nerv\tokyo3\fun_wayp_obj.vmt" "file"
"materials\maps\oc_nerv\tokyo3\fun_wayp_obj.vtf" "file"
"materials\maps\oc_nerv\tokyo3\lab1_stair2b.vmt" "file"
"materials\maps\oc_nerv\tokyo3\LIGHT.vmt" "file"
"materials\maps\oc_nerv\tokyo3\light.vtf" "file"
"materials\maps\oc_nerv\tokyo3\noise.vtf" "file"
"materials\maps\oc_nerv\tokyo3\speaker.vmt" "file"
"materials\maps\oc_nerv\tokyo3\speaker.vtf" "file"
"materials\maps\oc_nerv\tokyo3\fonts\fun_fntBL_1.vmt" "file"
"materials\maps\oc_nerv\tokyo3\fonts\fun_fntBL_1.vtf" "file"
"materials\maps\oc_nerv\tokyo3\fonts\fun_fntBl_2.vmt" "file"
"materials\maps\oc_nerv\tokyo3\fonts\fun_fntBl_2.vtf" "file"
"materials\maps\oc_nerv\tokyo3\fonts\fun_fntBl_3.vmt" "file"
"materials\maps\oc_nerv\tokyo3\fonts\fun_fntBl_3.vtf" "file"
"materials\maps\oc_nerv\tokyo3\fonts\fun_fntBl_dsh.vmt" "file"
"materials\maps\oc_nerv\tokyo3\fonts\fun_fntBl_dsh.vtf" "file"
"materials\maps\oc_nerv\tokyo3\fonts\fun_fntBl_E.vmt" "file"
"materials\maps\oc_nerv\tokyo3\fonts\fun_fntBl_E.vtf" "file"
"materials\maps\oc_nerv\tokyo3\fonts\fun_fntBU_3.vmt" "file"
"materials\maps\oc_nerv\tokyo3\fonts\fun_fntBU_3.vtf" "file"
"materials\maps\oc_nerv\tokyo3\fonts\fun_fntBU_4.vmt" "file"
"materials\maps\oc_nerv\tokyo3\fonts\fun_fntBU_4.vtf" "file"
"materials\maps\oc_nerv\tokyo3\fonts\fun_fntBU_6.vmt" "file"
"materials\maps\oc_nerv\tokyo3\fonts\fun_fntBU_6.vtf" "file"
"materials\maps\oc_nerv\tokyo3\fonts\fun_fntBU_F.vmt" "file"
"materials\maps\oc_nerv\tokyo3\fonts\fun_fntBU_F.vtf" "file"
"materials\maps\oc_nerv\tokyo3\fonts\fun_fntGU_3.vmt" "file"
"materials\maps\oc_nerv\tokyo3\fonts\fun_fntGU_3.vtf" "file"
"materials\maps\oc_nerv\tokyo3\fonts\fun_fntGU_4.vmt" "file"
"materials\maps\oc_nerv\tokyo3\fonts\fun_fntGU_4.vtf" "file"
"materials\maps\oc_nerv\tokyo3\fonts\fun_fntGU_7.vmt" "file"
"materials\maps\oc_nerv\tokyo3\fonts\fun_fntGU_7.vtf" "file"
"materials\maps\oc_nerv\tokyo3\fonts\fun_fntGU_9.vmt" "file"
"materials\maps\oc_nerv\tokyo3\fonts\fun_fntGU_9.vtf" "file"
"materials\maps\oc_nerv\tokyo3\fonts\fun_fntGU_C.vmt" "file"
"materials\maps\oc_nerv\tokyo3\fonts\fun_fntGU_C.vtf" "file"
"materials\maps\oc_nerv\tokyo3\fonts\fun_fntGU_x.vmt" "file"
"materials\maps\oc_nerv\tokyo3\fonts\fun_fntGU_x.vtf" "file"
"materials\maps\oc_nerv\tokyo3\fonts\fun_fntOU_-.vmt" "file"
"materials\maps\oc_nerv\tokyo3\fonts\fun_fntOU_-.vtf" "file"
"materials\maps\oc_nerv\tokyo3\fonts\fun_fntOU_2.vmt" "file"
"materials\maps\oc_nerv\tokyo3\fonts\fun_fntOU_2.vtf" "file"
"materials\maps\oc_nerv\tokyo3\fonts\fun_fntOU_5.vmt" "file"
"materials\maps\oc_nerv\tokyo3\fonts\fun_fntOU_5.vtf" "file"
"materials\maps\oc_nerv\tokyo3\fonts\fun_fntOU_9.vmt" "file"
"materials\maps\oc_nerv\tokyo3\fonts\fun_fntOU_9.vtf" "file"
"materials\maps\oc_nerv\tokyo3\fonts\fun_fntOU_g.vmt" "file"
"materials\maps\oc_nerv\tokyo3\fonts\fun_fntOU_g.vtf" "file"
"materials\maps\oc_nerv\tokyo3\fonts\fun_fntRR_-.vmt" "file"
"materials\maps\oc_nerv\tokyo3\fonts\fun_fntRR_-.vtf" "file"
"materials\maps\oc_nerv\tokyo3\fonts\fun_fntRT_-.vmt" "file"
"materials\maps\oc_nerv\tokyo3\fonts\fun_fntRT_-.vtf" "file"
"materials\maps\oc_nerv\tokyo3\fonts\fun_fntRU_-.vmt" "file"
"materials\maps\oc_nerv\tokyo3\fonts\fun_fntRU_-.vtf" "file"
"materials\maps\oc_nerv\tokyo3\fonts\fun_fntRU_2.vmt" "file"
"materials\maps\oc_nerv\tokyo3\fonts\fun_fntRU_2.vtf" "file"
"materials\maps\oc_nerv\tokyo3\fonts\fun_fntRU_3.vmt" "file"
"materials\maps\oc_nerv\tokyo3\fonts\fun_fntRU_3.vtf" "file"
"materials\maps\oc_nerv\tokyo3\fonts\fun_fntRU_4.vmt" "file"
"materials\maps\oc_nerv\tokyo3\fonts\fun_fntRU_4.vtf" "file"
"materials\maps\oc_nerv\tokyo3\fonts\fun_fntRU_5.vmt" "file"
"materials\maps\oc_nerv\tokyo3\fonts\fun_fntRU_5.vtf" "file"
"materials\maps\oc_nerv\tokyo3\fonts\fun_fntRU_6.vmt" "file"
"materials\maps\oc_nerv\tokyo3\fonts\fun_fntRU_6.vtf" "file"
"materials\maps\oc_nerv\tokyo3\fonts\fun_fntRU_7.vmt" "file"
"materials\maps\oc_nerv\tokyo3\fonts\fun_fntRU_7.vtf" "file"
"materials\maps\oc_nerv\tokyo3\fonts\fun_fntRU_D-.vmt" "file"
"materials\maps\oc_nerv\tokyo3\fonts\fun_fntRU_D-.vtf" "file"
"materials\models\maps\Nerv\black.vmt" "file"
"materials\models\maps\Nerv\carpetfloor008a.vmt" "file"
"materials\models\maps\Nerv\fun_556boxx.vmt" "file"
"materials\models\maps\Nerv\fun_556boxxy.vmt" "file"
"materials\models\maps\Nerv\fun_556boxy.vmt" "file"
"materials\models\maps\Nerv\fun_556boxyx.vmt" "file"
"materials\models\maps\Nerv\fun_blknoise.vmt" "file"
"materials\models\maps\Nerv\fun_carp5.vmt" "file"
"materials\models\maps\Nerv\fun_wood2.vmt" "file"
"materials\models\maps\Nerv\9ammobox\fun_9boxx.vmt" "file"
"materials\models\maps\Nerv\9ammobox\fun_9boxxy.vmt" "file"
"materials\models\maps\Nerv\9ammobox\fun_9boxy.vmt" "file"
"materials\models\maps\Nerv\9ammobox\fun_556boxyx.vmt" "file"
"materials\models\maps\Nerv\45ammobox\fun_45boxx.vmt" "file"
"materials\models\maps\Nerv\45ammobox\fun_45boxxy.vmt" "file"
"materials\models\maps\Nerv\45ammobox\fun_45boxy.vmt" "file"
"materials\models\maps\Nerv\45ammobox\fun_46boxx.vmt" "file"
"materials\models\maps\Nerv\45ammobox\fun_46boxxy.vmt" "file"
"materials\models\maps\Nerv\45ammobox\fun_46boxy.vmt" "file"
"materials\models\maps\Nerv\45ammobox\fun_556boxyx.vmt" "file"
"materials\models\maps\Nerv\46ammobox\fun_46boxx.vmt" "file"
"materials\models\maps\Nerv\46ammobox\fun_46boxxy.vmt" "file"
"materials\models\maps\Nerv\46ammobox\fun_46boxy.vmt" "file"
"materials\models\maps\Nerv\46ammobox\fun_556boxyx.vmt" "file"
"materials\models\maps\Nerv\556ammobox\fun_556boxx.vmt" "file"
"materials\models\maps\Nerv\556ammobox\fun_556boxxy.vmt" "file"
"materials\models\maps\Nerv\556ammobox\fun_556boxy.vmt" "file"
"materials\models\maps\Nerv\556ammobox\fun_556boxyx.vmt" "file"
"materials\models\maps\Nerv\c130\black.vmt" "file"
"materials\models\maps\Nerv\c130\black.vtf" "file"
"materials\models\maps\Nerv\c130\engine_d.vmt" "file"
"materials\models\maps\Nerv\c130\engine_d.vtf" "file"
"materials\models\maps\Nerv\c130\floor_d.vmt" "file"
"materials\models\maps\Nerv\c130\floor_d.vtf" "file"
"materials\models\maps\Nerv\c130\floor_n.vtf" "file"
"materials\models\maps\Nerv\c130\fuselage_d.vmt" "file"
"materials\models\maps\Nerv\c130\fuselage_d.vtf" "file"
"materials\models\maps\Nerv\c130\green.vmt" "file"
"materials\models\maps\Nerv\c130\green.vtf" "file"
"materials\models\maps\Nerv\c130\normalmap.vtf" "file"
"materials\models\maps\Nerv\c130\red.vmt" "file"
"materials\models\maps\Nerv\c130\red.vtf" "file"
"materials\models\maps\Nerv\c130\specular.vtf" "file"
"materials\models\maps\Nerv\c130\wings_d.vmt" "file"
"materials\models\maps\Nerv\c130\wings_d.vtf" "file"
"materials\models\maps\Nerv\c130\wornmetal_d.vmt" "file"
"materials\models\maps\Nerv\c130\wornmetal_d.vtf" "file"
"materials\models\maps\Nerv\fanblade\metalhull003a.vmt" "file"
"materials\models\maps\Nerv\jssdfsoldier\jssdf_d.vmt" "file"
"materials\models\maps\Nerv\jssdfsoldier\jssdf_d.vtf" "file"
"materials\models\maps\Nerv\jssdfsoldier\jssdf_n.vtf" "file"
"materials\models\maps\Nerv\jssdfsoldier\jssdfglass_d.vmt" "file"
"materials\models\maps\Nerv\jssdfsoldier\jssdfglass_d.vtf" "file"
"materials\models\maps\Nerv\nerv_ship\concretefloor009a.vmt" "file"
"materials\models\maps\Nerv\nerv_ship\concretewall074c.vmt" "file"
"materials\models\maps\Nerv\nerv_ship\dev_measurewall01d.vmt" "file"
"materials\models\maps\Nerv\nerv_ship\glasswindow015a.vmt" "file"
"materials\models\maps\Nerv\nerv_ship\metalarch004b.vmt" "file"
"materials\models\maps\Nerv\nerv_ship\metalgrate014a.vmt" "file"
"materials\models\maps\Nerv\nerv_ship\metalwall006b.vmt" "file"
"materials\models\maps\Nerv\nerv_ship\metalwall029a.vmt" "file"
"materials\models\maps\Nerv\nerv_ship\milflr002.vmt" "file"
"materials\models\maps\Nerv\nerv_ship\plasterceiling006a.vmt" "file"
"materials\models\maps\Nerv\nerv_ship\plasterwall043e.vmt" "file"
"materials\models\maps\Nerv\nerv_ship\wooddoor048a.vmt" "file"
"materials\models\maps\Nerv\nerv_ship\woodfloor005a.vmt" "file"
"materials\models\maps\Nerv\nerv_ship\woodfloor007a_c17.vmt" "file"
"materials\models\maps\Nerv\nerv_ship\woodfloor008a.vmt" "file"
"materials\models\maps\Nerv\nerv_ship\woodi.vmt" "file"
"materials\models\maps\Nerv\nerv_ship\woodstair002a.vmt" "file"
"materials\models\maps\Nerv\nerv_ship\woodstair002c.vmt" "file"
"materials\models\maps\Nerv\nerv_ship\woodwall028a.vmt" "file"
"materials\models\maps\Nerv\nerv_ship\woodwall043a.vmt" "file"
"materials\models\maps\Nerv\opmanual\fun_lclcolor.vmt" "file"
"materials\models\maps\Nerv\opmanual\fun_opmanual_back.vmt" "file"
"materials\models\maps\Nerv\opmanual\fun_opmanual_front.vmt" "file"
"materials\models\maps\Nerv\opmanual\fun_opmanual_pages.vmt" "file"
"materials\models\maps\Nerv\opmanual\fun_opmanual_side.vmt" "file"
"materials\models\maps\Nerv\shield\jssdfglass_d.vmt" "file"
"materials\models\maps\Nerv\shield\jssdfglass_d.vtf" "file"
"materials\models\maps\Nerv\shield\jssdfglass_d1.vtf" "file"
"materials\models\maps\Nerv\shield\normalmap.vtf" "file"
"materials\models\maps\Nerv\shield\specular.vtf" "file"
"materials\models\maps\Nerv\shield\wornmetal_d.vmt" "file"
"materials\models\maps\Nerv\shield\wornmetal_d.vtf" "file"
"materials\models\maps\Nerv\singlechair\black.vmt" "file"
"materials\models\maps\Nerv\singlechair\carpetfloor008a.vmt" "file"
"materials\models\maps\Nerv\singlechair\fun_blknoise.vmt" "file"
"materials\models\maps\Nerv\singlechair\fun_carp5.vmt" "file"
"materials\models\maps\Nerv\singlechair\fun_wood2.vmt" "file"
"materials\models\maps\Nerv\theaterchairs\black.vmt" "file"
"materials\models\maps\Nerv\theaterchairs\carpetfloor008a.vmt" "file"
"materials\models\maps\Nerv\theaterchairs\fun_blknoise.vmt" "file"
"materials\models\maps\Nerv\theaterchairs\fun_carp5.vmt" "file"
"materials\models\maps\Nerv\theaterchairs\fun_wood2.vmt" "file"
"materials\models\maps\Nerv\yagr\specular.vtf" "file"
"materials\models\maps\Nerv\yagr\yagr-1_d.vmt" "file"
"materials\models\maps\Nerv\yagr\yagr-1_d.vtf" "file"
"materials\models\maps\Nerv\yagr\yagr-1_n.vtf" "file"
"materials\models\maps\Nerv\yagr\yagr-2_d.vmt" "file"
"materials\models\maps\Nerv\yagr\yagr-2_d.vtf" "file"
"materials\models\maps\Nerv\yagr\yagr-2_n.vtf" "file"
"materials\models\maps\Nerv\yagr\yagr-3_d.vmt" "file"
"materials\models\maps\Nerv\yagr\yagr-3_d.vtf" "file"
"materials\models\weapons\oc_nerv\cz75\cz75_d.vmt" "file"
"materials\models\weapons\oc_nerv\cz75\cz75_d.vtf" "file"
"materials\models\weapons\oc_nerv\cz75\cz75_g.vtf" "file"
"materials\models\weapons\oc_nerv\cz75\cz75_ns.vtf" "file"
"materials\models\weapons\oc_nerv\glock\glock_d.vmt" "file"
"materials\models\weapons\oc_nerv\glock\glock_d.vtf" "file"
"materials\models\weapons\oc_nerv\glock\glock_g.vtf" "file"
"materials\models\weapons\oc_nerv\glock\glock_ns.vtf" "file"
"materials\models\weapons\oc_nerv\m37\m37.vmt" "file"
"materials\models\weapons\oc_nerv\m37\m37.vtf" "file"
"materials\models\weapons\oc_nerv\m37\m37_g.vtf" "file"
"materials\models\weapons\oc_nerv\m37\m37_ns.vtf" "file"
"materials\models\weapons\oc_nerv\v_colt\frame.vmt" "file"
"materials\models\weapons\oc_nerv\v_colt\frame.vtf" "file"
"materials\models\weapons\oc_nerv\v_colt\slide.vmt" "file"
"materials\models\weapons\oc_nerv\v_colt\slide.vtf" "file"
"materials\models\weapons\oc_nerv\w_colt\frame.vmt" "file"
"materials\models\weapons\oc_nerv\w_colt\slide.vmt" "file"
"materials\VGUI\maps\menu_thumb_oc_nerv.vmt" "file"
"materials\VGUI\maps\menu_thumb_oc_nerv.vtf" "file"
"models\maps\nerv\9ammobox.mdl" "file"
"models\maps\nerv\9ammobox.phy" "file"
"models\maps\nerv\9ammobox.vvd" "file"
"models\maps\nerv\9ammobox.dx80.vtx" "file"
"models\maps\nerv\9ammobox.dx90.vtx" "file"
"models\maps\nerv\9ammobox.sw.vtx" "file"
"models\maps\nerv\45ammobox.mdl" "file"
"models\maps\nerv\45ammobox.phy" "file"
"models\maps\nerv\45ammobox.vvd" "file"
"models\maps\nerv\45ammobox.dx80.vtx" "file"
"models\maps\nerv\45ammobox.dx90.vtx" "file"
"models\maps\nerv\45ammobox.sw.vtx" "file"
"models\maps\nerv\46ammobox.mdl" "file"
"models\maps\nerv\46ammobox.phy" "file"
"models\maps\nerv\46ammobox.vvd" "file"
"models\maps\nerv\46ammobox.dx80.vtx" "file"
"models\maps\nerv\46ammobox.dx90.vtx" "file"
"models\maps\nerv\46ammobox.sw.vtx" "file"
"models\maps\nerv\556ammobox.mdl" "file"
"models\maps\nerv\556ammobox.phy" "file"
"models\maps\nerv\556ammobox.vvd" "file"
"models\maps\nerv\556ammobox.dx80.vtx" "file"
"models\maps\nerv\556ammobox.dx90.vtx" "file"
"models\maps\nerv\556ammobox.sw.vtx" "file"
"models\maps\nerv\c130.mdl" "file"
"models\maps\nerv\c130.phy" "file"
"models\maps\nerv\c130.vvd" "file"
"models\maps\nerv\c130.dx80.vtx" "file"
"models\maps\nerv\c130.dx90.vtx" "file"
"models\maps\nerv\c130.sw.vtx" "file"
"models\maps\nerv\fanblade.mdl" "file"
"models\maps\nerv\fanblade.phy" "file"
"models\maps\nerv\fanblade.vvd" "file"
"models\maps\nerv\fanblade.dx80.vtx" "file"
"models\maps\nerv\fanblade.dx90.vtx" "file"
"models\maps\nerv\fanblade.sw.vtx" "file"
"models\maps\nerv\jssdfsoldier.mdl" "file"
"models\maps\nerv\JSSDFsoldier.phy" "file"
"models\maps\nerv\jssdfsoldier.vvd" "file"
"models\maps\nerv\JSSDFsoldier.dx80.vtx" "file"
"models\maps\nerv\JSSDFsoldier.dx90.vtx" "file"
"models\maps\nerv\JSSDFsoldier.sw.vtx" "file"
"models\maps\nerv\nerv_ship.mdl" "file"
"models\maps\nerv\nerv_ship.vvd" "file"
"models\maps\nerv\nerv_ship.dx80.vtx" "file"
"models\maps\nerv\nerv_ship.dx90.vtx" "file"
"models\maps\nerv\nerv_ship.sw.vtx" "file"
"models\maps\nerv\opmanual.mdl" "file"
"models\maps\nerv\opmanual.phy" "file"
"models\maps\nerv\opmanual.vvd" "file"
"models\maps\nerv\opmanual.dx80.vtx" "file"
"models\maps\nerv\opmanual.dx90.vtx" "file"
"models\maps\nerv\opmanual.sw.vtx" "file"
"models\maps\nerv\shelf.mdl" "file"
"models\maps\nerv\shelf.phy" "file"
"models\maps\nerv\shelf.vvd" "file"
"models\maps\nerv\shelf.dx80.vtx" "file"
"models\maps\nerv\shelf.dx90.vtx" "file"
"models\maps\nerv\shelf.sw.vtx" "file"
"models\maps\nerv\shield.mdl" "file"
"models\maps\nerv\shield.phy" "file"
"models\maps\nerv\shield.vvd" "file"
"models\maps\nerv\shield.dx80.vtx" "file"
"models\maps\nerv\shield.dx90.vtx" "file"
"models\maps\nerv\shield.sw.vtx" "file"
"models\maps\nerv\singlechair.mdl" "file"
"models\maps\nerv\singlechair.phy" "file"
"models\maps\nerv\singlechair.vvd" "file"
"models\maps\nerv\singlechair.dx80.vtx" "file"
"models\maps\nerv\singlechair.dx90.vtx" "file"
"models\maps\nerv\singlechair.sw.vtx" "file"
"models\maps\nerv\theaterchairs.mdl" "file"
"models\maps\nerv\theaterchairs.phy" "file"
"models\maps\nerv\theaterchairs.vvd" "file"
"models\maps\nerv\theaterchairs.dx80.vtx" "file"
"models\maps\nerv\theaterchairs.dx90.vtx" "file"
"models\maps\nerv\theaterchairs.sw.vtx" "file"
"models\maps\nerv\yagr.dx80.vtx" "file"
"models\maps\nerv\yagr.dx90.vtx" "file"
"models\maps\nerv\yagr.mdl" "file"
"models\maps\nerv\yagr.phy" "file"
"models\maps\nerv\yagr.sw.vtx" "file"
"models\maps\nerv\yagr.vvd" "file"
"models\weapons\oc_nerv\v_cz75.mdl" "file"
"models\weapons\oc_nerv\v_cz75.vvd" "file"
"models\weapons\oc_nerv\v_cz75.dx80.vtx" "file"
"models\weapons\oc_nerv\v_cz75.dx90.vtx" "file"
"models\weapons\oc_nerv\v_cz75.sw.vtx" "file"
"models\weapons\oc_nerv\v_glock.mdl" "file"
"models\weapons\oc_nerv\v_glock.vvd" "file"
"models\weapons\oc_nerv\v_glock.dx80.vtx" "file"
"models\weapons\oc_nerv\v_glock.dx90.vtx" "file"
"models\weapons\oc_nerv\v_glock.sw.vtx" "file"
"models\weapons\oc_nerv\v_m37.mdl" "file"
"models\weapons\oc_nerv\v_m37.vvd" "file"
"models\weapons\oc_nerv\v_m37.dx80.vtx" "file"
"models\weapons\oc_nerv\v_m37.dx90.vtx" "file"
"models\weapons\oc_nerv\v_m37.sw.vtx" "file"
"models\weapons\oc_nerv\v_nerv1911.mdl" "file"
"models\weapons\oc_nerv\v_nerv1911.vvd" "file"
"models\weapons\oc_nerv\v_nerv1911.dx80.vtx" "file"
"models\weapons\oc_nerv\v_nerv1911.dx90.vtx" "file"
"models\weapons\oc_nerv\v_nerv1911.sw.vtx" "file"
"models\weapons\oc_nerv\w_cz75.mdl" "file"
"models\weapons\oc_nerv\W_cz75.phy" "file"
"models\weapons\oc_nerv\w_cz75.vvd" "file"
"models\weapons\oc_nerv\W_cz75.dx80.vtx" "file"
"models\weapons\oc_nerv\W_cz75.dx90.vtx" "file"
"models\weapons\oc_nerv\W_cz75.sw.vtx" "file"
"models\weapons\oc_nerv\w_glock.mdl" "file"
"models\weapons\oc_nerv\W_glock.phy" "file"
"models\weapons\oc_nerv\w_glock.vvd" "file"
"models\weapons\oc_nerv\W_glock.dx80.vtx" "file"
"models\weapons\oc_nerv\W_glock.dx90.vtx" "file"
"models\weapons\oc_nerv\W_glock.sw.vtx" "file"
"models\weapons\oc_nerv\w_m37.mdl" "file"
"models\weapons\oc_nerv\w_m37.phy" "file"
"models\weapons\oc_nerv\w_m37.vvd" "file"
"models\weapons\oc_nerv\w_m37.dx80.vtx" "file"
"models\weapons\oc_nerv\w_m37.dx90.vtx" "file"
"models\weapons\oc_nerv\w_m37.sw.vtx" "file"
"models\weapons\oc_nerv\w_nerv1911.mdl" "file"
"models\weapons\oc_nerv\W_nerv1911.phy" "file"
"models\weapons\oc_nerv\w_nerv1911.vvd" "file"
"models\weapons\oc_nerv\W_nerv1911.dx80.vtx" "file"
"models\weapons\oc_nerv\W_nerv1911.dx90.vtx" "file"
"models\weapons\oc_nerv\W_nerv1911.sw.vtx" "file"
"scripts\customweapons\oc_nerv\custom_bull.txt" "file"
"scripts\customweapons\oc_nerv\custom_cz75.txt" "file"
"scripts\customweapons\oc_nerv\custom_g36c.txt" "file"
"scripts\customweapons\oc_nerv\custom_glock.txt" "file"
"scripts\customweapons\oc_nerv\custom_M37.txt" "file"
"scripts\customweapons\oc_nerv\custom_nerv1911.txt" "file"
"scripts\customweapons\oc_nerv\custom_uzi.txt" "file"
"sound\maps\oc_nerv\nerv\Butterfly_Tea_-_Ultimate_Action_V2.mp3" "file"
"sound\maps\oc_nerv\nerv\Celestial_Aeon_Project_-_Hold_the_Line.mp3" "file"
"sound\maps\oc_nerv\nerv\Dies_Irae.mp3" "file"
"sound\maps\oc_nerv\nerv\JCRZ_-_The_Dice_Game.mp3" "file"
"sound\maps\oc_nerv\nerv\Macroform_-_I_m_Still_Here.mp3" "file"
"sound\maps\oc_nerv\nerv\MG-Rizzello_-_Mysterious_Orchestra.mp3" "file"
"sound\maps\oc_nerv\nerv\Oleg_Serkov_-_Thanx.mp3" "file"
"sound\maps\oc_nerv\nerv\Piergiorgio_Lucidi_-_Point_Of_Exit.mp3" "file"
"sound\maps\oc_nerv\nerv\T-Byrd_-_Loop9__in_Haste_2011.wav" "file"
"sound\maps\oc_nerv\nerv\T-Byrd_-_Phase10__Spiral.wav" "file"
"sound\maps\oc_nerv\nerv\Vo_S1.mp3" "file"
"sound\maps\oc_nerv\nerv\Vo_S2.mp3" "file"
"sound\maps\oc_nerv\nerv\Vo_S4.mp3" "file"
"sound\maps\oc_nerv\nerv\Vo_S5.mp3" "file"
"sound\maps\oc_nerv\nerv\Vo_S6.mp3" "file"
"sound\maps\oc_nerv\nerv\Vo_S7.mp3" "file"
"sound\maps\oc_nerv\nerv\Vo_S8.mp3" "file"
"sound\maps\oc_nerv\nerv\Vo_S9.mp3" "file"
"sound\maps\oc_nerv\nerv\Vo_S10.mp3" "file"
"sound\maps\oc_nerv\nerv\Vo_S11.mp3" "file"
"sound\maps\oc_nerv\nerv\Vo_S12.mp3" "file"
"sound\maps\oc_nerv\nerv\Vo_S15.mp3" "file"
"sound\maps\oc_nerv\nerv\Vo_S16.mp3" "file"
"sound\maps\oc_nerv\nerv\Vo_S17.mp3" "file"
"sound\maps\oc_nerv\nerv\Vo_S18.mp3" "file"
"sound\music\oc_nerv\Sung_Eun_Choi_-_Bach_Air_on_the_G_string.mp3" "file"
"sound\weapons\oc_nerv\1911\pistol_fire2.wav" "file"
"sound\weapons\oc_nerv\1911\pistol_reload1.wav" "file"
"sound\weapons\oc_nerv\cz75\pistol_fire3.wav" "file"
"sound\weapons\oc_nerv\glock\Shoot-1.wav" "file"
}
