"resources"
{
"materials\cncr04s\metal\blackhull1.vtf" "file"
"materials\cncr04s\metal\castiron.vtf" "file"
"materials\cncr04s\metal\deckgrate_set1b.vtf" "file"
"materials\cncr04s\metal\ironwall1.vtf" "file"
"materials\cncr04s\metalpanel\bz_e_14shipbase_01.vtf" "file"
"materials\cncr04s\metalpanel\bz_e_14shipintwall2tonebase.vtf" "file"
"materials\cncr04s\metalpanel\electricbox1a.vtf" "file"
"materials\cncr04s\slime\canal_sludge.vtf" "file"
"materials\cncr04sp2\metal\a_reactorfloor2_1b_fin.vtf" "file"
"materials\cncr04sp2\metal\diamond05.vtf" "file"
"materials\cncr04sp2\metal\diamond05_d.vtf" "file"
"materials\cncr04sp2\metal\diamond05rust_d.vtf" "file"
"materials\cncr04sp2\metal\lfwall3a.vtf" "file"
"materials\cncr04sp2\metal\sflcgateceiling1_d.vtf" "file"
"materials\cncr04sp2\metal\smdoor1b.vtf" "file"
"materials\cncr04sp2\metal\steel_d.vtf" "file"
"materials\cncr04sp3\concretetypes\acdoor5base1.vtf" "file"
"materials\cncr04sp3\concretetypes\d3door1.vtf" "file"
"materials\cncr04sp3\concretetypes\dsceil3.vtf" "file"
"materials\cncr04sp3\metal\asdoor6.vtf" "file"
"materials\cncr04sp3\metal\aswall3-base.vtf" "file"
"materials\cncr04sp3\metal\aswall3-dirty.vtf" "file"
"materials\cncr04sp3\metal\aswallbroken1.vtf" "file"
"materials\cncr04sp3\metal\d2_steelwall_01.vtf" "file"
"materials\cncr04sp3\metal\d3_steelwall_01a.vtf" "file"
"materials\cncr04sp3\metal\diamond-grate01.vtf" "file"
"materials\cncr04sp3\metal\diamond-step01.vtf" "file"
"materials\cncr04sp3\metal\edoor2.vtf" "file"
"materials\cncr04sp3\metal\fcargob1.vtf" "file"
"materials\cncr04sp3\metal\fcargob2.vtf" "file"
"materials\cncr04sp3\metal\fcargobase2.vtf" "file"
"materials\cncr04sp3\metal\kwallbase1.vtf" "file"
"materials\cncr04sp3\metal\romvent2.vtf" "file"
"materials\CUSTOM\colo_arial_white.vtf" "file"
"materials\CUSTOM\digits_arial_white_narrow.vtf" "file"
"materials\gm_puzzler\Arrow.vtf" "file"
"materials\gm_puzzler\Begin.vtf" "file"
"materials\gm_puzzler\Caramelldansen.vtf" "file"
"materials\gm_puzzler\Challenge1.vtf" "file"
"materials\gm_puzzler\Challenge2.vtf" "file"
"materials\gm_puzzler\Challenge3.vtf" "file"
"materials\gm_puzzler\DeadEnd.vtf" "file"
"materials\gm_puzzler\Interface - Door 1.vtf" "file"
"materials\gm_puzzler\Interface - Engage 1.vtf" "file"
"materials\gm_puzzler\MusicControls.vtf" "file"
"materials\gm_puzzler\P2_Tut_Dataports.vtf" "file"
"materials\gm_puzzler\P2_Tut_Final.vtf" "file"
"materials\gm_puzzler\P2_Tut_Firewalls.vtf" "file"
"materials\gm_puzzler\P2_Tut_Lasers.vtf" "file"
"materials\gm_puzzler\P2_Tut_Onerule.vtf" "file"
"materials\gm_puzzler\P2_Tut_Puzzlepieces.vtf" "file"
"materials\gm_puzzler\P2_Tut_Puzzlepieces.vtf" "file"
"materials\gm_puzzler\P2_Tut_Upgrades.vtf" "file"
"materials\gm_puzzler\P2_Tut_Viewers.vtf" "file"
"materials\gm_puzzler\Part2.vtf" "file"
"materials\gm_puzzler\Part2congrats.vtf" "file"
"materials\gm_puzzler\Part2credits.vtf" "file"
"materials\gm_puzzler\Part2Hub0.vtf" "file"
"materials\gm_puzzler\Part2Hub3.vtf" "file"
"materials\gm_puzzler\Part2Hub4.vtf" "file"
"materials\gm_puzzler\Part2Hub4R.vtf" "file"
"materials\gm_puzzler\Part2Hub5.vtf" "file"
"materials\gm_puzzler\Part2Thanks.vtf" "file"
"materials\gm_puzzler\Pink1.vtf" "file"
"materials\gm_puzzler\Pink2.vtf" "file"
"materials\gm_puzzler\Pink3.vtf" "file"
"materials\gm_puzzler\Pink4.vtf" "file"
"materials\gm_puzzler\Stop.vtf" "file"
"materials\gm_puzzler\Tut_Teleports.vtf" "file"
"materials\gm_puzzler\Tutorial.vtf" "file"
"materials\gm_puzzler\Wrongway.vtf" "file"
"materials\refract\refractglass008.vtf" "file"
"materials\refract\refractglass012.vtf" "file"
"materials\rp_planetfall\Panelwall1_b.vtf" "file"
"materials\scrapteam\cyber-datasteam.vtf" "file"
"materials\scrapteam\cyber-squareblue.vtf" "file"
"materials\scrapteam\cyber-squarebrown.vtf" "file"
"materials\scrapteam\cyber-squarepurple.vtf" "file"
"materials\scrapteam\cyber-squareredblue.vtf" "file"
"materials\models\props_pf\pf_cargobox_teapot.vtf" "file"
"materials\models\props_pf\pf_cargobox_teapot_normal.vtf" "file"
"materials\models\props_pf\comps\aswall3-base.vtf" "file"
"materials\models\props_pf\comps\aswall3-base_normal.vtf" "file"
"materials\models\props_pf\comps\castiron.vtf" "file"
"materials\models\props_pf\comps\castiron_normal.vtf" "file"
"materials\models\props_pf\comps\ironwall1.vtf" "file"
"materials\models\props_pf\comps\ironwall1_normal.vtf" "file"
"materials\models\props_pf\comps\steel_d.vtf" "file"
"materials\models\props_pf\comps\steel_d_normal.vtf" "file"
"materials\Shadowsand\GroundWar\castironedit.vtf" "file"
"materials\cncr04s\metal\blackhull1.vmt" "file"
"materials\cncr04s\metal\castiron.vmt" "file"
"materials\cncr04s\metal\deckgrate_set1b.vmt" "file"
"materials\cncr04s\metal\ironwall1.vmt" "file"
"materials\cncr04s\metalpanel\bz_e_14shipbase_01.vmt" "file"
"materials\cncr04s\metalpanel\bz_e_14shipintwall2tonebase.vmt" "file"
"materials\cncr04s\metalpanel\electricbox1a.vmt" "file"
"materials\cncr04s\slime\canal_sludge.vmt" "file"
"materials\cncr04sp2\metal\a_reactorfloor2_1b_fin.vmt" "file"
"materials\cncr04sp2\metal\diamond05.vmt" "file"
"materials\cncr04sp2\metal\diamond05_d.vmt" "file"
"materials\cncr04sp2\metal\diamond05rust_d.vmt" "file"
"materials\cncr04sp2\metal\lfwall3a.vmt" "file"
"materials\cncr04sp2\metal\sflcgateceiling1_d.vmt" "file"
"materials\cncr04sp2\metal\smdoor1b.vmt" "file"
"materials\cncr04sp2\metal\steel_d.vmt" "file"
"materials\cncr04sp3\concretetypes\acdoor5base1.vmt" "file"
"materials\cncr04sp3\concretetypes\d3door1.vmt" "file"
"materials\cncr04sp3\concretetypes\dsceil3.vmt" "file"
"materials\cncr04sp3\metal\asdoor6.vmt" "file"
"materials\cncr04sp3\metal\aswall3-base.vmt" "file"
"materials\cncr04sp3\metal\aswall3-dirty.vmt" "file"
"materials\cncr04sp3\metal\aswallbroken1.vmt" "file"
"materials\cncr04sp3\metal\d2_steelwall_01.vmt" "file"
"materials\cncr04sp3\metal\d3_steelwall_01a.vmt" "file"
"materials\cncr04sp3\metal\diamond-grate01.vmt" "file"
"materials\cncr04sp3\metal\diamond-step01.vmt" "file"
"materials\cncr04sp3\metal\edoor2.vmt" "file"
"materials\cncr04sp3\metal\fcargob1.vmt" "file"
"materials\cncr04sp3\metal\fcargob2.vmt" "file"
"materials\cncr04sp3\metal\fcargobase2.vmt" "file"
"materials\cncr04sp3\metal\kwallbase1.vmt" "file"
"materials\cncr04sp3\metal\romvent2.vmt" "file"
"materials\CUSTOM\colon_arial_white.vmt" "file"
"materials\CUSTOM\digits_arial_hud_white.vmt" "file"
"materials\gm_puzzler\Arrow.vmt" "file"
"materials\gm_puzzler\Begin.vmt" "file"
"materials\gm_puzzler\Caramelldansen.vmt" "file"
"materials\gm_puzzler\Challenge1.vmt" "file"
"materials\gm_puzzler\Challenge2.vmt" "file"
"materials\gm_puzzler\Challenge3.vmt" "file"
"materials\gm_puzzler\DeadEnd.vmt" "file"
"materials\gm_puzzler\Interface - Door 1.vmt" "file"
"materials\gm_puzzler\Interface - Engage 1.vmt" "file"
"materials\gm_puzzler\MusicControls.vmt" "file"
"materials\gm_puzzler\P2_Tut_Dataports.vmt" "file"
"materials\gm_puzzler\P2_Tut_Final.vmt" "file"
"materials\gm_puzzler\P2_Tut_Firewalls.vmt" "file"
"materials\gm_puzzler\P2_Tut_Lasers.vmt" "file"
"materials\gm_puzzler\P2_Tut_Onerule.vmt" "file"
"materials\gm_puzzler\P2_Tut_PuzzlePieces.vmt" "file"
"materials\gm_puzzler\P2_Tut_PuzzlePieces.vmt" "file"
"materials\gm_puzzler\P2_Tut_Upgrades.vmt" "file"
"materials\gm_puzzler\P2_Tut_Viewers.vmt" "file"
"materials\gm_puzzler\Part2.vmt" "file"
"materials\gm_puzzler\Part2Congrats.vmt" "file"
"materials\gm_puzzler\Part2Credits.vmt" "file"
"materials\gm_puzzler\Part2Hub0.vmt" "file"
"materials\gm_puzzler\Part2Hub3.vmt" "file"
"materials\gm_puzzler\Part2Hub4.vmt" "file"
"materials\gm_puzzler\Part2Hub4r.vmt" "file"
"materials\gm_puzzler\Part2Hub5.vmt" "file"
"materials\gm_puzzler\Part2Thanks.vmt" "file"
"materials\gm_puzzler\Pink1.vmt" "file"
"materials\gm_puzzler\Pink2.vmt" "file"
"materials\gm_puzzler\Pink3.vmt" "file"
"materials\gm_puzzler\Pink4.vmt" "file"
"materials\gm_puzzler\Stop.vmt" "file"
"materials\gm_puzzler\Tut_Teleports.vmt" "file"
"materials\gm_puzzler\Tutorial.vmt" "file"
"materials\gm_puzzler\Wrongway.vmt" "file"
"materials\refract\refractglass008.vmt" "file"
"materials\refract\refractglass012.vmt" "file"
"materials\rp_planetfall\panelwall1_b.vmt" "file"
"materials\scrapteam\cyber-datasteam.vmt" "file"
"materials\scrapteam\cyber-squareblue.vmt" "file"
"materials\scrapteam\cyber-squarebrown.vmt" "file"
"materials\scrapteam\cyber-squarepurple.vmt" "file"
"materials\scrapteam\cyber-squareredblue.vmt" "file"
"materials\Shadowsand\GroundWar\castironedit.vmt" "file"
"materials\models\props_pf\pf_cargobox_teapot.vmt" "file"
"materials\models\props_pf\comps\aswall3-base.vmt" "file"
"materials\models\props_pf\comps\castiron.vmt" "file"
"materials\models\props_pf\comps\ironwall1.vmt" "file"
"materials\models\props_pf\comps\steel_d.vmt" "file"
"materials\models\props_shadowsand\puzzler\H3_CPP\castironedit.vmt" "file"
"materials\models\props_shadowsand\puzzler\H3_CPP\d2_steelwall_01.vmt" "file"
"materials\models\props_shadowsand\puzzler\H3_CPP\fcargob2.vmt" "file"
"materials\models\props_shadowsand\puzzler\H3_CPP\ironwall1.vmt" "file"
"materials\models\props_shadowsand\puzzler\H3_CPP\steel_d.vmt" "file"
"sound\gm_puzzler\Part2\begin.wav" "file"
"sound\gm_puzzler\Part2\tut_enter.wav" "file"
"sound\gm_puzzler\Part2\Music\automatic.wav" "file"
"sound\gm_puzzler\Part2\Music\born.wav" "file"
"sound\gm_puzzler\Part2\Music\break.wav" "file"
"sound\gm_puzzler\Part2\Music\caramel.wav" "file"
"sound\gm_puzzler\Part2\Music\jump.wav" "file"
"sound\gm_puzzler\Part2\Music\matinee.wav" "file"
"sound\gm_puzzler\Part2\Music\portal.wav" "file"
"models\props_pf\comps\tele.dx80.vtx" "file"
"models\props_pf\comps\tele.dx90.vtx" "file"
"models\props_pf\comps\tele.mdl" "file"
"models\props_pf\comps\tele.phy" "file"
"models\props_pf\comps\tele.sw.vtx" "file"
"models\props_pf\comps\tele.vvd" "file"
"models\props_pf\cargoboxes\box_teapot.dx80.vtx" "file"
"models\props_pf\cargoboxes\box_teapot.dx90.vtx" "file"
"models\props_pf\cargoboxes\box_teapot.mdl" "file"
"models\props_pf\cargoboxes\box_teapot.phy" "file"
"models\props_pf\cargoboxes\box_teapot.sw.vtx" "file"
"models\props_pf\cargoboxes\box_teapot.vvd" "file"
"models\props_shadowsand\puzzler\H3_CPP.dx80.vtx" "file"
"models\props_shadowsand\puzzler\H3_CPP.dx90.vtx" "file"
"models\props_shadowsand\puzzler\h3_cpp.mdl" "file"
"models\props_shadowsand\puzzler\H3_CPP.phy" "file"
"models\props_shadowsand\puzzler\H3_CPP.sw.vtx" "file"
"models\props_shadowsand\puzzler\h3_cpp.vvd" "file"
"maps\oc_puzzler_part2.res" "file"
}
