"resources"
{
"materials\cncr04s\metal\blackhull1.vtf" "file"
"materials\cncr04s\metal\castiron.vtf" "file"
"materials\cncr04s\metal\deckgrate_set1b.vtf" "file"
"materials\cncr04s\metal\ironwall1.vtf" "file"
"materials\cncr04s\metal\jhpipe1.vtf" "file"
"materials\cncr04s\metal\shmpipe_grey.vtf" "file"
"materials\cncr04s\metalpanel\bnkrpipe1_iron.vtf" "file"
"materials\cncr04s\metalpanel\bnkrpipe1_red.vtf" "file"
"materials\cncr04s\metalpanel\bz_e_14shipbase_01.vtf" "file"
"materials\cncr04s\metalpanel\bz_e_14shipintwall2tonebase.vtf" "file"
"materials\cncr04sp2\metal\a_reactorfloor2_1b_fin.vtf" "file"
"materials\cncr04sp2\metal\a_reactorpipe_b01_fin.vtf" "file"
"materials\cncr04sp2\metal\a_sfltrim3yel_b03b.vtf" "file"
"materials\cncr04sp2\metal\diamond05.vtf" "file"
"materials\cncr04sp2\metal\diamond05_d.vtf" "file"
"materials\cncr04sp2\metal\diamond05rust_d.vtf" "file"
"materials\cncr04sp2\metal\floorvent02_d.vtf" "file"
"materials\cncr04sp2\metal\lfwall3a.vtf" "file"
"materials\cncr04sp2\metal\sflcgateceiling1_d.vtf" "file"
"materials\cncr04sp2\metal\smdoor1b.vtf" "file"
"materials\cncr04sp2\metal\steel_d.vtf" "file"
"materials\cncr04sp3\concretetypes\acdoor5base1.vtf" "file"
"materials\cncr04sp3\concretetypes\d3door1.vtf" "file"
"materials\cncr04sp3\concretetypes\wyeth-wall-tile-04.vtf" "file"
"materials\cncr04sp3\metal\asdoor4.vtf" "file"
"materials\cncr04sp3\metal\aswall3-base.vtf" "file"
"materials\cncr04sp3\metal\aswall3-dirty.vtf" "file"
"materials\cncr04sp3\metal\aswallbroken1.vtf" "file"
"materials\cncr04sp3\metal\d3_steelwall_01a.vtf" "file"
"materials\cncr04sp3\metal\d3_steelwall_01b.vtf" "file"
"materials\cncr04sp3\metal\diamond-grate01.vtf" "file"
"materials\cncr04sp3\metal\kconsole1.vtf" "file"
"materials\cncr04sp3\metal\kwallbase1.vtf" "file"
"materials\cncr04sp3\metal\kwalll1.vtf" "file"
"materials\cncr04sp3\metal\romdoor4.vtf" "file"
"materials\cncr04sp3\metal\romvent2.vtf" "file"
"materials\CUSTOM\keypad_button_1.vtf" "file"
"materials\CUSTOM\keypad_button_2.vtf" "file"
"materials\CUSTOM\keypad_button_3.vtf" "file"
"materials\gm_puzzler\2PiecePuzzle.vtf" "file"
"materials\gm_puzzler\3PiecePuzzle.vtf" "file"
"materials\gm_puzzler\Arrow.vtf" "file"
"materials\gm_puzzler\Begin.vtf" "file"
"materials\gm_puzzler\Challenge1.vtf" "file"
"materials\gm_puzzler\Challenge2.vtf" "file"
"materials\gm_puzzler\Code1.vtf" "file"
"materials\gm_puzzler\Code2.vtf" "file"
"materials\gm_puzzler\Code3.vtf" "file"
"materials\gm_puzzler\Code4.vtf" "file"
"materials\gm_puzzler\Code5.vtf" "file"
"materials\gm_puzzler\Congrats.vtf" "file"
"materials\gm_puzzler\DeadEnd.vtf" "file"
"materials\gm_puzzler\Hub0.vtf" "file"
"materials\gm_puzzler\Hub1.vtf" "file"
"materials\gm_puzzler\Hub2.vtf" "file"
"materials\gm_puzzler\Hub3.vtf" "file"
"materials\gm_puzzler\Interface - Door 1.vtf" "file"
"materials\gm_puzzler\Interface - Engage 1.vtf" "file"
"materials\gm_puzzler\Interface - Keypad 1.vtf" "file"
"materials\gm_puzzler\Interface - Keypad 2.vtf" "file"
"materials\gm_puzzler\Interface - Keypad 3.vtf" "file"
"materials\gm_puzzler\Level1.vtf" "file"
"materials\gm_puzzler\Level2.vtf" "file"
"materials\gm_puzzler\Level3.vtf" "file"
"materials\gm_puzzler\MusicControls.vtf" "file"
"materials\gm_puzzler\Part1.vtf" "file"
"materials\gm_puzzler\Part2List.vtf" "file"
"materials\gm_puzzler\SecretPart2.vtf" "file"
"materials\gm_puzzler\Stop.vtf" "file"
"materials\gm_puzzler\TimeRemaining.vtf" "file"
"materials\gm_puzzler\TunnelSystem.vtf" "file"
"materials\gm_puzzler\Tut_Console1Overlay.vtf" "file"
"materials\gm_puzzler\Tut_Cyber_Buttons.vtf" "file"
"materials\gm_puzzler\Tut_Cyber_Doors.vtf" "file"
"materials\gm_puzzler\Tut_Cyber_Fields.vtf" "file"
"materials\gm_puzzler\Tut_Cyber_Interest.vtf" "file"
"materials\gm_puzzler\Tut_Cyber_ROT.vtf" "file"
"materials\gm_puzzler\Tut_Cyberspace.vtf" "file"
"materials\gm_puzzler\Tut_DoorCtrls.vtf" "file"
"materials\gm_puzzler\Tut_ForceFields.vtf" "file"
"materials\gm_puzzler\Tut_Holograms.vtf" "file"
"materials\gm_puzzler\Tut_Lasers.vtf" "file"
"materials\gm_puzzler\Tut_Teleports.vtf" "file"
"materials\gm_puzzler\Tut_WindTunnels.vtf" "file"
"materials\gm_puzzler\Tutorial.vtf" "file"
"materials\gm_puzzler\Warning.vtf" "file"
"materials\gm_puzzler\Wrongway.vtf" "file"
"materials\halflife\white.vtf" "file"
"materials\inf_cerberus\ArrowLft.vtf" "file"
"materials\inf_cerberus\ArrowSquare.vtf" "file"
"materials\inf_cerberus\Lock.vtf" "file"
"materials\refract\refractglass007.vtf" "file"
"materials\refract\refractglass008.vtf" "file"
"materials\refract\refractglass012.vtf" "file"
"materials\rp_planetfall\Console_Active.vtf" "file"
"materials\rp_planetfall\Console_Offline.vtf" "file"
"materials\scrapteam\cyber-datasteam.vtf" "file"
"materials\scrapteam\cyber-squareblue.vtf" "file"
"materials\scrapteam\cyber-squarebrown.vtf" "file"
"materials\scrapteam\cyber-squarepurple.vtf" "file"
"materials\scrapteam\cyber-squareredblue.vtf" "file"
"materials\models\props_pf\pf_cargobox_teapot.vtf" "file"
"materials\models\props_pf\pf_cargobox_teapot_normal.vtf" "file"
"materials\cncr04s\metal\blackhull1.vmt" "file"
"materials\cncr04s\metal\castiron.vmt" "file"
"materials\cncr04s\metal\deckgrate_set1b.vmt" "file"
"materials\cncr04s\metal\ironwall1.vmt" "file"
"materials\cncr04s\metal\jhpipe1.vmt" "file"
"materials\cncr04s\metal\shmpipe_grey.vmt" "file"
"materials\cncr04s\metalpanel\bnkrpipe1_iron.vmt" "file"
"materials\cncr04s\metalpanel\bnkrpipe1_red.vmt" "file"
"materials\cncr04s\metalpanel\bz_e_14shipbase_01.vmt" "file"
"materials\cncr04s\metalpanel\bz_e_14shipintwall2tonebase.vmt" "file"
"materials\cncr04sp2\metal\a_reactorfloor2_1b_fin.vmt" "file"
"materials\cncr04sp2\metal\a_reactorpipe_b01_fin.vmt" "file"
"materials\cncr04sp2\metal\a_sfltrim3yel_b03b.vmt" "file"
"materials\cncr04sp2\metal\diamond05.vmt" "file"
"materials\cncr04sp2\metal\diamond05_d.vmt" "file"
"materials\cncr04sp2\metal\diamond05rust_d.vmt" "file"
"materials\cncr04sp2\metal\floorvent02_d.vmt" "file"
"materials\cncr04sp2\metal\lfwall3a.vmt" "file"
"materials\cncr04sp2\metal\sflcgateceiling1_d.vmt" "file"
"materials\cncr04sp2\metal\smdoor1b.vmt" "file"
"materials\cncr04sp2\metal\steel_d.vmt" "file"
"materials\cncr04sp3\concretetypes\acdoor5base1.vmt" "file"
"materials\cncr04sp3\concretetypes\d3door1.vmt" "file"
"materials\cncr04sp3\concretetypes\wyeth-wall-tile-04.vmt" "file"
"materials\cncr04sp3\metal\asdoor4.vmt" "file"
"materials\cncr04sp3\metal\aswall3-base.vmt" "file"
"materials\cncr04sp3\metal\aswall3-dirty.vmt" "file"
"materials\cncr04sp3\metal\aswallbroken1.vmt" "file"
"materials\cncr04sp3\metal\d3_steelwall_01a.vmt" "file"
"materials\cncr04sp3\metal\d3_steelwall_01b.vmt" "file"
"materials\cncr04sp3\metal\diamond-grate01.vmt" "file"
"materials\cncr04sp3\metal\kconsole1.vmt" "file"
"materials\cncr04sp3\metal\kwallbase1.vmt" "file"
"materials\cncr04sp3\metal\kwalll1.vmt" "file"
"materials\cncr04sp3\metal\romdoor4.vmt" "file"
"materials\cncr04sp3\metal\romvent2.vmt" "file"
"materials\CUSTOM\keypad_button_1.vmt" "file"
"materials\CUSTOM\keypad_button_2.vmt" "file"
"materials\CUSTOM\keypad_button_3.vmt" "file"
"materials\gm_puzzler\2PiecePuzzle.vmt" "file"
"materials\gm_puzzler\3PiecePuzzle.vmt" "file"
"materials\gm_puzzler\Arrow.vmt" "file"
"materials\gm_puzzler\Begin.vmt" "file"
"materials\gm_puzzler\Challenge1.vmt" "file"
"materials\gm_puzzler\Challenge2.vmt" "file"
"materials\gm_puzzler\Code1.vmt" "file"
"materials\gm_puzzler\Code2.vmt" "file"
"materials\gm_puzzler\Code3.vmt" "file"
"materials\gm_puzzler\Code4.vmt" "file"
"materials\gm_puzzler\Code5.vmt" "file"
"materials\gm_puzzler\Congrats.vmt" "file"
"materials\gm_puzzler\DeadEnd.vmt" "file"
"materials\gm_puzzler\Hub0.vmt" "file"
"materials\gm_puzzler\Hub1.vmt" "file"
"materials\gm_puzzler\Hub2.vmt" "file"
"materials\gm_puzzler\Hub3.vmt" "file"
"materials\gm_puzzler\Interface - Door 1.vmt" "file"
"materials\gm_puzzler\Interface - Engage 1.vmt" "file"
"materials\gm_puzzler\Interface - Keypad 1.vmt" "file"
"materials\gm_puzzler\Interface - Keypad 2.vmt" "file"
"materials\gm_puzzler\Interface - Keypad 3.vmt" "file"
"materials\gm_puzzler\Level1.vmt" "file"
"materials\gm_puzzler\Level2.vmt" "file"
"materials\gm_puzzler\Level3.vmt" "file"
"materials\gm_puzzler\MusicControls.vmt" "file"
"materials\gm_puzzler\Part1.vmt" "file"
"materials\gm_puzzler\Part2List.vmt" "file"
"materials\gm_puzzler\SecretPart2.vmt" "file"
"materials\gm_puzzler\Stop.vmt" "file"
"materials\gm_puzzler\TimeRemaining.vmt" "file"
"materials\gm_puzzler\TunnelSystem.vmt" "file"
"materials\gm_puzzler\Tut_Console1Overlay.vmt" "file"
"materials\gm_puzzler\Tut_Cyber_Buttons.vmt" "file"
"materials\gm_puzzler\Tut_Cyber_Doors.vmt" "file"
"materials\gm_puzzler\Tut_Cyber_Fields.vmt" "file"
"materials\gm_puzzler\Tut_Cyber_Interest.vmt" "file"
"materials\gm_puzzler\Tut_Cyber_ROT.vmt" "file"
"materials\gm_puzzler\Tut_Cyberspace.vmt" "file"
"materials\gm_puzzler\Tut_DoorCtrls.vmt" "file"
"materials\gm_puzzler\Tut_ForceFields.vmt" "file"
"materials\gm_puzzler\Tut_Holograms.vmt" "file"
"materials\gm_puzzler\Tut_Lasers.vmt" "file"
"materials\gm_puzzler\Tut_Teleports.vmt" "file"
"materials\gm_puzzler\Tut_WindTunnels.vmt" "file"
"materials\gm_puzzler\Tutorial.vmt" "file"
"materials\gm_puzzler\Warning.vmt" "file"
"materials\gm_puzzler\Wrongway.vmt" "file"
"materials\halflife\white.vmt" "file"
"materials\inf_cerberus\arrowlft.vmt" "file"
"materials\inf_cerberus\arrowsquare.vmt" "file"
"materials\inf_cerberus\lock.vmt" "file"
"materials\refract\refractglass007.vmt" "file"
"materials\refract\refractglass008.vmt" "file"
"materials\refract\refractglass012.vmt" "file"
"materials\rp_planetfall\Console_Active.vmt" "file"
"materials\rp_planetfall\Console_Offline.vmt" "file"
"materials\scrapteam\cyber-datasteam.vmt" "file"
"materials\scrapteam\cyber-squareblue.vmt" "file"
"materials\scrapteam\cyber-squarebrown.vmt" "file"
"materials\scrapteam\cyber-squarepurple.vmt" "file"
"materials\scrapteam\cyber-squareredblue.vmt" "file"
"materials\models\props_pf\pf_cargobox_teapot.vmt" "file"
"sound\gm_puzzler\Begin.wav" "file"
"sound\gm_puzzler\Hub0.wav" "file"
"sound\gm_puzzler\Hub1.wav" "file"
"sound\gm_puzzler\Hub2.wav" "file"
"sound\gm_puzzler\Hub3.wav" "file"
"sound\gm_puzzler\SecActivated.wav" "file"
"sound\gm_puzzler\SecActivated2.wav" "file"
"sound\gm_puzzler\Terminate.wav" "file"
"sound\gm_puzzler\Tut_Console.wav" "file"
"sound\gm_puzzler\Tut_Continue.wav" "file"
"sound\gm_puzzler\Tut_Cyber1.wav" "file"
"sound\gm_puzzler\Tut_Cyber2.wav" "file"
"sound\gm_puzzler\Tut_Cyber3.wav" "file"
"sound\gm_puzzler\Tut_Cyber4.wav" "file"
"sound\gm_puzzler\Tut_Cyber_2Players.wav" "file"
"sound\gm_puzzler\Tut_Final1.wav" "file"
"sound\gm_puzzler\Tut_Final2.wav" "file"
"sound\gm_puzzler\Tut_Start.wav" "file"
"sound\gm_puzzler\Tut_Welcome.wav" "file"
"sound\gm_puzzler\TEMP\canttouch.wav" "file"
"sound\gm_puzzler\TEMP\janloop.wav" "file"
"sound\gm_puzzler\TEMP\kirk.wav" "file"
"sound\gm_puzzler\TEMP\melo116m.wav" "file"
"sound\gm_puzzler\TEMP\nomble.wav" "file"
"sound\gm_puzzler\TEMP\picard.wav" "file"
"models\props_pf\cargoboxes\box_teapot.dx80.vtx" "file"
"models\props_pf\cargoboxes\box_teapot.dx90.vtx" "file"
"models\props_pf\cargoboxes\box_teapot.mdl" "file"
"models\props_pf\cargoboxes\box_teapot.phy" "file"
"models\props_pf\cargoboxes\box_teapot.sw.vtx" "file"
"models\props_pf\cargoboxes\box_teapot.vvd" "file"
"maps\oc_puzzler_part1.res" "file"
}
