"resources"
{
"materials\cncr04s\metal\blackhull1.vtf" "file"
"materials\cncr04s\metal\castiron.vtf" "file"
"materials\cncr04s\metal\deckgrate_set1b.vtf" "file"
"materials\cncr04s\metal\ironwall1.vtf" "file"
"materials\cncr04s\metalpanel\bz_e_14shipbase_01.vtf" "file"
"materials\cncr04s\metalpanel\bz_e_14shipintwall2tonebase.vtf" "file"
"materials\cncr04s\metalpanel\electricbox1a.vtf" "file"
"materials\cncr04s\slime\canal_sludge.vtf" "file"
"materials\cncr04sp2\concretetypes\recycfloor1_s1_fin.vtf" "file"
"materials\cncr04sp2\concretetypes\hose01_s.vtf" "file"
"materials\cncr04sp2\metal\a_reactorfloor2_1b_fin.vtf" "file"
"materials\cncr04sp2\metal\diamond05.vtf" "file"
"materials\cncr04sp2\metal\diamond05_d.vtf" "file"
"materials\cncr04sp2\metal\diamond05rust_d.vtf" "file"
"materials\cncr04sp2\metal\ghotile3.vtf" "file"
"materials\cncr04sp2\metal\ghotile3a_d.vtf" "file"
"materials\cncr04sp2\metal\lfwall3a.vtf" "file"
"materials\cncr04sp2\metal\sflcgateceiling1_d.vtf" "file"
"materials\cncr04sp2\metal\smdoor1b.vtf" "file"
"materials\cncr04sp2\metal\steel_d.vtf" "file"
"materials\cncr04sp3\concretetypes\acdoor5base1.vtf" "file"
"materials\cncr04sp3\concretetypes\d3door1.vtf" "file"
"materials\cncr04sp3\concretetypes\dsceil3.vtf" "file"
"materials\cncr04sp3\metal\asbase4.vtf" "file"
"materials\cncr04sp3\metal\asdoor6.vtf" "file"
"materials\cncr04sp3\metal\aswall3-base.vtf" "file"
"materials\cncr04sp3\metal\aswall3-dirty.vtf" "file"
"materials\cncr04sp3\metal\aswallbroken1.vtf" "file"
"materials\cncr04sp3\metal\d2_steelwall_01.vtf" "file"
"materials\cncr04sp3\metal\d3floor13.vtf" "file"
"materials\cncr04sp3\metal\d3_metalplates_02c.vtf" "file"
"materials\cncr04sp3\metal\d3_steelwall_01a.vtf" "file"
"materials\cncr04sp3\metal\diamond-grate01.vtf" "file"
"materials\cncr04sp3\metal\diamond-step01.vtf" "file"
"materials\cncr04sp3\metal\edoor2.vtf" "file"
"materials\cncr04sp3\metal\ent_met2.vtf" "file"
"materials\cncr04sp3\metal\ent_met6.vtf" "file"
"materials\cncr04sp3\metal\fcargob1.vtf" "file"
"materials\cncr04sp3\metal\fcargob2.vtf" "file"
"materials\cncr04sp3\metal\fcargobase1.vtf" "file"
"materials\cncr04sp3\metal\fcargobase2.vtf" "file"
"materials\cncr04sp3\metal\k_base1.vtf" "file"
"materials\cncr04sp3\metal\k7_base5.vtf" "file"
"materials\cncr04sp3\metal\kwall4.vtf" "file"
"materials\cncr04sp3\metal\kwall2.vtf" "file"
"materials\cncr04sp3\metal\kwallbase1.vtf" "file"
"materials\cncr04sp3\metal\romvent2.vtf" "file"
"materials\cncr04sp3\metal\romdoor3.vtf" "file"
"materials\CUSTOM\colo_arial_white.vtf" "file"
"materials\CUSTOM\digits_arial_white_narrow.vtf" "file"
"materials\gm_puzzler\Arrow.vtf" "file"
"materials\gm_puzzler\Begin.vtf" "file"
"materials\gm_puzzler\Challenge1.vtf" "file"
"materials\gm_puzzler\Challenge2.vtf" "file"
"materials\gm_puzzler\Challenge3.vtf" "file"
"materials\gm_puzzler\DeadEnd.vtf" "file"
"materials\gm_puzzler\Interface - Door 1.vtf" "file"
"materials\gm_puzzler\Interface - Engage 1.vtf" "file"
"materials\gm_puzzler\MusicControls.vtf" "file"
"materials\gm_puzzler\Pink1.vtf" "file"
"materials\gm_puzzler\Pink2.vtf" "file"
"materials\gm_puzzler\Pink3.vtf" "file"
"materials\gm_puzzler\Pink4.vtf" "file"
"materials\gm_puzzler\Stop.vtf" "file"
"materials\gm_puzzler\Tutorial.vtf" "file"
"materials\gm_puzzler\Wrongway.vtf" "file"
"materials\refract\refractglass008.vtf" "file"
"materials\refract\refractglass012.vtf" "file"
"materials\rp_planetfall\Panelwall1_b.vtf" "file"
"materials\scrapteam\cyber-datasteam.vtf" "file"
"materials\scrapteam\cyber-squareblue.vtf" "file"
"materials\scrapteam\cyber-squarebrown.vtf" "file"
"materials\scrapteam\cyber-squarepurple.vtf" "file"
"materials\scrapteam\cyber-squareredblue.vtf" "file"
"materials\models\props_pf\pf_cargobox_teapot.vtf" "file"
"materials\models\props_pf\pf_cargobox_teapot_normal.vtf" "file"
"materials\models\props_pf\comps\aswall3-base.vtf" "file"
"materials\models\props_pf\comps\aswall3-base_normal.vtf" "file"
"materials\models\props_pf\comps\castiron.vtf" "file"
"materials\models\props_pf\comps\castiron_normal.vtf" "file"
"materials\models\props_pf\comps\ironwall1.vtf" "file"
"materials\models\props_pf\comps\ironwall1_normal.vtf" "file"
"materials\models\props_pf\comps\steel_d.vtf" "file"
"materials\models\props_pf\comps\steel_d_normal.vtf" "file"
"materials\Shadowsand\GroundWar\castironedit.vtf" "file"
"materials\Shadowsand\Puzzler\1.vtf" "file"
"materials\Shadowsand\Puzzler\2.vtf" "file"
"materials\Shadowsand\Puzzler\3.vtf" "file"
"materials\Shadowsand\Puzzler\4.vtf" "file"
"materials\Shadowsand\Puzzler\5.vtf" "file"
"materials\Shadowsand\Puzzler\6.vtf" "file"
"materials\Shadowsand\Puzzler\7.vtf" "file"
"materials\Shadowsand\Puzzler\8.vtf" "file"
"materials\Shadowsand\Puzzler\9.vtf" "file"
"materials\Shadowsand\Puzzler\15.vtf" "file"
"materials\Shadowsand\Puzzler\diamond-grate01_PZ.vtf" "file"
"materials\Shadowsand\Puzzler\diamond-grate01_PZ2.vtf" "file"
"materials\Shadowsand\Puzzler\Flash.vtf" "file"
"materials\Shadowsand\Puzzler\lfwall3a_PZ.vtf" "file"
"materials\Shadowsand\Puzzler\MapChange.vtf" "file"
"materials\Shadowsand\Puzzler\Oc_Lobby.vtf" "file"
"materials\Shadowsand\Puzzler\Part_3.vtf" "file"
"materials\Shadowsand\Puzzler\Part3.vtf" "file"
"materials\Shadowsand\Puzzler\Part3Credits.vtf" "file"
"materials\Shadowsand\Puzzler\Part3Final.vtf" "file"
"materials\Shadowsand\Puzzler\Part3Hub6.vtf" "file"
"materials\Shadowsand\Puzzler\Part3Hub7.vtf" "file"
"materials\Shadowsand\Puzzler\Part3Hub8.vtf" "file"
"materials\Shadowsand\Puzzler\PuzzlerP2.vtf" "file"
"materials\Shadowsand\Puzzler\PuzzlerP3.vtf" "file"
"materials\Shadowsand\Puzzler\PuzzlerP4.vtf" "file"
"materials\Shadowsand\Puzzler\Q1A1.vtf" "file"
"materials\Shadowsand\Puzzler\Q1A2.vtf" "file"
"materials\Shadowsand\Puzzler\Q1A3.vtf" "file"
"materials\Shadowsand\Puzzler\Q1A4.vtf" "file"
"materials\Shadowsand\Puzzler\Q2A1.vtf" "file"
"materials\Shadowsand\Puzzler\Q2A2.vtf" "file"
"materials\Shadowsand\Puzzler\Q2A3.vtf" "file"
"materials\Shadowsand\Puzzler\Q2A4.vtf" "file"
"materials\Shadowsand\Puzzler\Q3A1.vtf" "file"
"materials\Shadowsand\Puzzler\Q3A2.vtf" "file"
"materials\Shadowsand\Puzzler\Q3A3.vtf" "file"
"materials\Shadowsand\Puzzler\Q3A4.vtf" "file"
"materials\Shadowsand\Puzzler\Q4A1.vtf" "file"
"materials\Shadowsand\Puzzler\Q4A2.vtf" "file"
"materials\Shadowsand\Puzzler\Q4A3.vtf" "file"
"materials\Shadowsand\Puzzler\Q4A4.vtf" "file"
"materials\Shadowsand\Puzzler\Q5A1.vtf" "file"
"materials\Shadowsand\Puzzler\Q5A2.vtf" "file"
"materials\Shadowsand\Puzzler\Q5A3.vtf" "file"
"materials\Shadowsand\Puzzler\Q5A4.vtf" "file"
"materials\Shadowsand\Puzzler\Question1.vtf" "file"
"materials\Shadowsand\Puzzler\Question2.vtf" "file"
"materials\Shadowsand\Puzzler\Question3.vtf" "file"
"materials\Shadowsand\Puzzler\Question4.vtf" "file"
"materials\Shadowsand\Puzzler\Question5.vtf" "file"
"materials\Shadowsand\Puzzler\RedGreen.vtf" "file"
"materials\Shadowsand\Puzzler\sflcgateceiling1_d_PZ.vtf" "file"
"materials\Shadowsand\Puzzler\Symbol1.vtf" "file"
"materials\Shadowsand\Puzzler\Symbol2.vtf" "file"
"materials\Shadowsand\Puzzler\Symbol3.vtf" "file"
"materials\Shadowsand\Puzzler\Symbol4.vtf" "file"
"materials\Shadowsand\Puzzler\Symbol5.vtf" "file"
"materials\Shadowsand\Puzzler\Symbols.vtf" "file"
"materials\cncr04s\metal\blackhull1.vmt" "file"
"materials\cncr04s\metal\castiron.vmt" "file"
"materials\cncr04s\metal\deckgrate_set1b.vmt" "file"
"materials\cncr04s\metal\ironwall1.vmt" "file"
"materials\cncr04s\metalpanel\bz_e_14shipbase_01.vmt" "file"
"materials\cncr04s\metalpanel\bz_e_14shipintwall2tonebase.vmt" "file"
"materials\cncr04s\metalpanel\electricbox1a.vmt" "file"
"materials\cncr04s\slime\canal_sludge.vmt" "file"
"materials\cncr04sp2\concretetypes\hose01_s.vmt" "file"
"materials\cncr04sp2\concretetypes\recycfloor1_s1_fin.vmt" "file"
"materials\cncr04sp2\metal\a_reactorfloor2_1b_fin.vmt" "file"
"materials\cncr04sp2\metal\diamond05.vmt" "file"
"materials\cncr04sp2\metal\diamond05_d.vmt" "file"
"materials\cncr04sp2\metal\diamond05rust_d.vmt" "file"
"materials\cncr04sp2\metal\ghotile3.vmt" "file"
"materials\cncr04sp2\metal\ghotile3a_d.vmt" "file"
"materials\cncr04sp2\metal\lfwall3a.vmt" "file"
"materials\cncr04sp2\metal\sflcgateceiling1_d.vmt" "file"
"materials\cncr04sp2\metal\smdoor1b.vmt" "file"
"materials\cncr04sp2\metal\steel_d.vmt" "file"
"materials\cncr04sp3\concretetypes\acdoor5base1.vmt" "file"
"materials\cncr04sp3\concretetypes\d3door1.vmt" "file"
"materials\cncr04sp3\concretetypes\dsceil3.vmt" "file"
"materials\cncr04sp3\metal\asbase4.vmt" "file"
"materials\cncr04sp3\metal\asdoor6.vmt" "file"
"materials\cncr04sp3\metal\aswall3-base.vmt" "file"
"materials\cncr04sp3\metal\aswall3-dirty.vmt" "file"
"materials\cncr04sp3\metal\aswallbroken1.vmt" "file"
"materials\cncr04sp3\metal\d2_steelwall_01.vmt" "file"
"materials\cncr04sp3\metal\d3floor13.vmt" "file"
"materials\cncr04sp3\metal\d3_metalplates_02c.vmt" "file"
"materials\cncr04sp3\metal\d3_steelwall_01a.vmt" "file"
"materials\cncr04sp3\metal\diamond-grate01.vmt" "file"
"materials\cncr04sp3\metal\diamond-step01.vmt" "file"
"materials\cncr04sp3\metal\edoor2.vmt" "file"
"materials\cncr04sp3\metal\ent_met2.vmt" "file"
"materials\cncr04sp3\metal\ent_met6.vmt" "file"
"materials\cncr04sp3\metal\fcargob1.vmt" "file"
"materials\cncr04sp3\metal\fcargob2.vmt" "file"
"materials\cncr04sp3\metal\fcargobase1.vmt" "file"
"materials\cncr04sp3\metal\fcargobase2.vmt" "file"
"materials\cncr04sp3\metal\k_base1.vmt" "file"
"materials\cncr04sp3\metal\k7_base5.vmt" "file"
"materials\cncr04sp3\metal\kwall4.vmt" "file"
"materials\cncr04sp3\metal\kwall2.vmt" "file"
"materials\cncr04sp3\metal\kwallbase1.vmt" "file"
"materials\cncr04sp3\metal\romvent2.vmt" "file"
"materials\cncr04sp3\metal\romdoor3.vmt" "file"
"materials\CUSTOM\colon_arial_white.vmt" "file"
"materials\CUSTOM\digits_arial_hud_white.vmt" "file"
"materials\gm_puzzler\Arrow.vmt" "file"
"materials\gm_puzzler\Begin.vmt" "file"
"materials\gm_puzzler\Challenge1.vmt" "file"
"materials\gm_puzzler\Challenge2.vmt" "file"
"materials\gm_puzzler\Challenge3.vmt" "file"
"materials\gm_puzzler\DeadEnd.vmt" "file"
"materials\gm_puzzler\Interface - Door 1.vmt" "file"
"materials\gm_puzzler\Interface - Engage 1.vmt" "file"
"materials\gm_puzzler\MusicControls.vmt" "file"
"materials\gm_puzzler\Pink1.vmt" "file"
"materials\gm_puzzler\Pink2.vmt" "file"
"materials\gm_puzzler\Pink3.vmt" "file"
"materials\gm_puzzler\Pink4.vmt" "file"
"materials\gm_puzzler\Stop.vmt" "file"
"materials\gm_puzzler\Tutorial.vmt" "file"
"materials\gm_puzzler\Wrongway.vmt" "file"
"materials\refract\refractglass008.vmt" "file"
"materials\refract\refractglass012.vmt" "file"
"materials\rp_planetfall\panelwall1_b.vmt" "file"
"materials\scrapteam\cyber-datasteam.vmt" "file"
"materials\scrapteam\cyber-squareblue.vmt" "file"
"materials\scrapteam\cyber-squarebrown.vmt" "file"
"materials\scrapteam\cyber-squarepurple.vmt" "file"
"materials\scrapteam\cyber-squareredblue.vmt" "file"
"materials\Shadowsand\GroundWar\castironedit.vmt" "file"
"materials\Shadowsand\Puzzler\1.vmt" "file"
"materials\Shadowsand\Puzzler\2.vmt" "file"
"materials\Shadowsand\Puzzler\3.vmt" "file"
"materials\Shadowsand\Puzzler\4.vmt" "file"
"materials\Shadowsand\Puzzler\5.vmt" "file"
"materials\Shadowsand\Puzzler\6.vmt" "file"
"materials\Shadowsand\Puzzler\7.vmt" "file"
"materials\Shadowsand\Puzzler\8.vmt" "file"
"materials\Shadowsand\Puzzler\9.vmt" "file"
"materials\Shadowsand\Puzzler\15.vmt" "file"
"materials\Shadowsand\Puzzler\diamond-grate01_PZ.vmt" "file"
"materials\Shadowsand\Puzzler\diamond-grate01_PZ2.vmt" "file"
"materials\Shadowsand\Puzzler\Flash.vmt" "file"
"materials\Shadowsand\Puzzler\lfwall3a_PZ.vmt" "file"
"materials\Shadowsand\Puzzler\MapChange.vmt" "file"
"materials\Shadowsand\Puzzler\Oc_Lobby.vmt" "file"
"materials\Shadowsand\Puzzler\Part_3.vmt" "file"
"materials\Shadowsand\Puzzler\Part3.vmt" "file"
"materials\Shadowsand\Puzzler\Part3Credits.vmt" "file"
"materials\Shadowsand\Puzzler\Part3Final.vmt" "file"
"materials\Shadowsand\Puzzler\Part3Hub6.vmt" "file"
"materials\Shadowsand\Puzzler\Part3Hub7.vmt" "file"
"materials\Shadowsand\Puzzler\Part3Hub8.vmt" "file"
"materials\Shadowsand\Puzzler\PuzzlerP2.vmt" "file"
"materials\Shadowsand\Puzzler\PuzzlerP3.vmt" "file"
"materials\Shadowsand\Puzzler\PuzzlerP4.vmt" "file"
"materials\Shadowsand\Puzzler\Q1A1.vmt" "file"
"materials\Shadowsand\Puzzler\Q1A2.vmt" "file"
"materials\Shadowsand\Puzzler\Q1A3.vmt" "file"
"materials\Shadowsand\Puzzler\Q1A4.vmt" "file"
"materials\Shadowsand\Puzzler\Q2A1.vmt" "file"
"materials\Shadowsand\Puzzler\Q2A2.vmt" "file"
"materials\Shadowsand\Puzzler\Q2A3.vmt" "file"
"materials\Shadowsand\Puzzler\Q2A4.vmt" "file"
"materials\Shadowsand\Puzzler\Q3A1.vmt" "file"
"materials\Shadowsand\Puzzler\Q3A2.vmt" "file"
"materials\Shadowsand\Puzzler\Q3A3.vmt" "file"
"materials\Shadowsand\Puzzler\Q3A4.vmt" "file"
"materials\Shadowsand\Puzzler\Q4A1.vmt" "file"
"materials\Shadowsand\Puzzler\Q4A2.vmt" "file"
"materials\Shadowsand\Puzzler\Q4A3.vmt" "file"
"materials\Shadowsand\Puzzler\Q4A4.vmt" "file"
"materials\Shadowsand\Puzzler\Q5A1.vmt" "file"
"materials\Shadowsand\Puzzler\Q5A2.vmt" "file"
"materials\Shadowsand\Puzzler\Q5A3.vmt" "file"
"materials\Shadowsand\Puzzler\Q5A4.vmt" "file"
"materials\Shadowsand\Puzzler\Question1.vmt" "file"
"materials\Shadowsand\Puzzler\Question2.vmt" "file"
"materials\Shadowsand\Puzzler\Question3.vmt" "file"
"materials\Shadowsand\Puzzler\Question4.vmt" "file"
"materials\Shadowsand\Puzzler\Question5.vmt" "file"
"materials\Shadowsand\Puzzler\RedGreen.vmt" "file"
"materials\Shadowsand\Puzzler\sflcgateceiling1_d_PZ.vmt" "file"
"materials\Shadowsand\Puzzler\Symbol1.vmt" "file"
"materials\Shadowsand\Puzzler\Symbol2.vmt" "file"
"materials\Shadowsand\Puzzler\Symbol3.vmt" "file"
"materials\Shadowsand\Puzzler\Symbol4.vmt" "file"
"materials\Shadowsand\Puzzler\Symbol5.vmt" "file"
"materials\Shadowsand\Puzzler\Symbols.vmt" "file"
"materials\models\props_pf\pf_cargobox_teapot.vmt" "file"
"materials\models\props_pf\comps\aswall3-base.vmt" "file"
"materials\models\props_pf\comps\castiron.vmt" "file"
"materials\models\props_pf\comps\ironwall1.vmt" "file"
"materials\models\props_pf\comps\steel_d.vmt" "file"
"materials\models\props_pf\pf_cargobox3.vmt" "file"
"materials\models\props_pf\pf_cargobox3.vtf" "file"
"materials\models\props_pf\pf_cargobox3_normal.vtf" "file"
"materials\models\props_shadowsand\puzzler\H3_CPP\castironedit.vmt" "file"
"materials\models\props_shadowsand\puzzler\H3_CPP\d2_steelwall_01.vmt" "file"
"materials\models\props_shadowsand\puzzler\H3_CPP\fcargob2.vmt" "file"
"materials\models\props_shadowsand\puzzler\H3_CPP\ironwall1.vmt" "file"
"materials\models\props_shadowsand\puzzler\H3_CPP\steel_d.vmt" "file"
"materials\models\props_shadowsand\puzzler\minicore_1\aswall3-base.vmt" "file"
"materials\models\props_shadowsand\puzzler\minicore_1\aswall3-dirty.vmt" "file"
"materials\models\props_shadowsand\puzzler\minicore_1\castiron.vmt" "file"
"materials\models\props_shadowsand\puzzler\minicore_1\combine_lightpanel001.vmt" "file"
"materials\models\props_shadowsand\puzzler\minicore_1\cornerunit_cloud.vmt" "file"
"materials\models\props_shadowsand\puzzler\minicore_1\decalmetalspeaker002a.vmt" "file"
"materials\models\props_shadowsand\puzzler\minicore_1\decalmetalvent004a.vmt" "file"
"materials\models\props_shadowsand\puzzler\minicore_1\decalwire002a.vmt" "file"
"materials\models\props_shadowsand\puzzler\minicore_1\dev_hazzardstripe01a.vmt" "file"
"materials\models\props_shadowsand\puzzler\minicore_1\fcargo10.vmt" "file"
"materials\models\props_shadowsand\puzzler\minicore_1\mchangar11.vmt" "file"
"materials\models\props_shadowsand\puzzler\minicore_1\metalcombine002.vmt" "file"
"materials\models\props_shadowsand\puzzler\minicore_1\metalvent015a.vmt" "file"
"materials\models\props_shadowsand\puzzler\minicore_1\rubberfloor004a.vmt" "file"
"materials\models\props_shadowsand\puzzler\minicore_1\slpanel2a.vmt" "file"
"materials\models\props_shadowsand\puzzler\minicore_1\stedoorframe2_trim.vmt" "file"
"materials\models\props_shadowsand\puzzler\minicore_1\steel_d.vmt" "file"
"materials\models\props_shadowsand\puzzler\minicore_1\strim.vmt" "file"
"materials\models\props_shadowsand\puzzler\minicore_2\aswall3-base.vmt" "file"
"materials\models\props_shadowsand\puzzler\minicore_2\aswall3-dirty.vmt" "file"
"materials\models\props_shadowsand\puzzler\minicore_2\castiron.vmt" "file"
"materials\models\props_shadowsand\puzzler\minicore_2\fcargo10.vmt" "file"
"materials\models\props_shadowsand\puzzler\minicore_2\slpanel2a.vmt" "file"
"materials\models\props_shadowsand\puzzler\minitower\citadel_metalwall078a.vmt" "file"
"materials\models\props_shadowsand\puzzler\minitower\citadel_tilefloor016a.vmt" "file"
"materials\models\props_shadowsand\puzzler\minitower\fcargob2.vmt" "file"
"materials\models\props_shadowsand\puzzler\minitower\fcargobase2.vmt" "file"
"materials\models\props_shadowsand\puzzler\minitower\flat_dark_metal.vmt" "file"
"materials\models\props_shadowsand\puzzler\minitower\iron_floor3.vmt" "file"
"materials\models\props_shadowsand\puzzler\minitower\k7_base3.vmt" "file"
"materials\models\props_shadowsand\puzzler\minitower\kwall7.vmt" "file"
"materials\models\props_shadowsand\puzzler\minitower\metal1.vmt" "file"
"materials\models\props_shadowsand\puzzler\minitower\metalcombine002.vmt" "file"
"materials\models\props_shadowsand\puzzler\minitower\steel_d.vmt" "file"
"sound\gm_puzzler\Part3\Music\Song_1.mp3" "file"
"sound\gm_puzzler\Part3\Music\Song_2.mp3" "file"
"sound\gm_puzzler\Part3\Music\Song_3.mp3" "file"
"sound\gm_puzzler\Part3\Music\Song_4.mp3" "file"
"sound\gm_puzzler\Part3\Music\Song_5.mp3" "file"
"sound\gm_puzzler\Part3\Music\Song_6.mp3" "file"
"sound\gm_puzzler\Part3\Music\Song_7.mp3" "file"
"models\props_pf\comps\tele.dx80.vtx" "file"
"models\props_pf\comps\tele.dx90.vtx" "file"
"models\props_pf\comps\tele.mdl" "file"
"models\props_pf\comps\tele.phy" "file"
"models\props_pf\comps\tele.sw.vtx" "file"
"models\props_pf\comps\tele.vvd" "file"
"models\props_pf\cargoboxes\box_teapot.dx80.vtx" "file"
"models\props_pf\cargoboxes\box_teapot.dx90.vtx" "file"
"models\props_pf\cargoboxes\box_teapot.mdl" "file"
"models\props_pf\cargoboxes\box_teapot.phy" "file"
"models\props_pf\cargoboxes\box_teapot.sw.vtx" "file"
"models\props_pf\cargoboxes\box_teapot.vvd" "file"
"models\props_pf\cargoboxes\box_medium.dx80.vtx" "file"
"models\props_pf\cargoboxes\box_medium.dx90.vtx" "file"
"models\props_pf\cargoboxes\box_medium.mdl" "file"
"models\props_pf\cargoboxes\box_medium.phy" "file"
"models\props_pf\cargoboxes\box_medium.sw.vtx" "file"
"models\props_pf\cargoboxes\box_medium.vvd" "file"
"models\props_shadowsand\puzzler\H3_CPP.dx80.vtx" "file"
"models\props_shadowsand\puzzler\H3_CPP.dx90.vtx" "file"
"models\props_shadowsand\puzzler\h3_cpp.mdl" "file"
"models\props_shadowsand\puzzler\H3_CPP.phy" "file"
"models\props_shadowsand\puzzler\H3_CPP.sw.vtx" "file"
"models\props_shadowsand\puzzler\h3_cpp.vvd" "file"
"maps\oc_puzzler_part3.res" "file"
}
