"resources"
{
"maps\oc_strike.bsp" "file"
"maps\oc_strike.res" "file"
"maps\cfg\oc_strike_briefing.txt" "file"
"maps\cfg\oc_strike_cfg.txt" "file"
"maps\cfg\oc_strike_modify.txt" "file"
"materials\maps\oc_lobby\oc_strike.vmt" "file"
"materials\maps\oc_lobby\oc_strike.vtf" "file"
"materials\VGUI\maps\menu_thumb_oc_strike.vmt" "file"
"materials\VGUI\maps\menu_thumb_oc_strike.vtf" "file"
"scripts\customweapons\oc_strike\custom_ak47.txt" "file"
"scripts\customweapons\oc_strike\custom_aug.txt" "file"
"scripts\customweapons\oc_strike\custom_awp.txt" "file"
"scripts\customweapons\oc_strike\custom_deagle.txt" "file"
"scripts\customweapons\oc_strike\custom_elite.txt" "file"
"scripts\customweapons\oc_strike\custom_famas.txt" "file"
"scripts\customweapons\oc_strike\custom_fiveseven.txt" "file"
"scripts\customweapons\oc_strike\custom_g3sg1.txt" "file"
"scripts\customweapons\oc_strike\custom_galil.txt" "file"
"scripts\customweapons\oc_strike\custom_glock.txt" "file"
"scripts\customweapons\oc_strike\custom_m249.txt" "file"
"scripts\customweapons\oc_strike\custom_m3.txt" "file"
"scripts\customweapons\oc_strike\custom_m4a1.txt" "file"
"scripts\customweapons\oc_strike\custom_mac10.txt" "file"
"scripts\customweapons\oc_strike\custom_mp5.txt" "file"
"scripts\customweapons\oc_strike\custom_p228.txt" "file"
"scripts\customweapons\oc_strike\custom_p90.txt" "file"
"scripts\customweapons\oc_strike\custom_scout.txt" "file"
"scripts\customweapons\oc_strike\custom_sg550.txt" "file"
"scripts\customweapons\oc_strike\custom_sg552.txt" "file"
"scripts\customweapons\oc_strike\custom_tmp.txt" "file"
"scripts\customweapons\oc_strike\custom_ump45.txt" "file"
"scripts\customweapons\oc_strike\custom_usp.txt" "file"
"scripts\customweapons\oc_strike\custom_xm1014.txt" "file"
"scripts\merchants\oc_strike\merchant_oc_strike.txt" "file"
}