"resources"
{
"maps/oc_umizuri_s75_v6.bsp" "file"
"maps/oc_umizuri_s75_v6.res" "file"
"maps/cfg/oc_umizuri_s75_v5_cfg.txt" "file"
"maps/cfg/oc_umizuri_s75_v5_modify.txt" "file"
"materials/bd_keypad/key1.vmt" "file"
"materials/bd_keypad/key1.vtf" "file"
"materials/bd_keypad/key2.vmt" "file"
"materials/bd_keypad/key2.vtf" "file"
"materials/bd_keypad/key3.vmt" "file"
"materials/bd_keypad/key3.vtf" "file"
"materials/bd_keypad/key4.vmt" "file"
"materials/bd_keypad/key4.vtf" "file"
"materials/bd_keypad/key5.vmt" "file"
"materials/bd_keypad/key5.vtf" "file"
"materials/bd_keypad/key6.vmt" "file"
"materials/bd_keypad/key6.vtf" "file"
"materials/bd_keypad/key7.vmt" "file"
"materials/bd_keypad/key7.vtf" "file"
"materials/bd_keypad/key8.vmt" "file"
"materials/bd_keypad/key8.vtf" "file"
"materials/bd_keypad/key9.vmt" "file"
"materials/bd_keypad/key9.vtf" "file"
"materials/CUSTOM/dollar.vmt" "file"
"materials/CUSTOM/dollar.vtf" "file"
"materials/metal/bunker_metaltruss01.vmt" "file"
"materials/metal/bunker_metaltruss01.vtf" "file"
"materials/nature/forest_grass_01.vmt" "file"
"materials/nature/forest_grass_01.vtf" "file"
"materials/wood/offparticleboard.vmt" "file"
"materials/wood/offparticleboard.vtf" "file"
"materials/wood/woodceiling003a.vmt" "file"
"materials/wood/woodceiling003a.vtf" "file"
"models/paysan/paysan_log01a.dx80.vtx" "file"
"models/paysan/paysan_log01a.dx90.vtx" "file"
"models/paysan/paysan_log01a.mdl" "file"
"models/paysan/paysan_log01a.phy" "file"
"models/paysan/paysan_log01a.sw.vtx" "file"
"models/paysan/paysan_log01a.vvd" "file"
"models/paysan/paysan_log01b.dx80.vtx" "file"
"models/paysan/paysan_log01b.dx90.vtx" "file"
"models/paysan/paysan_log01b.mdl" "file"
"models/paysan/paysan_log01b.phy" "file"
"models/paysan/paysan_log01b.sw.vtx" "file"
"models/paysan/paysan_log01b.vvd" "file"
"models/trees/bigtree.dx80.vtx" "file"
"models/trees/bigtree.dx90.vtx" "file"
"models/trees/bigtree.mdl" "file"
"models/trees/bigtree.phy" "file"
"models/trees/bigtree.sw.vtx" "file"
"models/trees/bigtree.vvd" "file"
"materials/models/paysan/log01a.vmt" "file"
"materials/models/paysan/log01a.vtf" "file"
"materials/models/trees/bigtree.vmt" "file"
"materials/models/trees/bigtree.vtf" "file"
"materials/models/trees/bigtree_billboard.vmt" "file"
"materials/models/trees/bigtree_billboard.vtf" "file"
"models/fish/perch/perch.dx80.vtx" "file"
"models/fish/perch/perch.dx90.vtx" "file"
"models/fish/perch/perch.mdl" "file"
"models/fish/perch/perch.phy" "file"
"models/fish/perch/perch.sw.vtx" "file"
"models/fish/perch/perch.vvd" "file"
"models/fish/perch/perch.xbox.vtx" "file"
"models/props/CS_militia/FishRiver01.dx80.vtx" "file"
"models/props/CS_militia/FishRiver01.dx90.vtx" "file"
"models/props/CS_militia/fishriver01.mdl" "file"
"models/props/CS_militia/FishRiver01.phy" "file"
"models/props/CS_militia/FishRiver01.sw.vtx" "file"
"models/props/CS_militia/fishriver01.vvd" "file"
"sound/maps/oc_paysan/01_thank you.mp3" "file"
"sound/maps/oc_paysan/CAISSE.mp3" "file"
"materials/models/fish/perch/perch.vmt" "file"
"materials/models/fish/perch/perch.vtf" "file"
"materials/models/fish/perch/perch_flappers.vmt" "file"
"materials/models/fish/perch/perch_flappers.vtf" "file"
}
