"resources"
{
"maps/oc_underground_horror_maze.bsp" "file"
"maps/oc_underground_horror_maze.res" "file"
"maps/cfg/oc_underground_horror_maze_briefing.txt" "file"
"maps/cfg/oc_underground_horror_maze_cfg.txt" "file"
"maps/cfg/oc_underground_horror_maze_modify.txt" "file"
"maps/cfg/oc_underground_horror_maze_mounts.txt" "file"
"models/Zombie/Hulk.dx80.vtx" "file"
"models/Zombie/Hulk.dx90.vtx" "file"
"models/Zombie/hulk.mdl" "file"
"models/Zombie/Hulk.phy" "file"
"models/Zombie/Hulk.sw.vtx" "file"
"models/Zombie/hulk.vvd" "file"
"models/Zombie/Hulk.xbox.vtx" "file"
"scripts/colorcorrection/underground_horror.raw" "file"
"materials/TIMON_Z1535/props_foliage/vines_clusters_hanging_dry01.vmt" "file"
"materials/TIMON_Z1535/props_foliage/vines_clusters_hanging_dry01.vtf" "file"
"materials/TIMON_Z1535/props_foliage/vine_cluster_loop01_dry.vmt" "file"
"materials/TIMON_Z1535/props_foliage/vine_cluster_loop01_dry.vtf" "file"
"materials/TIMON_Z1535/props_foliage/vine_halfdry01.vmt" "file"
"materials/TIMON_Z1535/props_foliage/vine_halfdry01.vtf" "file"
"models/TIMON_Z1535/props_foliage/vines_128_128_halfdry01.dx80.vtx" "file"
"models/TIMON_Z1535/props_foliage/vines_128_128_halfdry01.dx90.vtx" "file"
"models/TIMON_Z1535/props_foliage/vines_128_128_halfdry01.mdl" "file"
"models/TIMON_Z1535/props_foliage/vines_128_128_halfdry01.sw.vtx" "file"
"models/TIMON_Z1535/props_foliage/vines_128_128_halfdry01.vvd" "file"
"models/TIMON_Z1535/props_foliage/vines_256_256_dry01.dx80.vtx" "file"
"models/TIMON_Z1535/props_foliage/vines_256_256_dry01.dx90.vtx" "file"
"models/TIMON_Z1535/props_foliage/vines_256_256_dry01.mdl" "file"
"models/TIMON_Z1535/props_foliage/vines_256_256_dry01.sw.vtx" "file"
"models/TIMON_Z1535/props_foliage/vines_256_256_dry01.vvd" "file"
"models/TIMON_Z1535/props_foliage/vines_256_256_halfdry01.dx80.vtx" "file"
"models/TIMON_Z1535/props_foliage/vines_256_256_halfdry01.dx90.vtx" "file"
"models/TIMON_Z1535/props_foliage/vines_256_256_halfdry01.mdl" "file"
"models/TIMON_Z1535/props_foliage/vines_256_256_halfdry01.sw.vtx" "file"
"models/TIMON_Z1535/props_foliage/vines_256_256_halfdry01.vvd" "file"
"models/TIMON_Z1535/props_foliage/vines_tall_patch01_halfdry.dx80.vtx" "file"
"models/TIMON_Z1535/props_foliage/vines_tall_patch01_halfdry.dx90.vtx" "file"
"models/TIMON_Z1535/props_foliage/vines_tall_patch01_halfdry.mdl" "file"
"models/TIMON_Z1535/props_foliage/vines_tall_patch01_halfdry.sw.vtx" "file"
"models/TIMON_Z1535/props_foliage/vines_tall_patch01_halfdry.vvd" "file"
"models/TIMON_Z1535/props_foliage/vine_cluster_hanging01_dry.dx80.vtx" "file"
"models/TIMON_Z1535/props_foliage/vine_cluster_hanging01_dry.dx90.vtx" "file"
"models/TIMON_Z1535/props_foliage/vine_cluster_hanging01_dry.mdl" "file"
"models/TIMON_Z1535/props_foliage/vine_cluster_hanging01_dry.sw.vtx" "file"
"models/TIMON_Z1535/props_foliage/vine_cluster_hanging01_dry.vvd" "file"
"models/TIMON_Z1535/props_foliage/vine_cluster_hanging02_dry.dx80.vtx" "file"
"models/TIMON_Z1535/props_foliage/vine_cluster_hanging02_dry.dx90.vtx" "file"
"models/TIMON_Z1535/props_foliage/vine_cluster_hanging02_dry.mdl" "file"
"models/TIMON_Z1535/props_foliage/vine_cluster_hanging02_dry.sw.vtx" "file"
"models/TIMON_Z1535/props_foliage/vine_cluster_hanging02_dry.vvd" "file"
"models/TIMON_Z1535/props_foliage/vine_cluster_hanging03_dry.dx80.vtx" "file"
"models/TIMON_Z1535/props_foliage/vine_cluster_hanging03_dry.dx90.vtx" "file"
"models/TIMON_Z1535/props_foliage/vine_cluster_hanging03_dry.mdl" "file"
"models/TIMON_Z1535/props_foliage/vine_cluster_hanging03_dry.sw.vtx" "file"
"models/TIMON_Z1535/props_foliage/vine_cluster_hanging03_dry.vvd" "file"
"models/TIMON_Z1535/props_foliage/vine_cluster_hanging04_dry.dx80.vtx" "file"
"models/TIMON_Z1535/props_foliage/vine_cluster_hanging04_dry.dx90.vtx" "file"
"models/TIMON_Z1535/props_foliage/vine_cluster_hanging04_dry.mdl" "file"
"models/TIMON_Z1535/props_foliage/vine_cluster_hanging04_dry.sw.vtx" "file"
"models/TIMON_Z1535/props_foliage/vine_cluster_hanging04_dry.vvd" "file"
"materials/TIMON_Z1535/Left 4 Dead/dead_city/screen.vmt" "file"
"materials/TIMON_Z1535/Left 4 Dead/dead_city/screen.vtf" "file"
"materials/TIMON_Z1535/underground_horror/maze/concrete_e.vmt" "file"
"materials/TIMON_Z1535/underground_horror/maze/concrete_e.vtf" "file"
"materials/TIMON_Z1535/underground_horror/maze/cracked_e.vmt" "file"
"materials/TIMON_Z1535/underground_horror/maze/cracked_e.vtf" "file"
"materials/TIMON_Z1535/underground_horror/maze/PoisonZombie_sheet.vtf" "file"
"sound/TIMON_Z1535/underground_horror/maze/trance_end.mp3" "file"
"sound/TIMON_Z1535/underground_horror/maze/trance_maze1.mp3" "file"
"sound/TIMON_Z1535/underground_horror/maze/trance_maze2.mp3" "file"
}