"resources"
{
"maps\oc_vs_glory_v1.res" "file"
"maps\cfg\oc_vs_glory_v1_mounts.txt" "file"
"maps\cfg\oc_vs_glory_v1_modify.txt" "file"
"maps\cfg\oc_vs_glory_v1_briefing.txt" "file"
"maps\cfg\oc_vs_glory_v1_cfg.txt" "file"
}
