"resources"
{
"maps\oc_vicarioustrauma_01.bsp" "file"
"maps\oc_vicarioustrauma_01.res" "file"
"maps\cfg\oc_vicarioustrauma_01_briefing.txt" "file"
"maps\cfg\oc_vicarioustrauma_01_cfg.txt" "file"
"maps\cfg\oc_vicarioustrauma_01_modify.txt" "file"
"maps\cfg\oc_vicarioustrauma_01_soundscripts.txt" "file"
"materials\maps\oc_back\blackmesa_labflr.vmt" "file"
"materials\maps\oc_back\blackmesa_labflr.vtf" "file"
"materials\maps\oc_back\blackmesa_labflr_normal.vtf" "file"
"materials\maps\oc_back\blackmesa_pave1.vmt" "file"
"materials\maps\oc_back\blackmesa_pave1.vtf" "file"
"materials\maps\oc_back\blackmesa_pave1_normal.vtf" "file"
"materials\maps\oc_back\blackmesa_pave2.vmt" "file"
"materials\maps\oc_back\blackmesa_pave2.vtf" "file"
"materials\maps\oc_back\blackmesa_pave2_normal.vtf" "file"
"materials\maps\oc_back\blend_rp_ground.vmt" "file"
"materials\maps\oc_back\bm_concrete_4_n.vtf" "file"
"materials\maps\oc_back\bm_concrete_6_wlle.vmt" "file"
"materials\maps\oc_back\bm_concrete_6_wlle_d.vtf" "file"
"materials\maps\oc_back\bm_concrete_detail_01.vtf" "file"
"materials\maps\oc_back\bm_floor_1.vmt" "file"
"materials\maps\oc_back\bm_floor_1_d.vtf" "file"
"materials\maps\oc_back\bm_floor_1_n.vtf" "file"
"materials\maps\oc_back\bm_metal_detail_01.vtf" "file"
"materials\maps\oc_back\bm_paint_detail_01.vtf" "file"
"materials\maps\oc_back\c1a0b_dr4breskinned.vmt" "file"
"materials\maps\oc_back\c1a0b_dr4breskinned.vtf" "file"
"materials\maps\oc_back\c1a0b_dr4breskinned_normal.vtf" "file"
"materials\maps\oc_back\c1a3wall01_normal.vtf" "file"
"materials\maps\oc_back\c1a3wall04.vmt" "file"
"materials\maps\oc_back\c1a3wall04.vtf" "file"
"materials\maps\oc_back\c3a2a_w1g.vmt" "file"
"materials\maps\oc_back\c3a2a_w1g.vtf" "file"
"materials\maps\oc_back\c3a2a_w1g_no_line.vmt" "file"
"materials\maps\oc_back\c3a2a_w1g_no_line.vtf" "file"
"materials\maps\oc_back\ca1x_w.vmt" "file"
"materials\maps\oc_back\ca1x_w.vtf" "file"
"materials\maps\oc_back\ca1x_w_ssbump.vtf" "file"
"materials\maps\oc_back\credits.vmt" "file"
"materials\maps\oc_back\credits.vtf" "file"
"materials\maps\oc_back\CSREV_ConcreteWall_02.vmt" "file"
"materials\maps\oc_back\CSREV_ConcreteWall_02.vtf" "file"
"materials\maps\oc_back\CSREV_ConcreteWall_02_Normal.vtf" "file"
"materials\maps\oc_back\CSREV_offflrb.vmt" "file"
"materials\maps\oc_back\CSREV_offflrb.vtf" "file"
"materials\maps\oc_back\CSREV_wide_metaldoor_01.vmt" "file"
"materials\maps\oc_back\CSREV_wide_metaldoor_01.vtf" "file"
"materials\maps\oc_back\CSREV_wide_metaldoor_01_ref.vtf" "file"
"materials\maps\oc_back\dt_carpet1.vtf" "file"
"materials\maps\oc_back\faf_dirtground2.vtf" "file"
"materials\maps\oc_back\faf_dirtground2_normal.vtf" "file"
"materials\maps\oc_back\helipad.vmt" "file"
"materials\maps\oc_back\helipad.vtf" "file"
"materials\maps\oc_back\hlspain.vmt" "file"
"materials\maps\oc_back\hlspain.vtf" "file"
"materials\maps\oc_back\lab_metalwall00b.vmt" "file"
"materials\maps\oc_back\lab_metalwall00b.vtf" "file"
"materials\maps\oc_back\lab_metalwall00b_ssbump.vtf" "file"
"materials\maps\oc_back\lab1_no_line_normal.vtf" "file"
"materials\maps\oc_back\lab1_w1_normal.vtf" "file"
"materials\maps\oc_back\labdoor00.vmt" "file"
"materials\maps\oc_back\labdoor00.vtf" "file"
"materials\maps\oc_back\labdoor00_ssbump.vtf" "file"
"materials\maps\oc_back\labfloor04.vmt" "file"
"materials\maps\oc_back\labfloor04.vtf" "file"
"materials\maps\oc_back\labfloor04_normal.vtf" "file"
"materials\maps\oc_back\labscreen_normal.vtf" "file"
"materials\maps\oc_back\labscreen3.vmt" "file"
"materials\maps\oc_back\labscreen3.vtf" "file"
"materials\maps\oc_back\logo.vmt" "file"
"materials\maps\oc_back\logo.vtf" "file"
"materials\maps\oc_back\metal_securedoor.vmt" "file"
"materials\maps\oc_back\metal_securedoor.vtf" "file"
"materials\maps\oc_back\metal_securedoor_normal.vtf" "file"
"materials\maps\oc_back\rp_rockwall001.vtf" "file"
"materials\maps\oc_back\rubberconveyerbelt001a_scroll.vmt" "file"
"materials\maps\oc_back\sign1.vmt" "file"
"materials\maps\oc_back\sign1.vtf" "file"
"materials\maps\oc_back\sign1_normal.vtf" "file"
"materials\maps\oc_back\sign2.vmt" "file"
"materials\maps\oc_back\sign2.vtf" "file"
"materials\maps\oc_back\sign4.vmt" "file"
"materials\maps\oc_back\sign4.vtf" "file"
"materials\maps\oc_back\sign5.vmt" "file"
"materials\maps\oc_back\sign5.vtf" "file"
"materials\maps\oc_back\sign6.vmt" "file"
"materials\maps\oc_back\sign6.vtf" "file"
"materials\maps\oc_back\sign7.vmt" "file"
"materials\maps\oc_back\sign7.vtf" "file"
"materials\maps\oc_back\sign8.vmt" "file"
"materials\maps\oc_back\sign8.vtf" "file"
"materials\maps\oc_back\st_rockcliff003_normal.vtf" "file"
"materials\maps\oc_back\decals\blackmesalogo.vmt" "file"
"materials\maps\oc_back\decals\blackmesalogo.vtf" "file"
"materials\maps\oc_back\decals\blackmesalogosmall.vmt" "file"
"materials\maps\oc_back\decals\blackmesalogosmall.vtf" "file"
"materials\maps\oc_back\decals\blackmesalogosworn.vmt" "file"
"materials\maps\oc_back\decals\blackmesalogoworn.vtf" "file"
"materials\maps\oc_back\decals\sign3.vmt" "file"
"materials\maps\oc_back\decals\sign3.vtf" "file"
"materials\models\BlackOps\boot_chrome1.vmt" "file"
"materials\models\BlackOps\boot_chrome1.vtf" "file"
"materials\models\BlackOps\nvg_glow.vmt" "file"
"materials\models\BlackOps\nvg_glow.vtf" "file"
"materials\models\BlackOps\PC_Massn_body.vmt" "file"
"materials\models\BlackOps\PC_Massn_body.vtf" "file"
"materials\models\BlackOps\PC_Massn_body_normal.vtf" "file"
"materials\models\BlackOps\PC_Massn_hand_wht.vmt" "file"
"materials\models\BlackOps\PC_Massn_hand_wht.vtf" "file"
"materials\models\BlackOps\PC_Massn_mask_nvg.vmt" "file"
"materials\models\BlackOps\PC_Massn_mask_nvg.vtf" "file"
"materials\models\BlackOps\PC_Massn_mask_nvg_normal.vtf" "file"
"materials\models\BlackOps\PC_Massn_misc.vmt" "file"
"materials\models\BlackOps\PC_Massn_misc.vtf" "file"
"materials\models\BlackOps\PC_Massn_misc_normal.vtf" "file"
"materials\models\HLBattery\batteryE.vmt" "file"
"materials\models\HLBattery\batteryE.vtf" "file"
"materials\models\HLBattery\batteryE_m.vtf" "file"
"materials\models\HLBattery\BatteryT.vmt" "file"
"materials\models\HLBattery\BatteryT.vtf" "file"
"materials\models\HLBattery\BatteryT_m.vtf" "file"
"materials\models\HLBattery\BatteryT_normal.vtf" "file"
"materials\models\HLMedkit\medkitP.vmt" "file"
"materials\models\HLMedkit\medkitP.vtf" "file"
"materials\models\HLMedkit\medkitT.vmt" "file"
"materials\models\HLMedkit\medkitT.vtf" "file"
"materials\models\HLMedkit\medkitT_m.vtf" "file"
"materials\models\maps\oc_back\Oil_Drum001a.vmt" "file"
"materials\models\maps\oc_back\Oil_Drum001a.vtf" "file"
"materials\models\maps\oc_back\Oil_Drum001a_normal.vtf" "file"
"materials\models\maps\oc_back\50cal\50_cal_rounds.vmt" "file"
"materials\models\maps\oc_back\50cal\50_cal_rounds_d.vtf" "file"
"materials\models\maps\oc_back\50cal\50_cal_rounds_n.vtf" "file"
"materials\models\maps\oc_back\50cal\50cal_d.vmt" "file"
"materials\models\maps\oc_back\50cal\50cal_d.vtf" "file"
"materials\models\maps\oc_back\50cal\50cal_n.vtf" "file"
"materials\models\maps\oc_back\blastdoor\blastdoor01.vmt" "file"
"materials\models\maps\oc_back\blastdoor\blastdoor01.vtf" "file"
"materials\models\maps\oc_back\blastdoor\blastdoor01_normal.vtf" "file"
"materials\models\maps\oc_back\blastdoor\bm_rustymetal_detail_01.vtf" "file"
"materials\models\maps\oc_back\ch47\CH47-1.vmt" "file"
"materials\models\maps\oc_back\ch47\CH47-1.vtf" "file"
"materials\models\maps\oc_back\ch47\CH47-2.vmt" "file"
"materials\models\maps\oc_back\ch47\CH47-2.vtf" "file"
"materials\models\maps\oc_back\ch47\CH47-3.vmt" "file"
"materials\models\maps\oc_back\ch47\CH47-3.vtf" "file"
"materials\models\maps\oc_back\fmantaray\iridescence001.vtf" "file"
"materials\models\maps\oc_back\fmantaray\manta.vmt" "file"
"materials\models\maps\oc_back\fmantaray\manta.vtf" "file"
"materials\models\maps\oc_back\fmantaray\manta_normal.vtf" "file"
"materials\models\maps\oc_back\frontdesk\front_desk.vmt" "file"
"materials\models\maps\oc_back\frontdesk\front_desk.vtf" "file"
"materials\models\maps\oc_back\frontdesk\front_desk_normal.vtf" "file"
"materials\models\maps\oc_back\idcardreader\idcardreader.vmt" "file"
"materials\models\maps\oc_back\idcardreader\idcardreader.vtf" "file"
"materials\models\maps\oc_back\Johnson\beret_sheet.vmt" "file"
"materials\models\maps\oc_back\Johnson\beret_sheet.vtf" "file"
"materials\models\maps\oc_back\Johnson\humangrunt_normal.vtf" "file"
"materials\models\maps\oc_back\Johnson\humangrunt_sheet.vmt" "file"
"materials\models\maps\oc_back\Johnson\humangrunt_sheet.vtf" "file"
"materials\models\maps\oc_back\Johnson\Sandro_facemap.vmt" "file"
"materials\models\maps\oc_back\Johnson\sandro_facemap.vtf" "file"
"materials\models\maps\oc_back\m35\m35_body.vmt" "file"
"materials\models\maps\oc_back\m35\m35_body.vtf" "file"
"materials\models\maps\oc_back\m35\m35_body_nm.vtf" "file"
"materials\models\maps\oc_back\m35\m35_canvas.vmt" "file"
"materials\models\maps\oc_back\m35\m35_canvas.vtf" "file"
"materials\models\maps\oc_back\m35\m35_canvas_nm.vtf" "file"
"materials\models\maps\oc_back\m35\m35woodback_burnt.vmt" "file"
"materials\models\maps\oc_back\m35\m35woodback_burnt.vtf" "file"
"materials\models\maps\oc_back\m35\m35woodback_burnt_normal.vtf" "file"
"materials\models\maps\oc_back\m35\windowdirty.vmt" "file"
"materials\models\maps\oc_back\m35\windowdirty.vtf" "file"
"materials\models\maps\oc_back\osprey\gibs\v22_gib_texture.vmt" "file"
"materials\models\maps\oc_back\osprey\gibs\v22_gib_texture.vtf" "file"
"materials\models\maps\oc_back\retinalscanner\retinalscanner.vmt" "file"
"materials\models\maps\oc_back\retinalscanner\retinalscanner.vtf" "file"
"materials\models\maps\oc_back\retinalscanner\retinalscanner_visor.vmt" "file"
"materials\models\maps\oc_back\retinalscanner\retinalscanner_visor.vtf" "file"
"materials\models\maps\oc_back\sandbags\Sandbag.vmt" "file"
"materials\models\maps\oc_back\sandbags\Sandbag.vtf" "file"
"materials\models\maps\oc_back\sandbags\Sandbag_normal.vtf" "file"
"materials\models\maps\oc_back\securitystation\securitystation_corner_normal_skin1.vtf" "file"
"materials\models\maps\oc_back\securitystation\securitystation_corner_screens.vmt" "file"
"materials\models\maps\oc_back\securitystation\securitystation_corner_screens.vtf" "file"
"materials\models\maps\oc_back\securitystation\securitystation_corner_skin1.vmt" "file"
"materials\models\maps\oc_back\securitystation\securitystation_corner_skin1.vtf" "file"
"materials\models\maps\oc_back\securitystation\securitystation_normal_skin1.vtf" "file"
"materials\models\maps\oc_back\securitystation\securitystation_screens.vmt" "file"
"materials\models\maps\oc_back\securitystation\securitystation_screens.vtf" "file"
"materials\models\maps\oc_back\securitystation\SecurityStation_Skin1.vmt" "file"
"materials\models\maps\oc_back\securitystation\SecurityStation_Skin1.vtf" "file"
"materials\models\maps\oc_back\turnstyle\turnstyle.vmt" "file"
"materials\models\maps\oc_back\turnstyle\turnstyle.vtf" "file"
"materials\models\maps\oc_back\turnstyle\turnstyle_n.vtf" "file"
"materials\models\maps\oc_back\turret\sentry_ceiling.vmt" "file"
"materials\models\maps\oc_back\turret\sentry_ceiling.vtf" "file"
"materials\models\maps\oc_back\turret\sentry_ceiling_normal.vtf" "file"
"materials\models\maps\oc_back\turret\sentry_ceiling_off.vmt" "file"
"materials\models\maps\oc_back\zombies\ZGuard_b.vmt" "file"
"materials\models\maps\oc_back\zombies\ZGuard_b.vtf" "file"
"materials\models\maps\oc_back\zombies\ZGuard_b_normals.vtf" "file"
"materials\models\maps\oc_back\zombies\ZGuard_h.vmt" "file"
"materials\models\maps\oc_back\zombies\ZGuard_h.vtf" "file"
"materials\models\maps\oc_back\zombies\ZGuard_h_normals.vtf" "file"
"materials\models\maps\oc_back\zombies\ZScient_b.vmt" "file"
"materials\models\maps\oc_back\zombies\ZScient_b.vtf" "file"
"materials\models\maps\oc_back\zombies\ZScient_bN.vtf" "file"
"materials\models\maps\oc_back\zombies\ZScient_h.vmt" "file"
"materials\models\maps\oc_back\zombies\ZScient_h.vtf" "file"
"materials\models\maps\oc_back\zombies\ZScient_hN.vtf" "file"
"materials\models\weapons\oc_back\hecuarms\humangrunt_normal.vtf" "file"
"materials\models\weapons\oc_back\hecuarms\humangrunt_sheet.vmt" "file"
"materials\models\weapons\oc_back\hecuarms\humangrunt_sheet.vtf" "file"
"materials\models\weapons\oc_back\hecudeagle\v_models\Vashts Deagle\blackness.vmt" "file"
"materials\models\weapons\oc_back\hecudeagle\v_models\Vashts Deagle\Frame.vmt" "file"
"materials\models\weapons\oc_back\hecudeagle\v_models\Vashts Deagle\Frame.vtf" "file"
"materials\models\weapons\oc_back\hecudeagle\v_models\Vashts Deagle\Frame norm.vtf" "file"
"materials\models\weapons\oc_back\hecudeagle\v_models\Vashts Deagle\Front.vmt" "file"
"materials\models\weapons\oc_back\hecudeagle\v_models\Vashts Deagle\Front.vtf" "file"
"materials\models\weapons\oc_back\hecudeagle\v_models\Vashts Deagle\Front exp.vtf" "file"
"materials\models\weapons\oc_back\hecudeagle\v_models\Vashts Deagle\Front norm.vtf" "file"
"materials\models\weapons\oc_back\hecudeagle\v_models\Vashts Deagle\Grip.vmt" "file"
"materials\models\weapons\oc_back\hecudeagle\v_models\Vashts Deagle\Grip.vtf" "file"
"materials\models\weapons\oc_back\hecudeagle\v_models\Vashts Deagle\Grip norm.vtf" "file"
"materials\models\weapons\oc_back\hecudeagle\v_models\Vashts Deagle\NoPhongFrame.vmt" "file"
"materials\models\weapons\oc_back\hecudeagle\v_models\Vashts Deagle\NoPhongFront.vmt" "file"
"materials\models\weapons\oc_back\hecuflare\flaregun1.vmt" "file"
"materials\models\weapons\oc_back\hecuflare\flaregun1.vtf" "file"
"materials\models\weapons\oc_back\hecuflare\flaregun1_n.vtf" "file"
"materials\models\weapons\oc_back\hecuflare\flaregun2.vmt" "file"
"materials\models\weapons\oc_back\hecuflare\flaregun2.vtf" "file"
"materials\models\weapons\oc_back\hecuflare\flaregun2_n.vtf" "file"
"materials\models\weapons\oc_back\hecuknife\knife.vmt" "file"
"materials\models\weapons\oc_back\hecuknife\knife.vtf" "file"
"materials\models\weapons\oc_back\hecuknife\knife_normal.vtf" "file"
"materials\models\weapons\oc_back\hecum4\m4m203.vmt" "file"
"materials\models\weapons\oc_back\hecum4\m4m203.vtf" "file"
"materials\models\weapons\oc_back\hecum4\m4m203_normal.vtf" "file"
"materials\VGUI\maps\menu_thumb_oc_vicarioustrauma_01.vmt" "file"
"materials\VGUI\maps\menu_thumb_oc_vicarioustrauma_01.vtf" "file"
"models\BlackOps\blackops.mdl" "file"
"models\BlackOps\BlackOps.phy" "file"
"models\BlackOps\blackops.vvd" "file"
"models\BlackOps\BlackOps.dx80.vtx" "file"
"models\BlackOps\BlackOps.dx90.vtx" "file"
"models\BlackOps\BlackOps.sw.vtx" "file"
"models\HLBattery\bat.mdl" "file"
"models\HLBattery\bat.phy" "file"
"models\HLBattery\bat.vvd" "file"
"models\HLBattery\bat.dx80.vtx" "file"
"models\HLBattery\bat.dx90.vtx" "file"
"models\HLBattery\bat.sw.vtx" "file"
"models\HLMedkit\med.mdl" "file"
"models\HLMedkit\med.phy" "file"
"models\HLMedkit\med.vvd" "file"
"models\HLMedkit\med.dx80.vtx" "file"
"models\HLMedkit\med.dx90.vtx" "file"
"models\HLMedkit\med.sw.vtx" "file"
"models\maps\oc_back\oildrumpack_pile.mdl" "file"
"models\maps\oc_back\oildrumpack_pile.phy" "file"
"models\maps\oc_back\oildrumpack_pile.vvd" "file"
"models\maps\oc_back\oildrumpack_pile.dx80.vtx" "file"
"models\maps\oc_back\oildrumpack_pile.dx90.vtx" "file"
"models\maps\oc_back\oildrumpack_pile.sw.vtx" "file"
"models\maps\oc_back\oildrumpack_pile3.mdl" "file"
"models\maps\oc_back\oildrumpack_pile3.phy" "file"
"models\maps\oc_back\oildrumpack_pile3.vvd" "file"
"models\maps\oc_back\oildrumpack_pile3.dx80.vtx" "file"
"models\maps\oc_back\oildrumpack_pile3.dx90.vtx" "file"
"models\maps\oc_back\oildrumpack_pile3.sw.vtx" "file"
"models\maps\oc_back\oildrumpack_small.mdl" "file"
"models\maps\oc_back\oildrumpack_small.phy" "file"
"models\maps\oc_back\oildrumpack_small.vvd" "file"
"models\maps\oc_back\oildrumpack_small.dx80.vtx" "file"
"models\maps\oc_back\oildrumpack_small.dx90.vtx" "file"
"models\maps\oc_back\oildrumpack_small.sw.vtx" "file"
"models\maps\oc_back\50cal\50cal.mdl" "file"
"models\maps\oc_back\50cal\50cal.vvd" "file"
"models\maps\oc_back\50cal\50cal.dx80.vtx" "file"
"models\maps\oc_back\50cal\50cal.dx90.vtx" "file"
"models\maps\oc_back\50cal\50cal.sw.vtx" "file"
"models\maps\oc_back\blastdoor\blastdoor01_smash.mdl" "file"
"models\maps\oc_back\blastdoor\blastdoor01_smash.vvd" "file"
"models\maps\oc_back\blastdoor\blastdoor01_smash.dx80.vtx" "file"
"models\maps\oc_back\blastdoor\blastdoor01_smash.dx90.vtx" "file"
"models\maps\oc_back\blastdoor\blastdoor01_smash.sw.vtx" "file"
"models\maps\oc_back\CH47\ch47.mdl" "file"
"models\maps\oc_back\CH47\CH47.phy" "file"
"models\maps\oc_back\CH47\ch47.vvd" "file"
"models\maps\oc_back\CH47\CH47.dx80.vtx" "file"
"models\maps\oc_back\CH47\CH47.dx90.vtx" "file"
"models\maps\oc_back\CH47\CH47.sw.vtx" "file"
"models\maps\oc_back\fixed_escalator\escalatorf.mdl" "file"
"models\maps\oc_back\fixed_escalator\escalatorf.phy" "file"
"models\maps\oc_back\fixed_escalator\escalatorf.vvd" "file"
"models\maps\oc_back\fixed_escalator\escalatorf.dx80.vtx" "file"
"models\maps\oc_back\fixed_escalator\escalatorf.dx90.vtx" "file"
"models\maps\oc_back\fixed_escalator\escalatorf.sw.vtx" "file"
"models\maps\oc_back\fixed_mantaray\fmanta_ray.mdl" "file"
"models\maps\oc_back\fixed_mantaray\fmanta_ray.phy" "file"
"models\maps\oc_back\fixed_mantaray\fmanta_ray.vvd" "file"
"models\maps\oc_back\fixed_mantaray\fmanta_ray.dx80.vtx" "file"
"models\maps\oc_back\fixed_mantaray\fmanta_ray.dx90.vtx" "file"
"models\maps\oc_back\fixed_mantaray\fmanta_ray.sw.vtx" "file"
"models\maps\oc_back\frontdesk\am_front_desk.mdl" "file"
"models\maps\oc_back\frontdesk\am_front_desk.phy" "file"
"models\maps\oc_back\frontdesk\am_front_desk.vvd" "file"
"models\maps\oc_back\frontdesk\am_front_desk.dx80.vtx" "file"
"models\maps\oc_back\frontdesk\am_front_desk.dx90.vtx" "file"
"models\maps\oc_back\frontdesk\am_front_desk.sw.vtx" "file"
"models\maps\oc_back\idcardreader\idcardreader.mdl" "file"
"models\maps\oc_back\idcardreader\idcardreader.phy" "file"
"models\maps\oc_back\idcardreader\idcardreader.vvd" "file"
"models\maps\oc_back\idcardreader\idcardreader.dx80.vtx" "file"
"models\maps\oc_back\idcardreader\idcardreader.dx90.vtx" "file"
"models\maps\oc_back\idcardreader\idcardreader.sw.vtx" "file"
"models\maps\oc_back\Johnson\johnson.mdl" "file"
"models\maps\oc_back\Johnson\Johnson.phy" "file"
"models\maps\oc_back\Johnson\johnson.vvd" "file"
"models\maps\oc_back\Johnson\Johnson.dx80.vtx" "file"
"models\maps\oc_back\Johnson\Johnson.dx90.vtx" "file"
"models\maps\oc_back\Johnson\Johnson.sw.vtx" "file"
"models\maps\oc_back\m35\m35_blown.mdl" "file"
"models\maps\oc_back\m35\M35_blown.phy" "file"
"models\maps\oc_back\m35\m35_blown.vvd" "file"
"models\maps\oc_back\m35\M35_blown.dx80.vtx" "file"
"models\maps\oc_back\m35\M35_blown.dx90.vtx" "file"
"models\maps\oc_back\m35\M35_blown.sw.vtx" "file"
"models\maps\oc_back\m35\m35canvas.mdl" "file"
"models\maps\oc_back\m35\m35canvas.phy" "file"
"models\maps\oc_back\m35\m35canvas.vvd" "file"
"models\maps\oc_back\m35\m35canvas.dx80.vtx" "file"
"models\maps\oc_back\m35\m35canvas.dx90.vtx" "file"
"models\maps\oc_back\m35\m35canvas.sw.vtx" "file"
"models\maps\oc_back\osprey\gibs\v22_gib_fuselage.mdl" "file"
"models\maps\oc_back\osprey\gibs\v22_gib_fuselage.phy" "file"
"models\maps\oc_back\osprey\gibs\v22_gib_fuselage.vvd" "file"
"models\maps\oc_back\osprey\gibs\v22_gib_fuselage.dx80.vtx" "file"
"models\maps\oc_back\osprey\gibs\v22_gib_fuselage.dx90.vtx" "file"
"models\maps\oc_back\osprey\gibs\v22_gib_fuselage.sw.vtx" "file"
"models\maps\oc_back\osprey\gibs\v22_gib_lnacelle.mdl" "file"
"models\maps\oc_back\osprey\gibs\v22_gib_lnacelle.phy" "file"
"models\maps\oc_back\osprey\gibs\v22_gib_lnacelle.vvd" "file"
"models\maps\oc_back\osprey\gibs\v22_gib_lnacelle.dx80.vtx" "file"
"models\maps\oc_back\osprey\gibs\v22_gib_lnacelle.dx90.vtx" "file"
"models\maps\oc_back\osprey\gibs\v22_gib_lnacelle.sw.vtx" "file"
"models\maps\oc_back\osprey\gibs\v22_gib_lstab.mdl" "file"
"models\maps\oc_back\osprey\gibs\v22_gib_lstab.phy" "file"
"models\maps\oc_back\osprey\gibs\v22_gib_lstab.vvd" "file"
"models\maps\oc_back\osprey\gibs\v22_gib_lstab.dx80.vtx" "file"
"models\maps\oc_back\osprey\gibs\v22_gib_lstab.dx90.vtx" "file"
"models\maps\oc_back\osprey\gibs\v22_gib_lstab.sw.vtx" "file"
"models\maps\oc_back\osprey\gibs\v22_gib_wing.mdl" "file"
"models\maps\oc_back\osprey\gibs\v22_gib_wing.phy" "file"
"models\maps\oc_back\osprey\gibs\v22_gib_wing.vvd" "file"
"models\maps\oc_back\osprey\gibs\v22_gib_wing.dx80.vtx" "file"
"models\maps\oc_back\osprey\gibs\v22_gib_wing.dx90.vtx" "file"
"models\maps\oc_back\osprey\gibs\v22_gib_wing.sw.vtx" "file"
"models\maps\oc_back\retinalscanner\retinalscanner.mdl" "file"
"models\maps\oc_back\retinalscanner\retinalscanner.phy" "file"
"models\maps\oc_back\retinalscanner\retinalscanner.vvd" "file"
"models\maps\oc_back\retinalscanner\retinalscanner.dx80.vtx" "file"
"models\maps\oc_back\retinalscanner\retinalscanner.dx90.vtx" "file"
"models\maps\oc_back\retinalscanner\retinalscanner.sw.vtx" "file"
"models\maps\oc_back\sandbags\sandbags_semicircle.mdl" "file"
"models\maps\oc_back\sandbags\sandbags_semicircle.phy" "file"
"models\maps\oc_back\sandbags\sandbags_semicircle.vvd" "file"
"models\maps\oc_back\sandbags\sandbags_semicircle.dx80.vtx" "file"
"models\maps\oc_back\sandbags\sandbags_semicircle.dx90.vtx" "file"
"models\maps\oc_back\sandbags\sandbags_semicircle.sw.vtx" "file"
"models\maps\oc_back\securitystation\securitystation.mdl" "file"
"models\maps\oc_back\securitystation\securitystation.phy" "file"
"models\maps\oc_back\securitystation\securitystation.vvd" "file"
"models\maps\oc_back\securitystation\securitystation.dx80.vtx" "file"
"models\maps\oc_back\securitystation\securitystation.dx90.vtx" "file"
"models\maps\oc_back\securitystation\securitystation.sw.vtx" "file"
"models\maps\oc_back\securitystation\securitystation_corner.mdl" "file"
"models\maps\oc_back\securitystation\securitystation_corner.phy" "file"
"models\maps\oc_back\securitystation\securitystation_corner.vvd" "file"
"models\maps\oc_back\securitystation\securitystation_corner.dx80.vtx" "file"
"models\maps\oc_back\securitystation\securitystation_corner.dx90.vtx" "file"
"models\maps\oc_back\securitystation\securitystation_corner.sw.vtx" "file"
"models\maps\oc_back\turnstyle\turnstyle.mdl" "file"
"models\maps\oc_back\turnstyle\turnstyle.phy" "file"
"models\maps\oc_back\turnstyle\turnstyle.vvd" "file"
"models\maps\oc_back\turnstyle\turnstyle.dx80.vtx" "file"
"models\maps\oc_back\turnstyle\turnstyle.dx90.vtx" "file"
"models\maps\oc_back\turnstyle\turnstyle.sw.vtx" "file"
"models\maps\oc_back\zombies\zombie_guard.mdl" "file"
"models\maps\oc_back\zombies\zombie_guard.phy" "file"
"models\maps\oc_back\zombies\zombie_guard.vvd" "file"
"models\maps\oc_back\zombies\zombie_guard.dx80.vtx" "file"
"models\maps\oc_back\zombies\zombie_guard.dx90.vtx" "file"
"models\maps\oc_back\zombies\zombie_guard.sw.vtx" "file"
"models\maps\oc_back\zombies\zombie_sci.mdl" "file"
"models\maps\oc_back\zombies\zombie_sci.phy" "file"
"models\maps\oc_back\zombies\zombie_sci.vvd" "file"
"models\maps\oc_back\zombies\zombie_sci.dx80.vtx" "file"
"models\maps\oc_back\zombies\zombie_sci.dx90.vtx" "file"
"models\maps\oc_back\zombies\zombie_sci.sw.vtx" "file"
"models\maps\oc_back\zombies\zombie_shared.mdl" "file"
"models\weapons\oc_back\v_hecub92fs.mdl" "file"
"models\weapons\oc_back\v_hecub92fs.vvd" "file"
"models\weapons\oc_back\v_hecub92fs.dx80.vtx" "file"
"models\weapons\oc_back\v_hecub92fs.dx90.vtx" "file"
"models\weapons\oc_back\v_hecub92fs.sw.vtx" "file"
"models\weapons\oc_back\v_hecudeagle.mdl" "file"
"models\weapons\oc_back\v_hecudeagle.vvd" "file"
"models\weapons\oc_back\v_hecudeagle.dx80.vtx" "file"
"models\weapons\oc_back\v_hecudeagle.dx90.vtx" "file"
"models\weapons\oc_back\v_hecudeagle.sw.vtx" "file"
"models\weapons\oc_back\v_hecuflaregun.mdl" "file"
"models\weapons\oc_back\v_hecuflaregun.vvd" "file"
"models\weapons\oc_back\v_hecuflaregun.dx80.vtx" "file"
"models\weapons\oc_back\v_hecuflaregun.dx90.vtx" "file"
"models\weapons\oc_back\v_hecuflaregun.sw.vtx" "file"
"models\weapons\oc_back\v_hecuflaregun.xbox.vtx" "file"
"models\weapons\oc_back\v_hecum4.mdl" "file"
"models\weapons\oc_back\v_hecum4.vvd" "file"
"models\weapons\oc_back\v_hecum4.dx80.vtx" "file"
"models\weapons\oc_back\v_hecum4.dx90.vtx" "file"
"models\weapons\oc_back\v_hecum4.sw.vtx" "file"
"models\weapons\oc_back\v_hecum24.mdl" "file"
"models\weapons\oc_back\v_hecum24.vvd" "file"
"models\weapons\oc_back\v_hecum24.dx80.vtx" "file"
"models\weapons\oc_back\v_hecum24.dx90.vtx" "file"
"models\weapons\oc_back\v_hecum24.sw.vtx" "file"
"models\weapons\oc_back\v_hecuspas12.mdl" "file"
"models\weapons\oc_back\v_hecuspas12.vvd" "file"
"models\weapons\oc_back\v_hecuspas12.dx80.vtx" "file"
"models\weapons\oc_back\v_hecuspas12.dx90.vtx" "file"
"models\weapons\oc_back\v_hecuspas12.sw.vtx" "file"
"models\weapons\oc_back\w_hecub92fs.mdl" "file"
"models\weapons\oc_back\w_hecub92fs.phy" "file"
"models\weapons\oc_back\w_hecub92fs.vvd" "file"
"models\weapons\oc_back\w_hecub92fs.dx80.vtx" "file"
"models\weapons\oc_back\w_hecub92fs.dx90.vtx" "file"
"models\weapons\oc_back\w_hecub92fs.sw.vtx" "file"
"models\weapons\oc_back\w_hecudeagle.mdl" "file"
"models\weapons\oc_back\w_hecudeagle.phy" "file"
"models\weapons\oc_back\w_hecudeagle.vvd" "file"
"models\weapons\oc_back\w_hecudeagle.dx80.vtx" "file"
"models\weapons\oc_back\w_hecudeagle.dx90.vtx" "file"
"models\weapons\oc_back\w_hecudeagle.sw.vtx" "file"
"models\weapons\oc_back\w_hecuflaregun.mdl" "file"
"models\weapons\oc_back\w_hecuflaregun.phy" "file"
"models\weapons\oc_back\w_hecuflaregun.vvd" "file"
"models\weapons\oc_back\w_hecuflaregun.dx80.vtx" "file"
"models\weapons\oc_back\w_hecuflaregun.dx90.vtx" "file"
"models\weapons\oc_back\w_hecuflaregun.sw.vtx" "file"
"models\weapons\oc_back\w_hecuflaregun.xbox.vtx" "file"
"models\weapons\oc_back\w_hecum4.mdl" "file"
"models\weapons\oc_back\w_hecum4.phy" "file"
"models\weapons\oc_back\w_hecum4.vvd" "file"
"models\weapons\oc_back\w_hecum4.dx80.vtx" "file"
"models\weapons\oc_back\w_hecum4.dx90.vtx" "file"
"models\weapons\oc_back\w_hecum4.sw.vtx" "file"
"models\weapons\oc_back\w_hecum24.mdl" "file"
"models\weapons\oc_back\w_hecum24.phy" "file"
"models\weapons\oc_back\w_hecum24.vvd" "file"
"models\weapons\oc_back\w_hecum24.dx80.vtx" "file"
"models\weapons\oc_back\w_hecum24.dx90.vtx" "file"
"models\weapons\oc_back\w_hecum24.sw.vtx" "file"
"scenes\oc_back\johnson1.vcd" "file"
"scenes\oc_back\johnson2.vcd" "file"
"scenes\oc_back\johnson3.vcd" "file"
"scenes\oc_back\johnson4.vcd" "file"
"scenes\oc_back\ripley1.vcd" "file"
"scenes\oc_back\ripley2.vcd" "file"
"scripts\customweapons\oc_back\custom_back_beretta.txt" "file"
"scripts\customweapons\oc_back\custom_back_deagle.txt" "file"
"scripts\customweapons\oc_back\custom_back_flaregun.txt" "file"
"scripts\customweapons\oc_back\custom_back_m4m203.txt" "file"
"scripts\customweapons\oc_back\custom_back_m24.txt" "file"
"scripts\customweapons\oc_back\custom_back_pistolburst.txt" "file"
"scripts\customweapons\oc_back\custom_back_rpg.txt" "file"
"scripts\customweapons\oc_back\custom_back_spas12.txt" "file"
"sound\weapons\oc_back\deagle\clipin.wav" "file"
"sound\weapons\oc_back\deagle\clipout.wav" "file"
"sound\weapons\oc_back\deagle\cliptap.wav" "file"
"sound\weapons\oc_back\deagle\deagle-1.wav" "file"
"sound\weapons\oc_back\deagle\deploy.wav" "file"
"sound\weapons\oc_back\deagle\slideforward.wav" "file"
"sound\weapons\oc_back\m4\ar2_reload_push.wav" "file"
"sound\weapons\oc_back\m4\ar2_reload_rotate.wav" "file"
"sound\weapons\oc_back\m4\fire1.wav" "file"
"sound\weapons\oc_back\m4\irifle_fire2.wav" "file"
"sound\weapons\oc_back\m24\m24_boltback.wav" "file"
"sound\weapons\oc_back\m24\m24_boltforward.wav" "file"
"sound\weapons\oc_back\m24\scout_bolt.wav" "file"
"sound\weapons\oc_back\m24\scout_clipin.wav" "file"
"sound\weapons\oc_back\m24\scout_clipout.wav" "file"
"sound\weapons\oc_back\m24\scout_cliptap.wav" "file"
"sound\weapons\oc_back\m24\scout_fire-1.wav" "file"
}
